[
null,
{"id":1,"expParams":[32,20,31,30],"traits":[{"code":22,"dataId":0,"value":0.95},{"code":23,"dataId":0,"value":1},{"code":22,"dataId":1,"value":0.05},{"code":41,"dataId":3,"value":1},{"code":41,"dataId":2,"value":1},{"code":41,"dataId":6,"value":1},{"code":51,"dataId":7,"value":0},{"code":51,"dataId":13,"value":1},{"code":52,"dataId":1,"value":0},{"code":52,"dataId":3,"value":0},{"code":52,"dataId":10,"value":1},{"code":52,"dataId":11,"value":1},{"code":52,"dataId":6,"value":1}],"learnings":[{"level":1,"note":"","skillId":5},{"level":1,"note":"","skillId":6},{"level":1,"note":"","skillId":333},{"level":1,"note":"","skillId":334},{"level":1,"note":"","skillId":338},{"level":1,"note":"","skillId":330}],"name":"Arqueiro","note":"<Swap Gauge 2: Item 20>\n<Equip Slot: 1, 3, 4, 5>\n<Learn Skill: 11, 12, 13, 14, 15, 16, 17, 19>\n<Learn Skill: 376, 377, 378, 379, 380, 381, 382 ,383>\n<Icon: 102>\n","params":[[1,341,415,488,561,634,708,781,854,927,1001,1074,1147,1220,1294,1367,1440,1513,1587,1660,1733,1806,1880,1953,2026,2099,2173,2246,2319,2392,2466,2539,2612,2685,2759,2832,2905,2978,3052,3125,3198,3271,3345,3418,3491,3564,3638,3711,3784,3857,3930,4004,4077,4150,4223,4297,4370,4443,4516,4590,4663,4736,4809,4883,4956,5029,5102,5176,5249,5322,5395,5469,5542,5615,5688,5762,5835,5908,5981,6055,6128,6201,6274,6348,6421,6494,6567,6641,6714,6787,6860,6934,7007,7080,7153,7227,7300,7373,7446,7519],[0,0,0,0,0,0,0,0,0,0,0,0,0,0,0,0,0,0,0,0,0,0,0,0,0,0,0,0,0,0,0,0,0,0,0,0,0,0,0,0,0,0,0,0,0,0,0,0,0,0,0,0,0,0,0,0,0,0,0,0,0,0,0,0,0,0,0,0,0,0,0,0,0,0,0,0,0,0,0,0,0,0,0,0,0,0,0,0,0,0,0,0,0,0,0,0,0,0,0,0],[1,18,22,25,29,32,36,39,43,46,49,53,56,60,63,67,70,74,77,80,84,87,91,94,98,101,104,108,111,115,118,122,125,129,132,135,139,142,146,149,153,156,159,163,166,170,173,177,180,184,187,190,194,197,201,204,208,211,215,218,221,225,228,232,235,239,242,245,249,252,256,259,263,266,270,273,276,280,283,287,290,294,297,300,304,307,311,314,318,321,325,328,331,335,338,342,345,349,352,355],[1,20,25,29,33,37,41,45,49,53,57,61,65,69,73,77,81,85,89,93,97,102,106,110,114,118,122,126,130,134,139,142,146,150,154,158,162,166,170,174,178,183,187,191,195,199,203,207,211,215,219,223,227,231,235,239,243,247,251,255,260,264,268,272,276,280,284,288,292,296,300,304,308,312,316,320,324,328,332,336,341,345,349,353,357,361,365,369,373,377,381,385,389,393,397,401,405,409,413,417],[1,16,19,22,25,27,30,33,35,38,41,43,46,49,51,54,57,59,62,65,67,70,73,76,78,81,84,86,89,92,94,97,100,102,105,108,110,113,116,118,121,124,127,129,132,135,137,140,143,145,148,151,153,156,159,161,164,167,169,172,175,178,180,183,186,188,191,194,196,199,202,204,207,210,212,215,218,220,223,226,229,231,234,237,239,242,245,247,250,253,255,258,261,263,266,269,271,274,277,279],[1,16,20,23,27,30,34,37,40,44,47,51,54,58,61,64,68,71,75,78,81,85,88,92,95,99,102,105,109,112,116,119,122,126,129,133,136,140,143,146,150,153,157,160,163,167,170,174,177,181,184,187,191,194,198,201,205,208,211,215,218,222,225,228,232,235,239,242,246,249,252,256,259,263,266,269,273,276,280,283,287,290,293,297,300,304,307,310,314,317,321,324,328,331,334,338,341,345,348,351],[1,37,46,55,64,72,81,90,99,107,116,125,134,142,151,160,169,177,186,195,203,212,221,230,238,247,256,265,273,282,291,300,308,317,326,334,343,352,361,369,378,387,396,404,413,422,431,439,448,457,465,474,483,492,500,509,518,527,535,544,553,562,570,579,588,597,605,614,623,631,640,649,658,666,675,684,693,701,710,719,728,736,745,754,762,771,780,789,797,806,815,824,832,841,850,859,867,876,885,893],[1,22,27,31,36,40,44,49,53,57,62,66,70,75,79,83,88,92,96,101,105,109,114,118,122,127,131,135,140,144,148,153,157,161,166,170,174,179,183,187,192,196,200,205,209,213,218,222,226,231,235,239,244,248,252,257,261,265,270,274,278,283,287,291,296,300,304,309,313,317,322,326,330,335,339,343,348,352,356,361,365,369,374,378,382,387,391,395,400,404,408,413,417,421,426,430,434,439,443,447]]},
{"id":2,"expParams":[30,20,30,33],"traits":[{"code":23,"dataId":0,"value":1},{"code":22,"dataId":0,"value":0.95},{"code":22,"dataId":1,"value":0.05},{"code":22,"dataId":2,"value":0.04},{"code":41,"dataId":2,"value":0},{"code":41,"dataId":6,"value":1},{"code":51,"dataId":1,"value":0},{"code":51,"dataId":8,"value":1},{"code":51,"dataId":13,"value":1},{"code":52,"dataId":1,"value":0},{"code":52,"dataId":10,"value":1},{"code":52,"dataId":11,"value":1},{"code":52,"dataId":6,"value":1}],"learnings":[{"level":1,"note":"","skillId":5},{"level":1,"note":"","skillId":6},{"level":1,"note":"","skillId":337},{"level":1,"note":"","skillId":330}],"name":"Ladrão","note":"<Equip Slot: 1, 2, 3, 4, 5>\n<Icon: 1088>\n<Learn Skill: 21, 22, 23, 24, 25, 26, 27, 28, 29>\n<Learn Skill: 376, 377, 378, 379, 380, 381, 382 ,383>\n","params":[[1,362,433,503,573,643,713,783,853,924,994,1064,1134,1204,1274,1344,1414,1485,1555,1625,1695,1765,1835,1905,1976,2046,2116,2186,2256,2326,2396,2466,2537,2607,2677,2747,2817,2887,2957,3028,3098,3168,3238,3308,3378,3448,3518,3589,3659,3729,3799,3869,3939,4009,4080,4150,4220,4290,4360,4430,4500,4570,4641,4711,4781,4851,4921,4991,5061,5132,5202,5272,5342,5412,5482,5552,5622,5693,5763,5833,5903,5973,6043,6113,6184,6254,6324,6394,6464,6534,6604,6674,6745,6815,6885,6955,7025,7095,7165,7235],[0,0,0,0,0,0,0,0,0,0,0,0,0,0,0,0,0,0,0,0,0,0,0,0,0,0,0,0,0,0,0,0,0,0,0,0,0,0,0,0,0,0,0,0,0,0,0,0,0,0,0,0,0,0,0,0,0,0,0,0,0,0,0,0,0,0,0,0,0,0,0,0,0,0,0,0,0,0,0,0,0,0,0,0,0,0,0,0,0,0,0,0,0,0,0,0,0,0,0,0],[1,21,25,29,32,36,39,43,46,50,54,57,61,64,68,71,75,78,82,86,89,93,96,100,103,107,111,114,118,121,125,128,132,135,139,143,146,150,153,157,160,164,168,171,175,178,182,185,189,192,196,200,203,207,210,214,217,221,224,228,232,235,239,242,246,249,253,257,260,264,267,271,274,278,281,285,289,292,296,299,303,306,310,314,317,321,324,328,331,335,338,342,346,349,353,356,360,363,367,370],[1,13,15,17,19,20,22,24,25,27,29,31,32,34,36,37,39,41,42,44,46,48,49,51,53,54,56,58,60,61,63,65,66,68,70,71,73,75,77,78,80,82,83,85,87,88,90,92,94,95,97,99,100,102,104,106,107,109,111,112,114,116,117,119,121,123,124,126,128,129,131,133,134,136,138,140,141,143,145,146,148,150,152,153,155,157,158,160,162,163,165,167,169,170,172,174,175,177,179,180],[1,13,15,16,17,18,20,21,22,23,25,26,27,28,29,31,32,33,34,36,37,38,39,40,42,43,44,45,47,48,49,50,51,53,54,55,56,58,59,60,61,62,64,65,66,67,69,70,71,72,73,75,76,77,78,80,81,82,83,85,86,87,88,89,91,92,93,94,96,97,98,99,100,102,103,104,105,107,108,109,110,111,113,114,115,116,118,119,120,121,122,124,125,126,127,129,130,131,132,133],[0,14,16,18,20,22,24,25,27,29,31,33,34,36,38,40,42,44,45,47,49,51,53,54,56,58,60,62,64,65,67,69,71,73,74,76,78,80,82,84,85,87,89,91,93,94,96,98,100,102,103,105,107,109,111,113,114,116,118,120,122,123,125,127,129,131,133,134,136,138,140,142,143,145,147,149,151,153,154,156,158,160,162,163,165,167,169,171,173,174,176,178,180,182,183,185,187,189,191,192],[1,41,51,60,69,78,87,96,105,114,123,132,141,150,159,168,177,186,195,204,213,222,231,240,249,258,268,277,286,295,304,313,322,331,340,349,358,367,376,385,394,403,412,421,430,439,448,457,466,475,484,494,503,512,521,530,539,548,557,566,575,584,593,602,611,620,629,638,647,656,665,674,683,692,701,711,720,729,738,747,756,765,774,783,792,801,810,819,828,837,846,855,864,873,882,891,900,909,918,927],[1,37,42,46,50,54,58,62,66,70,74,78,82,86,90,94,98,102,107,111,115,119,123,127,131,135,139,143,147,151,155,159,163,167,172,176,180,184,188,192,196,200,204,208,212,216,220,224,228,232,236,241,245,249,253,257,261,265,269,273,277,281,285,289,293,297,301,306,310,314,318,322,326,330,334,338,342,346,350,354,358,362,366,371,375,379,383,387,391,395,399,403,407,411,415,419,423,427,431,435]]},
{"id":3,"expParams":[30,24,30,30],"traits":[{"code":23,"dataId":0,"value":1},{"code":22,"dataId":0,"value":0.95},{"code":22,"dataId":1,"value":0.05},{"code":22,"dataId":2,"value":0.04},{"code":41,"dataId":2,"value":0},{"code":41,"dataId":6,"value":1},{"code":51,"dataId":2,"value":0},{"code":52,"dataId":1,"value":0},{"code":52,"dataId":10,"value":1},{"code":52,"dataId":11,"value":1},{"code":52,"dataId":6,"value":1}],"learnings":[{"level":1,"note":"","skillId":5},{"level":1,"note":"","skillId":6},{"level":1,"note":"","skillId":333},{"level":1,"note":"","skillId":338},{"level":1,"note":"","skillId":330}],"name":"Ninja","note":"<Equip Slot: 1, 3, 4, 5>\n<Icon: 120>\n<Learn Skill: 31, 32, 33, 34, 35, 36, 37, 38, 39>\n<Learn Skill: 376, 377, 378, 379, 380, 381, 382 ,383>","params":[[1,354,425,495,566,636,706,777,847,918,988,1058,1129,1199,1270,1340,1410,1481,1551,1622,1692,1762,1833,1903,1974,2044,2114,2185,2255,2326,2396,2466,2537,2607,2678,2748,2818,2889,2959,3030,3100,3170,3241,3311,3382,3452,3522,3593,3663,3734,3804,3874,3945,4015,4086,4156,4226,4297,4367,4438,4508,4578,4649,4719,4790,4860,4930,5001,5071,5142,5212,5282,5353,5423,5494,5564,5634,5705,5775,5846,5916,5986,6057,6127,6198,6268,6338,6409,6479,6550,6620,6690,6761,6831,6902,6972,7042,7113,7183,7253],[0,0,0,0,0,0,0,0,0,0,0,0,0,0,0,0,0,0,0,0,0,0,0,0,0,0,0,0,0,0,0,0,0,0,0,0,0,0,0,0,0,0,0,0,0,0,0,0,0,0,0,0,0,0,0,0,0,0,0,0,0,0,0,0,0,0,0,0,0,0,0,0,0,0,0,0,0,0,0,0,0,0,0,0,0,0,0,0,0,0,0,0,0,0,0,0,0,0,0,0],[1,20,24,27,30,34,37,40,43,47,50,53,56,60,63,66,69,73,76,79,83,86,89,92,96,99,102,105,109,112,115,118,122,125,128,132,135,138,141,145,148,151,154,158,161,164,167,171,174,177,180,184,187,190,194,197,200,203,207,210,213,216,220,223,226,229,233,236,239,243,246,249,252,256,259,262,265,269,272,275,278,282,285,288,292,295,298,301,305,308,311,314,318,321,324,327,331,334,337,340],[1,16,19,22,25,28,31,34,37,40,43,46,49,52,54,57,60,63,66,69,72,75,78,81,84,87,89,92,95,98,101,104,107,110,113,116,119,122,124,127,130,133,136,139,142,145,148,151,154,157,159,162,165,168,171,174,177,180,183,186,189,192,195,197,200,203,206,209,212,215,218,221,224,227,230,232,235,238,241,244,247,250,253,256,259,262,265,267,270,273,276,279,282,285,288,291,294,297,300,302],[1,12,14,16,17,19,21,22,24,25,27,29,30,32,34,35,37,38,40,42,43,45,47,48,50,51,53,55,56,58,60,61,63,64,66,68,69,71,73,74,76,77,79,81,82,84,86,87,89,90,92,94,95,97,98,100,102,103,105,107,108,110,111,113,115,116,118,120,121,123,124,126,128,129,131,133,134,136,137,139,141,142,144,146,147,149,150,152,154,155,157,159,160,162,163,165,167,168,170,171],[1,16,19,22,24,27,30,32,35,38,40,43,46,48,51,53,56,59,61,64,67,69,72,75,77,80,83,85,88,90,93,96,98,101,104,106,109,112,114,117,120,122,125,127,130,133,135,138,141,143,146,149,151,154,157,159,162,164,167,170,172,175,178,180,183,186,188,191,194,196,199,201,204,207,209,212,215,217,220,223,225,228,231,233,236,238,241,244,246,249,252,254,257,260,262,265,268,270,273,275],[1,38,47,55,64,72,80,89,97,105,114,122,130,139,147,155,164,172,180,189,197,205,214,222,230,239,247,256,264,272,281,289,297,306,314,322,331,339,347,356,364,372,381,389,397,406,414,422,431,439,447,456,464,473,481,489,498,506,514,523,531,539,548,556,564,573,581,589,598,606,614,623,631,639,648,656,665,673,681,690,698,706,715,723,731,740,748,756,765,773,781,790,798,806,815,823,831,840,848,856],[0,32,39,46,53,60,67,74,81,88,95,102,109,116,123,130,137,144,151,158,165,172,179,186,193,200,207,214,221,228,235,242,249,256,263,270,277,284,291,298,305,312,319,326,333,340,347,354,361,368,374,381,388,395,402,409,416,423,430,437,444,451,458,465,472,479,486,493,500,507,514,521,528,535,542,549,556,563,570,577,584,591,598,605,612,619,626,633,640,647,654,661,668,675,682,689,696,703,710,716]]},
{"id":4,"expParams":[27,20,30,30],"traits":[{"code":23,"dataId":0,"value":1},{"code":22,"dataId":0,"value":0.95},{"code":22,"dataId":1,"value":0.05},{"code":22,"dataId":2,"value":0.04},{"code":41,"dataId":2,"value":0},{"code":41,"dataId":6,"value":1},{"code":51,"dataId":2,"value":0},{"code":51,"dataId":4,"value":1},{"code":51,"dataId":3,"value":1},{"code":52,"dataId":1,"value":0},{"code":52,"dataId":3,"value":1},{"code":52,"dataId":4,"value":1},{"code":52,"dataId":5,"value":1},{"code":52,"dataId":10,"value":1},{"code":52,"dataId":11,"value":1},{"code":52,"dataId":6,"value":1}],"learnings":[{"level":1,"note":"","skillId":5},{"level":1,"note":"","skillId":6},{"level":1,"note":"","skillId":341},{"level":1,"note":"","skillId":330}],"name":"Guerreiro","note":"<Equip Slot: 1, 2, 3, 4, 5>\n\n<Learn Skill: 41, 42, 43, 44, 45, 46, 47, 48, 49> \n<Icon: 128>\n<Learn Skill: 376, 377, 378, 379, 380, 381, 382 ,383>","params":[[1,580,666,752,838,924,1009,1095,1181,1267,1352,1438,1524,1610,1695,1781,1867,1953,2039,2124,2210,2296,2382,2467,2553,2639,2725,2810,2896,2982,3068,3153,3239,3325,3411,3497,3582,3668,3754,3840,3925,4011,4097,4183,4268,4354,4440,4526,4611,4697,4783,4869,4955,5040,5126,5212,5298,5383,5469,5555,5641,5726,5812,5898,5984,6069,6155,6241,6327,6413,6498,6584,6670,6756,6841,6927,7013,7099,7184,7270,7356,7442,7527,7613,7699,7785,7871,7956,8042,8128,8214,8299,8385,8471,8557,8642,8728,8814,8900,8985],[0,0,0,0,0,0,0,0,0,0,0,0,0,0,0,0,0,0,0,0,0,0,0,0,0,0,0,0,0,0,0,0,0,0,0,0,0,0,0,0,0,0,0,0,0,0,0,0,0,0,0,0,0,0,0,0,0,0,0,0,0,0,0,0,0,0,0,0,0,0,0,0,0,0,0,0,0,0,0,0,0,0,0,0,0,0,0,0,0,0,0,0,0,0,0,0,0,0,0,0],[1,18,22,25,29,32,35,39,42,45,49,52,55,59,62,65,69,72,76,79,82,86,89,92,96,99,102,106,109,112,116,119,123,126,129,133,136,139,143,146,149,153,156,159,163,166,170,173,176,180,183,186,190,193,196,200,203,206,210,213,217,220,223,227,230,233,237,240,243,247,250,253,257,260,264,267,270,274,277,280,284,287,290,294,297,300,304,307,311,314,317,321,324,327,331,334,337,341,344,347],[1,23,28,33,38,42,47,52,57,61,66,71,76,80,85,90,95,99,104,109,113,118,123,128,132,137,142,147,151,156,161,166,170,175,180,184,189,194,199,203,208,213,218,222,227,232,237,241,246,251,255,260,265,270,274,279,284,289,293,298,303,308,312,317,322,327,331,336,341,345,350,355,360,364,369,374,379,383,388,393,398,402,407,412,416,421,426,431,435,440,445,450,454,459,464,469,473,478,483,487],[1,12,14,15,16,17,18,19,20,21,22,23,24,25,26,27,29,30,31,32,33,34,35,36,37,38,39,40,41,42,44,45,46,47,48,49,50,51,52,53,54,55,56,57,59,60,61,62,63,64,65,66,67,68,69,70,71,72,74,75,76,77,78,79,80,81,82,83,84,85,86,87,89,90,91,92,93,94,95,96,97,98,99,100,101,102,104,105,106,107,108,109,110,111,112,113,114,115,116,117],[0,20,25,29,33,37,41,45,49,53,57,61,65,69,73,77,81,85,90,94,98,102,106,110,114,118,122,126,130,134,138,142,146,150,155,159,163,167,171,175,179,183,187,191,195,199,203,207,211,215,219,224,228,232,236,240,244,248,252,256,260,264,268,272,276,280,284,289,293,297,301,305,309,313,317,321,325,329,333,337,341,345,349,354,358,362,366,370,374,378,382,386,390,394,398,402,406,410,414,418],[1,12,16,19,22,25,29,32,35,38,42,45,48,51,54,58,61,64,67,71,74,77,80,83,87,90,93,96,100,103,106,109,112,116,119,122,125,129,132,135,138,141,145,148,151,154,158,161,164,167,170,174,177,180,183,187,190,193,196,200,203,206,209,212,216,219,222,225,229,232,235,238,241,245,248,251,254,258,261,264,267,270,274,277,280,283,287,290,293,296,299,303,306,309,312,316,319,322,325,328],[1,30,38,45,52,59,67,74,81,88,95,103,110,117,124,131,139,146,153,160,168,175,182,189,196,204,211,218,225,232,240,247,254,261,269,276,283,290,297,305,312,319,326,333,341,348,355,362,370,377,384,391,398,406,413,420,427,434,442,449,456,463,471,478,485,492,499,507,514,521,528,535,543,550,557,564,572,579,586,593,600,608,615,622,629,636,644,651,658,665,673,680,687,694,701,709,716,723,730,737]]},
{"id":5,"expParams":[30,20,27,30],"traits":[{"code":23,"dataId":0,"value":1},{"code":22,"dataId":0,"value":0.95},{"code":22,"dataId":1,"value":0.05},{"code":22,"dataId":2,"value":0.04},{"code":41,"dataId":2,"value":0},{"code":41,"dataId":6,"value":1},{"code":51,"dataId":2,"value":1},{"code":51,"dataId":4,"value":0},{"code":51,"dataId":5,"value":1},{"code":52,"dataId":1,"value":0},{"code":52,"dataId":3,"value":1},{"code":52,"dataId":4,"value":1},{"code":52,"dataId":5,"value":1},{"code":52,"dataId":10,"value":1},{"code":52,"dataId":11,"value":1},{"code":52,"dataId":6,"value":1}],"learnings":[{"level":1,"note":"","skillId":5},{"level":1,"note":"","skillId":6},{"level":1,"note":"","skillId":270},{"level":1,"note":"","skillId":53},{"level":1,"note":"","skillId":335},{"level":1,"note":"","skillId":339},{"level":1,"note":"","skillId":271},{"level":1,"note":"","skillId":330}],"name":"Bárbaro","note":"<Equip Slot: 1, 3, 4, 5>\n<Swap Gauge 2: Item 30>\n<Learn Skill: 51, 52, 54, 55, 57, 58>\n<Icon: 1136>\n<Learn Skill: 376, 377, 378, 379, 380, 381, 382 ,383>","params":[[1,687,783,878,973,1068,1163,1258,1353,1448,1543,1638,1733,1828,1923,2018,2113,2208,2303,2398,2493,2588,2683,2778,2873,2968,3063,3158,3253,3348,3443,3538,3633,3728,3823,3918,4013,4108,4203,4298,4393,4488,4583,4678,4773,4868,4963,5058,5153,5248,5343,5439,5534,5629,5724,5819,5914,6009,6104,6199,6294,6389,6484,6579,6674,6769,6864,6959,7054,7149,7244,7339,7434,7529,7624,7719,7814,7909,8004,8099,8194,8289,8384,8479,8574,8669,8764,8859,8954,9049,9144,9239,9334,9429,9524,9619,9714,9809,9904,9999],[0,0,0,0,0,0,0,0,0,0,0,0,0,0,0,0,0,0,0,0,0,0,0,0,0,0,0,0,0,0,0,0,0,0,0,0,0,0,0,0,0,0,0,0,0,0,0,0,0,0,0,0,0,0,0,0,0,0,0,0,0,0,0,0,0,0,0,0,0,0,0,0,0,0,0,0,0,0,0,0,0,0,0,0,0,0,0,0,0,0,0,0,0,0,0,0,0,0,0,0],[1,23,27,31,35,39,43,47,50,54,58,62,66,70,74,77,81,85,89,93,97,100,104,108,112,116,120,124,127,131,135,139,143,147,150,154,158,162,166,170,174,177,181,185,189,193,197,200,204,208,212,216,220,224,227,231,235,239,243,247,250,254,258,262,266,270,274,277,281,285,289,293,297,300,304,308,312,316,320,324,327,331,335,339,343,347,350,354,358,362,366,370,374,377,381,385,389,393,397,400],[1,14,16,18,20,21,23,25,26,28,30,31,33,35,37,38,40,42,43,45,47,48,50,52,53,55,57,59,60,62,64,65,67,69,70,72,74,75,77,79,81,82,84,86,87,89,91,92,94,96,97,99,101,103,104,106,108,109,111,113,114,116,118,120,121,123,125,126,128,130,131,133,135,136,138,140,142,143,145,147,148,150,152,153,155,157,158,160,162,164,165,167,169,170,172,174,175,177,179,180],[1,10,12,14,15,17,19,20,22,24,25,27,29,30,32,34,35,37,39,40,42,44,45,47,49,50,52,53,55,57,58,60,62,63,65,67,68,70,72,73,75,77,78,80,82,83,85,87,88,90,91,93,95,96,98,100,101,103,105,106,108,110,111,113,115,116,118,120,121,123,125,126,128,130,131,133,134,136,138,139,141,143,144,146,148,149,151,153,154,156,158,159,161,163,164,166,168,169,171,172],[1,15,17,19,20,22,24,25,27,29,30,32,33,35,37,38,40,42,43,45,47,48,50,51,53,55,56,58,60,61,63,64,66,68,69,71,73,74,76,78,79,81,82,84,86,87,89,91,92,94,95,97,99,100,102,104,105,107,109,110,112,113,115,117,118,120,122,123,125,127,128,130,131,133,135,136,138,140,141,143,144,146,148,149,151,153,154,156,158,159,161,162,164,166,167,169,171,172,174,175],[1,29,36,42,49,55,61,68,74,80,87,93,99,106,112,118,125,131,137,144,150,156,163,169,175,182,188,194,201,207,213,220,226,232,239,245,251,258,264,270,277,283,289,296,302,308,315,321,327,334,340,346,353,359,365,372,378,384,391,397,403,410,416,422,429,435,441,448,454,460,467,473,479,486,492,498,505,511,517,524,530,536,543,549,555,562,568,574,581,587,593,600,606,612,619,625,631,638,644,650],[1,23,30,36,42,48,54,61,67,73,79,85,92,98,104,110,116,123,129,135,141,147,154,160,166,172,178,185,191,197,203,209,216,222,228,234,240,246,253,259,265,271,277,284,290,296,302,308,315,321,327,333,339,346,352,358,364,370,377,383,389,395,401,408,414,420,426,432,438,445,451,457,463,469,476,482,488,494,500,507,513,519,525,531,538,544,550,556,562,569,575,581,587,593,600,606,612,618,624,630]]},
{"id":6,"expParams":[30,20,35,30],"traits":[{"code":23,"dataId":0,"value":1},{"code":22,"dataId":0,"value":0.95},{"code":22,"dataId":1,"value":0.05},{"code":22,"dataId":2,"value":0.04},{"code":41,"dataId":2,"value":0},{"code":41,"dataId":6,"value":1},{"code":51,"dataId":2,"value":0},{"code":51,"dataId":14,"value":0},{"code":52,"dataId":1,"value":0},{"code":52,"dataId":3,"value":1},{"code":52,"dataId":4,"value":1},{"code":52,"dataId":5,"value":1},{"code":52,"dataId":10,"value":1},{"code":52,"dataId":11,"value":1},{"code":52,"dataId":6,"value":1}],"learnings":[{"level":1,"note":"","skillId":5},{"level":1,"note":"","skillId":6},{"level":1,"note":"","skillId":268},{"level":1,"note":"","skillId":332},{"level":1,"note":"","skillId":335},{"level":1,"note":"","skillId":338},{"level":1,"note":"","skillId":330}],"name":"Paladino","note":"<Equip Slot: 1, 2, 3, 4, 5, 5>\n<Learn Skill: 61, 62, 63, 64, 65, 66, 67, 68, 69>\n<Icon: 132>\n<Learn Skill: 376, 377, 378, 379, 380, 381, 382 ,383>","params":[[1,500,590,679,769,858,948,1037,1127,1216,1305,1395,1484,1574,1663,1753,1842,1932,2021,2110,2200,2289,2379,2468,2558,2647,2736,2826,2915,3005,3094,3184,3273,3363,3452,3541,3631,3720,3810,3899,3989,4078,4167,4257,4346,4436,4525,4615,4704,4794,4883,4972,5062,5151,5241,5330,5420,5509,5599,5688,5777,5867,5956,6046,6135,6225,6314,6403,6493,6582,6672,6761,6851,6940,7030,7119,7208,7298,7387,7477,7566,7656,7745,7834,7924,8013,8103,8192,8282,8371,8461,8550,8639,8729,8818,8908,8997,9087,9176,9265],[0,0,0,0,0,0,0,0,0,0,0,0,0,0,0,0,0,0,0,0,0,0,0,0,0,0,0,0,0,0,0,0,0,0,0,0,0,0,0,0,0,0,0,0,0,0,0,0,0,0,0,0,0,0,0,0,0,0,0,0,0,0,0,0,0,0,0,0,0,0,0,0,0,0,0,0,0,0,0,0,0,0,0,0,0,0,0,0,0,0,0,0,0,0,0,0,0,0,0,0],[1,17,21,24,27,30,33,36,39,42,46,49,52,55,58,61,64,67,71,74,77,80,83,86,89,92,96,99,102,105,108,111,114,117,121,124,127,130,133,136,139,142,146,149,152,155,158,161,164,167,170,174,177,180,183,186,189,192,195,199,202,205,208,211,214,217,220,224,227,230,233,236,239,242,245,249,252,255,258,261,264,267,270,274,277,280,283,286,289,292,295,299,302,305,308,311,314,317,320,323],[1,21,26,30,34,39,43,47,52,56,60,64,69,73,77,82,86,90,95,99,103,107,112,116,120,125,129,133,137,142,146,150,155,159,163,168,172,176,180,185,189,193,198,202,206,211,215,219,223,228,232,236,241,245,249,253,258,262,266,271,275,279,284,288,292,296,301,305,309,314,318,322,327,331,335,339,344,348,352,357,361,365,369,374,378,382,387,391,395,400,404,408,412,417,421,425,430,434,438,442],[1,13,15,17,18,20,21,23,24,26,27,29,31,32,34,35,37,38,40,41,43,45,46,48,49,51,52,54,55,57,58,60,62,63,65,66,68,69,71,72,74,76,77,79,80,82,83,85,86,88,89,91,93,94,96,97,99,100,102,103,105,107,108,110,111,113,114,116,117,119,121,122,124,125,127,128,130,131,133,134,136,138,139,141,142,144,145,147,148,150,152,153,155,156,158,159,161,162,164,165],[1,21,26,30,34,39,43,47,52,56,60,65,69,73,78,82,86,91,95,99,104,108,112,117,121,125,130,134,138,143,147,151,156,160,164,169,173,177,182,186,190,195,199,203,208,212,216,221,225,229,233,238,242,246,251,255,259,264,268,272,277,281,285,290,294,298,303,307,311,316,320,324,329,333,337,342,346,350,355,359,363,368,372,376,381,385,389,394,398,402,407,411,415,420,424,428,433,437,441,445],[1,29,36,43,50,56,63,70,76,83,90,96,103,110,117,123,130,137,143,150,157,163,170,177,183,190,197,204,210,217,224,230,237,244,250,257,264,270,277,284,291,297,304,311,317,324,331,337,344,351,357,364,371,378,384,391,398,404,411,418,424,431,438,445,451,458,465,471,478,485,491,498,505,511,518,525,532,538,545,552,558,565,572,578,585,592,598,605,612,619,625,632,639,645,652,659,665,672,679,685],[0,24,29,34,39,43,48,53,58,62,67,72,76,81,86,91,95,100,105,110,114,119,124,128,133,138,143,147,152,157,162,166,171,176,180,185,190,195,199,204,209,213,218,223,228,232,237,242,247,251,256,261,265,270,275,280,284,289,294,299,303,308,313,317,322,327,332,336,341,346,350,355,360,365,369,374,379,384,388,393,398,402,407,412,417,421,426,431,436,440,445,450,454,459,464,469,473,478,483,487]]},
{"id":7,"expParams":[35,20,30,30],"traits":[{"code":23,"dataId":0,"value":1},{"code":22,"dataId":0,"value":0.95},{"code":22,"dataId":1,"value":0.05},{"code":22,"dataId":2,"value":0.04},{"code":41,"dataId":2,"value":0},{"code":41,"dataId":6,"value":1},{"code":51,"dataId":11,"value":0},{"code":52,"dataId":1,"value":0},{"code":52,"dataId":11,"value":1},{"code":52,"dataId":6,"value":1}],"learnings":[{"level":1,"note":"","skillId":5},{"level":1,"note":"","skillId":6},{"level":1,"note":"","skillId":336},{"level":1,"note":"","skillId":338},{"level":1,"note":"","skillId":330}],"name":"Monge","note":"<Equip Slot: 1, 4, 5>\n<Learn Skill: 71, 72, 73, 74, 75, 76, 77, 78, 79> \n<Icon: 140>\n<Learn Skill: 376, 377, 378, 379, 380, 381, 382 ,383>","params":[[1,450,518,585,653,720,788,855,923,990,1058,1125,1193,1260,1328,1395,1463,1530,1598,1665,1733,1800,1868,1935,2003,2070,2138,2205,2273,2340,2408,2475,2543,2610,2678,2745,2813,2880,2948,3015,3083,3150,3218,3285,3353,3420,3488,3555,3623,3690,3757,3825,3892,3960,4027,4095,4162,4230,4297,4365,4432,4500,4567,4635,4702,4770,4837,4905,4972,5040,5107,5175,5242,5310,5377,5445,5512,5580,5647,5715,5782,5850,5917,5985,6052,6120,6187,6255,6322,6390,6457,6525,6592,6660,6727,6795,6862,6930,6997,7064],[0,0,0,0,0,0,0,0,0,0,0,0,0,0,0,0,0,0,0,0,0,0,0,0,0,0,0,0,0,0,0,0,0,0,0,0,0,0,0,0,0,0,0,0,0,0,0,0,0,0,0,0,0,0,0,0,0,0,0,0,0,0,0,0,0,0,0,0,0,0,0,0,0,0,0,0,0,0,0,0,0,0,0,0,0,0,0,0,0,0,0,0,0,0,0,0,0,0,0,0],[1,18,22,25,29,32,35,39,42,46,49,52,56,59,63,66,69,73,76,79,83,86,90,93,96,100,103,107,110,113,117,120,124,127,130,134,137,140,144,147,151,154,157,161,164,168,171,174,178,181,184,188,191,195,198,201,205,208,212,215,218,222,225,229,232,235,239,242,245,249,252,256,259,262,266,269,273,276,279,283,286,290,293,296,300,303,306,310,313,317,320,323,327,330,334,337,340,344,347,350],[1,17,20,23,25,28,31,33,36,39,41,44,47,49,52,55,57,60,63,65,68,71,73,76,79,81,84,87,89,92,95,97,100,103,105,108,111,113,116,119,121,124,127,129,132,135,137,140,143,145,148,151,153,156,159,161,164,167,169,172,175,177,180,183,185,188,191,193,196,199,201,204,207,209,212,215,217,220,223,225,228,231,233,236,239,241,244,247,249,252,255,257,260,263,265,268,271,273,276,278],[0,12,14,15,17,18,20,21,23,24,26,27,29,30,32,33,35,36,37,39,40,42,43,45,46,48,49,51,52,54,55,57,58,60,61,62,64,65,67,68,70,71,73,74,76,77,79,80,82,83,84,86,87,89,90,92,93,95,96,98,99,101,102,104,105,107,108,109,111,112,114,115,117,118,120,121,123,124,126,127,129,130,132,133,134,136,137,139,140,142,143,145,146,148,149,151,152,154,155,156],[1,18,22,25,28,32,35,38,42,45,48,52,55,58,62,65,68,72,75,78,82,85,88,92,95,98,102,105,108,112,115,118,122,125,128,132,135,138,142,145,148,152,155,158,162,165,168,172,175,178,181,185,188,191,195,198,201,205,208,211,215,218,221,225,228,231,235,238,241,245,248,251,255,258,261,265,268,271,275,278,281,285,288,291,295,298,301,305,308,311,315,318,321,325,328,331,335,338,341,344],[1,41,51,61,70,80,89,99,108,118,127,137,146,156,166,175,185,194,204,213,223,232,242,251,261,270,280,290,299,309,318,328,337,347,356,366,375,385,395,404,414,423,433,442,452,461,471,480,490,499,509,519,528,538,547,557,566,576,585,595,604,614,623,633,643,652,662,671,681,690,700,709,719,728,738,748,757,767,776,786,795,805,814,824,833,843,852,862,872,881,891,900,910,919,929,938,948,957,967,976],[0,34,42,49,57,64,71,79,86,94,101,108,116,123,131,138,145,153,160,168,175,182,190,197,205,212,219,227,234,242,249,256,264,271,279,286,293,301,308,316,323,330,338,345,353,360,367,375,382,390,397,404,412,419,427,434,441,449,456,464,471,478,486,493,501,508,515,523,530,538,545,552,560,567,575,582,589,597,604,612,619,626,634,641,649,656,663,671,678,686,693,700,708,715,723,730,737,745,752,759]]},
{"id":8,"expParams":[30,19,30,30],"traits":[{"code":23,"dataId":0,"value":1},{"code":22,"dataId":0,"value":0.95},{"code":22,"dataId":1,"value":0.05},{"code":22,"dataId":2,"value":0.04},{"code":41,"dataId":1,"value":0},{"code":41,"dataId":2,"value":1},{"code":41,"dataId":6,"value":1},{"code":51,"dataId":6,"value":0},{"code":52,"dataId":1,"value":0},{"code":52,"dataId":2,"value":1},{"code":52,"dataId":9,"value":1},{"code":52,"dataId":10,"value":1},{"code":52,"dataId":11,"value":1},{"code":52,"dataId":6,"value":1}],"learnings":[{"level":1,"note":"","skillId":5},{"level":1,"note":"","skillId":6},{"level":1,"note":"","skillId":332},{"level":1,"note":"","skillId":334},{"level":1,"note":"","skillId":339},{"level":1,"note":"","skillId":340},{"level":1,"note":"","skillId":81},{"level":1,"note":"","skillId":330}],"name":"Mago","note":"<Equip Slot: 1, 3, 4, 5, 6>\n<Learn Skill: 82, 83, 84, 85, 86, 87, 88, 89> \n<Icon: 133>\n<Learn Skill: 376, 377, 378, 379, 380, 381, 382 ,383>","params":[[1,275,337,399,461,523,585,647,709,771,833,895,957,1019,1081,1143,1205,1267,1329,1391,1453,1514,1576,1638,1700,1762,1824,1886,1948,2010,2072,2134,2196,2258,2320,2382,2444,2506,2568,2630,2692,2753,2815,2877,2939,3001,3063,3125,3187,3249,3311,3373,3435,3497,3559,3621,3683,3745,3807,3869,3930,3992,4054,4116,4178,4240,4302,4364,4426,4488,4550,4612,4674,4736,4798,4860,4922,4984,5046,5108,5169,5231,5293,5355,5417,5479,5541,5603,5665,5727,5789,5851,5913,5975,6037,6099,6161,6223,6285,6346],[0,140,159,177,195,213,231,249,267,285,303,321,340,358,376,394,412,430,448,466,484,502,520,539,557,575,593,611,629,647,665,683,701,719,738,756,774,792,810,828,846,864,882,900,918,937,955,973,991,1009,1027,1045,1063,1081,1099,1117,1136,1154,1172,1190,1208,1226,1244,1262,1280,1298,1316,1335,1353,1371,1389,1407,1425,1443,1461,1479,1497,1515,1534,1552,1570,1588,1606,1624,1642,1660,1678,1696,1714,1733,1751,1769,1787,1805,1823,1841,1859,1877,1895,1913],[1,11,14,16,18,20,22,25,27,29,31,33,35,38,40,42,44,46,48,51,53,55,57,59,61,64,66,68,70,72,75,77,79,81,83,85,88,90,92,94,96,98,101,103,105,107,109,111,114,116,118,120,122,125,127,129,131,133,135,138,140,142,144,146,148,151,153,155,157,159,161,164,166,168,170,172,175,177,179,181,183,185,188,190,192,194,196,198,201,203,205,207,209,211,214,216,218,220,222,224],[1,12,15,17,20,22,24,27,29,31,34,36,38,41,43,45,48,50,52,55,57,59,62,64,66,69,71,74,76,78,81,83,85,88,90,92,95,97,99,102,104,106,109,111,113,116,118,120,123,125,127,130,132,135,137,139,142,144,146,149,151,153,156,158,160,163,165,167,170,172,174,177,179,181,184,186,189,191,193,196,198,200,203,205,207,210,212,214,217,219,221,224,226,228,231,233,235,238,240,242],[1,24,30,35,40,45,51,56,61,66,72,77,82,87,93,98,103,108,113,119,124,129,134,140,145,150,155,161,166,171,176,182,187,192,197,202,208,213,218,223,229,234,239,244,250,255,260,265,271,276,281,286,291,297,302,307,312,318,323,328,333,339,344,349,354,360,365,370,375,380,386,391,396,401,407,412,417,422,428,433,438,443,449,454,459,464,469,475,480,485,490,496,501,506,511,517,522,527,532,537],[1,23,28,33,38,43,48,53,57,62,67,72,77,82,87,91,96,101,106,111,116,121,125,130,135,140,145,150,155,159,164,169,174,179,184,189,193,198,203,208,213,218,223,227,232,237,242,247,252,257,261,266,271,276,281,286,291,295,300,305,310,315,320,325,329,334,339,344,349,354,359,363,368,373,378,383,388,393,397,402,407,412,417,422,427,431,436,441,446,451,456,461,465,470,475,480,485,490,495,499],[1,25,31,37,42,48,54,59,65,71,76,82,88,93,99,104,110,116,121,127,133,138,144,150,155,161,167,172,178,183,189,195,200,206,212,217,223,229,234,240,246,251,257,262,268,274,279,285,291,296,302,308,313,319,325,330,336,341,347,353,358,364,370,375,381,387,392,398,404,409,415,420,426,432,437,443,449,454,460,466,471,477,483,488,494,499,505,511,516,522,528,533,539,545,550,556,562,567,573,578],[1,29,36,42,49,55,61,68,74,80,87,93,99,106,112,118,125,131,138,144,150,157,163,169,176,182,188,195,201,207,214,220,227,233,239,246,252,258,265,271,277,284,290,296,303,309,316,322,328,335,341,347,354,360,366,373,379,385,392,398,405,411,417,424,430,436,443,449,455,462,468,474,481,487,494,500,506,513,519,525,532,538,544,551,557,563,570,576,583,589,595,602,608,614,621,627,633,640,646,652]]},
{"id":9,"expParams":[30,20,30,27],"traits":[{"code":23,"dataId":0,"value":1},{"code":22,"dataId":0,"value":0.95},{"code":22,"dataId":1,"value":0.05},{"code":22,"dataId":2,"value":0.04},{"code":41,"dataId":1,"value":0},{"code":41,"dataId":2,"value":1},{"code":41,"dataId":6,"value":1},{"code":51,"dataId":6,"value":0},{"code":51,"dataId":12,"value":1},{"code":52,"dataId":1,"value":0},{"code":52,"dataId":2,"value":1},{"code":52,"dataId":9,"value":1},{"code":52,"dataId":10,"value":1},{"code":52,"dataId":11,"value":1},{"code":52,"dataId":6,"value":1}],"learnings":[{"level":1,"note":"","skillId":5},{"level":1,"note":"","skillId":6},{"level":1,"note":"","skillId":336},{"level":1,"note":"","skillId":330}],"name":"Necromante","note":"<Equip Slot: 1, 3, 4, 5, 6>\n<Learn Skill: 91, 92, 93, 94, 95, 96, 97, 98, 99> \n<Icon: 298>\n<Learn Skill: 376, 377, 378, 379, 380, 381, 382 ,383>","params":[[1,367,436,504,573,641,710,778,846,915,983,1052,1120,1189,1257,1325,1394,1462,1531,1599,1668,1736,1804,1873,1941,2010,2078,2147,2215,2283,2352,2420,2489,2557,2626,2694,2762,2831,2899,2968,3036,3105,3173,3241,3310,3378,3447,3515,3584,3652,3720,3789,3857,3926,3994,4063,4131,4199,4268,4336,4405,4473,4542,4610,4678,4747,4815,4884,4952,5021,5089,5157,5226,5294,5363,5431,5500,5568,5636,5705,5773,5842,5910,5979,6047,6115,6184,6252,6321,6389,6458,6526,6594,6663,6731,6800,6868,6937,7005,7073],[0,116,133,150,167,184,201,218,234,251,268,285,302,319,336,352,369,386,403,420,437,453,470,487,504,521,538,555,571,588,605,622,639,656,672,689,706,723,740,757,774,790,807,824,841,858,875,891,908,925,942,959,976,993,1009,1026,1043,1060,1077,1094,1110,1127,1144,1161,1178,1195,1212,1228,1245,1262,1279,1296,1313,1329,1346,1363,1380,1397,1414,1431,1447,1464,1481,1498,1515,1532,1548,1565,1582,1599,1616,1633,1650,1666,1683,1700,1717,1734,1751,1767],[1,13,16,19,21,24,26,29,32,34,37,39,42,44,47,50,52,55,57,60,63,65,68,70,73,75,78,81,83,86,88,91,94,96,99,101,104,106,109,112,114,117,119,122,125,127,130,132,135,137,140,143,145,148,150,153,155,158,161,163,166,168,171,174,176,179,181,184,186,189,192,194,197,199,202,205,207,210,212,215,217,220,223,225,228,230,233,236,238,241,243,246,248,251,254,256,259,261,264,266],[1,14,17,19,22,24,26,29,31,34,36,38,41,43,46,48,50,53,55,57,60,62,65,67,69,72,74,77,79,81,84,86,89,91,93,96,98,100,103,105,108,110,112,115,117,120,122,124,127,129,131,134,136,139,141,143,146,148,151,153,155,158,160,163,165,167,170,172,174,177,179,182,184,186,189,191,194,196,198,201,203,206,208,210,213,215,217,220,222,225,227,229,232,234,237,239,241,244,246,248],[1,20,25,29,33,38,42,46,50,55,59,63,68,72,76,80,85,89,93,97,102,106,110,115,119,123,127,132,136,140,144,149,153,157,162,166,170,174,179,183,187,192,196,200,204,209,213,217,221,226,230,234,239,243,247,251,256,260,264,268,273,277,281,286,290,294,298,303,307,311,316,320,324,328,333,337,341,345,350,354,358,363,367,371,375,380,384,388,392,397,401,405,410,414,418,422,427,431,435,439],[1,20,25,29,33,37,41,45,50,54,58,62,66,70,74,79,83,87,91,95,99,104,108,112,116,120,124,128,133,137,141,145,149,153,158,162,166,170,174,178,182,187,191,195,199,203,207,212,216,220,224,228,232,236,241,245,249,253,257,261,266,270,274,278,282,286,290,295,299,303,307,311,315,320,324,328,332,336,340,344,349,353,357,361,365,369,374,378,382,386,390,394,398,403,407,411,415,419,423,427],[0,31,38,45,51,58,64,71,78,84,91,97,104,110,117,124,130,137,143,150,157,163,170,176,183,189,196,203,209,216,222,229,236,242,249,255,262,268,275,282,288,295,301,308,315,321,328,334,341,347,354,361,367,374,380,387,393,400,407,413,420,426,433,440,446,453,459,466,472,479,486,492,499,505,512,519,525,532,538,545,551,558,565,571,578,584,591,598,604,611,617,624,630,637,644,650,657,663,670,676],[0,34,42,49,56,63,70,77,84,91,98,105,112,119,127,134,141,148,155,162,169,176,183,190,197,204,212,219,226,233,240,247,254,261,268,275,282,289,297,304,311,318,325,332,339,346,353,360,367,374,381,389,396,403,410,417,424,431,438,445,452,459,466,474,481,488,495,502,509,516,523,530,537,544,551,559,566,573,580,587,594,601,608,615,622,629,636,644,651,658,665,672,679,686,693,700,707,714,721,728]]},
{"id":10,"expParams":[30,20,34,30],"traits":[{"code":23,"dataId":0,"value":1},{"code":22,"dataId":0,"value":0.95},{"code":22,"dataId":1,"value":0.05},{"code":22,"dataId":2,"value":0.04},{"code":41,"dataId":1,"value":0},{"code":41,"dataId":2,"value":1},{"code":41,"dataId":6,"value":1},{"code":51,"dataId":9,"value":0},{"code":52,"dataId":1,"value":0},{"code":52,"dataId":7,"value":1},{"code":52,"dataId":10,"value":1},{"code":52,"dataId":11,"value":1},{"code":52,"dataId":6,"value":1}],"learnings":[{"level":1,"note":"","skillId":5},{"level":1,"note":"","skillId":6},{"level":1,"note":"","skillId":337},{"level":1,"note":"","skillId":330}],"name":"Bardo","note":"<Equip Slot: 1, 2, 3, 4, 5>\n<Learn Skill: 121, 122, 123, 124, 125, 126, 127, 128, 129> \n<Icon: 200>\n<Learn Skill: 376, 377, 378, 379, 380, 381, 382 ,383>","params":[[1,335,401,467,532,598,664,729,795,861,926,992,1058,1123,1189,1255,1320,1386,1452,1517,1583,1649,1714,1780,1846,1911,1977,2043,2108,2174,2240,2305,2371,2437,2502,2568,2634,2699,2765,2831,2896,2962,3028,3093,3159,3225,3290,3356,3422,3487,3553,3619,3684,3750,3816,3881,3947,4013,4078,4144,4210,4275,4341,4407,4472,4538,4604,4669,4735,4801,4866,4932,4998,5063,5129,5195,5260,5326,5392,5457,5523,5589,5654,5720,5786,5851,5917,5983,6048,6114,6180,6245,6311,6377,6442,6508,6574,6639,6705,6770],[0,95,108,121,133,146,158,171,183,196,208,221,234,246,259,271,284,296,309,321,334,347,359,372,384,397,409,422,434,447,459,472,485,497,510,522,535,547,560,572,585,598,610,623,635,648,660,673,685,698,710,723,736,748,761,773,786,798,811,823,836,849,861,874,886,899,911,924,936,949,962,974,987,999,1012,1024,1037,1049,1062,1074,1087,1100,1112,1125,1137,1150,1162,1175,1187,1200,1213,1225,1238,1250,1263,1275,1288,1300,1313,1325],[1,16,19,22,24,27,30,32,35,37,40,43,45,48,50,53,56,58,61,64,66,69,71,74,77,79,82,84,87,90,92,95,97,100,103,105,108,111,113,116,118,121,124,126,129,131,134,137,139,142,144,147,150,152,155,158,160,163,165,168,171,173,176,178,181,184,186,189,192,194,197,199,202,205,207,210,212,215,218,220,223,225,228,231,233,236,239,241,244,246,249,252,254,257,259,262,265,267,270,272],[1,13,16,18,21,23,26,28,30,33,35,38,40,43,45,47,50,52,55,57,60,62,64,67,69,72,74,77,79,81,84,86,89,91,94,96,98,101,103,106,108,111,113,115,118,120,123,125,128,130,132,135,137,140,142,145,147,149,152,154,157,159,162,164,166,169,171,174,176,179,181,183,186,188,191,193,196,198,200,203,205,208,210,213,215,217,220,222,225,227,230,232,234,237,239,242,244,247,249,251],[0,15,18,21,23,26,28,31,33,36,39,41,44,46,49,51,54,56,59,62,64,67,69,72,74,77,80,82,85,87,90,92,95,97,100,103,105,108,110,113,115,118,121,123,126,128,131,133,136,138,141,144,146,149,151,154,156,159,161,164,167,169,172,174,177,179,182,185,187,190,192,195,197,200,202,205,208,210,213,215,218,220,223,226,228,231,233,236,238,241,243,246,249,251,254,256,259,261,264,266],[0,20,24,28,32,36,40,44,48,52,56,60,63,67,71,75,79,83,87,91,95,99,103,106,110,114,118,122,126,130,134,138,142,146,149,153,157,161,165,169,173,177,181,185,189,192,196,200,204,208,212,216,220,224,228,232,235,239,243,247,251,255,259,263,267,271,275,278,282,286,290,294,298,302,306,310,314,318,321,325,329,333,337,341,345,349,353,357,361,364,368,372,376,380,384,388,392,396,400,403],[0,40,49,57,65,73,81,90,98,106,114,122,130,139,147,155,163,171,179,188,196,204,212,220,228,237,245,253,261,269,278,286,294,302,310,318,327,335,343,351,359,367,376,384,392,400,408,416,425,433,441,449,457,466,474,482,490,498,506,515,523,531,539,547,555,564,572,580,588,596,604,613,621,629,637,645,654,662,670,678,686,694,703,711,719,727,735,743,752,760,768,776,784,792,801,809,817,825,833,841],[1,37,46,55,63,72,81,89,98,106,115,124,132,141,149,158,167,175,184,193,201,210,218,227,236,244,253,261,270,279,287,296,304,313,322,330,339,348,356,365,373,382,391,399,408,416,425,434,442,451,459,468,477,485,494,503,511,520,528,537,546,554,563,571,580,589,597,606,615,623,632,640,649,658,666,675,683,692,701,709,718,726,735,744,752,761,770,778,787,795,804,813,821,830,838,847,856,864,873,881]]},
{"id":11,"expParams":[30,20,28,30],"traits":[{"code":23,"dataId":0,"value":1},{"code":22,"dataId":0,"value":0.95},{"code":22,"dataId":1,"value":0.05},{"code":22,"dataId":2,"value":0.04},{"code":41,"dataId":1,"value":0},{"code":41,"dataId":2,"value":1},{"code":41,"dataId":6,"value":1},{"code":51,"dataId":3,"value":0},{"code":52,"dataId":1,"value":0},{"code":52,"dataId":3,"value":1},{"code":52,"dataId":5,"value":1},{"code":52,"dataId":10,"value":1},{"code":52,"dataId":11,"value":1},{"code":52,"dataId":6,"value":1}],"learnings":[{"level":1,"note":"","skillId":5},{"level":1,"note":"","skillId":6},{"level":1,"note":"","skillId":111},{"level":1,"note":"","skillId":330}],"name":"Clérigo","note":"<Equip Slot: 1, 2, 3, 4, 5>\n<Learn Skill: 112, 113, 114, 115, 116, 117, 118, 119>\n<Icon: 221>\n<Learn Skill: 376, 377, 378, 379, 380, 381, 382 ,383>","params":[[1,535,624,712,801,889,978,1066,1155,1243,1331,1420,1508,1597,1685,1774,1862,1951,2039,2127,2216,2304,2393,2481,2570,2658,2746,2835,2923,3012,3100,3189,3277,3366,3454,3542,3631,3719,3808,3896,3985,4073,4161,4250,4338,4427,4515,4604,4692,4781,4869,4957,5046,5134,5223,5311,5400,5488,5577,5665,5753,5842,5930,6019,6107,6196,6284,6372,6461,6549,6638,6726,6815,6903,6992,7080,7168,7257,7345,7434,7522,7611,7699,7787,7876,7964,8053,8141,8230,8318,8407,8495,8583,8672,8760,8849,8937,9026,9114,9202],[0,113,130,146,162,179,195,211,227,244,260,276,293,309,325,341,358,374,390,406,423,439,455,472,488,504,520,537,553,569,585,602,618,634,651,667,683,699,716,732,748,765,781,797,813,830,846,862,878,895,911,927,944,960,976,992,1009,1025,1041,1057,1074,1090,1106,1123,1139,1155,1171,1188,1204,1220,1237,1253,1269,1285,1302,1318,1334,1350,1367,1383,1399,1416,1432,1448,1464,1481,1497,1513,1529,1546,1562,1578,1595,1611,1627,1643,1660,1676,1692,1708],[1,13,15,17,20,22,25,27,30,32,35,37,40,42,45,47,50,52,54,57,59,62,64,67,69,72,74,77,79,82,84,87,89,92,94,96,99,101,104,106,109,111,114,116,119,121,124,126,129,131,133,136,138,141,143,146,148,151,153,156,158,161,163,166,168,171,173,175,178,180,183,185,188,190,193,195,198,200,203,205,208,210,213,215,217,220,222,225,227,230,232,235,237,240,242,245,247,250,252,254],[1,17,20,23,26,29,32,35,38,41,44,47,49,52,55,58,61,64,67,70,73,76,79,81,84,87,90,93,96,99,102,105,108,111,113,116,119,122,125,128,131,134,137,140,143,145,148,151,154,157,160,163,166,169,172,175,177,180,183,186,189,192,195,198,201,204,207,209,212,215,218,221,224,227,230,233,236,239,241,244,247,250,253,256,259,262,265,268,271,273,276,279,282,285,288,291,294,297,300,302],[1,17,21,24,28,31,35,38,42,45,49,52,56,59,62,66,69,73,76,80,83,87,90,94,97,101,104,107,111,114,118,121,125,128,132,135,139,142,145,149,152,156,159,163,166,170,173,177,180,184,187,190,194,197,201,204,208,211,215,218,222,225,229,232,235,239,242,246,249,253,256,260,263,267,270,273,277,280,284,287,291,294,298,301,305,308,312,315,318,322,325,329,332,336,339,343,346,350,353,356],[1,22,26,30,34,38,42,45,49,53,57,61,65,68,72,76,80,84,88,91,95,99,103,107,111,114,118,122,126,130,133,137,141,145,149,153,156,160,164,168,172,176,179,183,187,191,195,199,202,206,210,214,218,221,225,229,233,237,241,244,248,252,256,260,264,267,271,275,279,283,287,290,294,298,302,306,309,313,317,321,325,329,332,336,340,344,348,352,355,359,363,367,371,375,378,382,386,390,394,397],[1,28,34,39,45,50,56,61,67,72,78,83,89,94,99,105,110,116,121,127,132,138,143,149,154,160,165,170,176,181,187,192,198,203,209,214,220,225,230,236,241,247,252,258,263,269,274,280,285,291,296,301,307,312,318,323,329,334,340,345,351,356,362,367,372,378,383,389,394,400,405,411,416,422,427,432,438,443,449,454,460,465,471,476,482,487,493,498,503,509,514,520,525,531,536,542,547,553,558,563],[0,31,38,44,51,57,64,70,77,83,90,96,103,109,116,122,129,135,142,148,155,161,168,174,181,187,194,200,207,213,220,226,233,239,246,252,259,265,272,278,285,291,298,304,311,317,324,330,337,343,349,356,362,369,375,382,388,395,401,408,414,421,427,434,440,447,453,460,466,473,479,486,492,499,505,512,518,525,531,538,544,551,557,564,570,577,583,590,596,603,609,616,622,629,635,642,648,655,661,667]]},
{"id":12,"expParams":[30,21,30,30],"traits":[{"code":23,"dataId":0,"value":1},{"code":22,"dataId":0,"value":0.95},{"code":22,"dataId":1,"value":0.05},{"code":22,"dataId":2,"value":0.04},{"code":41,"dataId":1,"value":0},{"code":41,"dataId":2,"value":1},{"code":41,"dataId":6,"value":1},{"code":51,"dataId":6,"value":0},{"code":52,"dataId":1,"value":0},{"code":52,"dataId":10,"value":1},{"code":52,"dataId":11,"value":1},{"code":52,"dataId":6,"value":1}],"learnings":[{"level":1,"note":"","skillId":5},{"level":1,"note":"","skillId":6},{"level":1,"note":"","skillId":251},{"level":1,"note":"","skillId":253},{"level":1,"note":"","skillId":252},{"level":1,"note":"","skillId":254},{"level":1,"note":"","skillId":337},{"level":1,"note":"","skillId":340},{"level":1,"note":"","skillId":341},{"level":1,"note":"","skillId":330}],"name":"Druida","note":"<Equip Slot: 1, 3, 4, 5>\n<Learn Skill: 101, 102, 103, 104, 105, 106, 107, 108, 109>\n<Icon: 102>\n<Learn Skill: 376, 377, 378, 379, 380, 381, 382 ,383>","params":[[1,430,498,566,634,701,769,837,904,972,1040,1108,1175,1243,1311,1378,1446,1514,1581,1649,1717,1785,1852,1920,1988,2055,2123,2191,2259,2326,2394,2462,2529,2597,2665,2732,2800,2868,2936,3003,3071,3139,3206,3274,3342,3409,3477,3545,3613,3680,3748,3816,3883,3951,4019,4087,4154,4222,4290,4357,4425,4493,4560,4628,4696,4764,4831,4899,4967,5034,5102,5170,5237,5305,5373,5441,5508,5576,5644,5711,5779,5847,5915,5982,6050,6118,6185,6253,6321,6388,6456,6524,6592,6659,6727,6795,6862,6930,6998,7065],[0,86,104,121,138,156,173,190,207,225,242,259,276,294,311,328,345,363,380,397,415,432,449,466,484,501,518,535,553,570,587,604,622,639,656,674,691,708,725,743,760,777,794,812,829,846,863,881,898,915,932,950,967,984,1002,1019,1036,1053,1071,1088,1105,1122,1140,1157,1174,1191,1209,1226,1243,1261,1278,1295,1312,1330,1347,1364,1381,1399,1416,1433,1450,1468,1485,1502,1520,1537,1554,1571,1589,1606,1623,1640,1658,1675,1692,1709,1727,1744,1761,1778],[1,16,19,22,25,27,30,33,35,38,41,43,46,49,51,54,57,59,62,65,67,70,73,75,78,81,83,86,89,91,94,97,99,102,105,107,110,113,115,118,121,123,126,129,131,134,137,139,142,145,147,150,153,156,158,161,164,166,169,172,174,177,180,182,185,188,190,193,196,198,201,204,206,209,212,214,217,220,222,225,228,230,233,236,238,241,244,246,249,252,254,257,260,262,265,268,270,273,276,278],[0,16,19,22,25,27,30,33,36,38,41,44,47,49,52,55,58,60,63,66,68,71,74,77,79,82,85,88,90,93,96,99,101,104,107,109,112,115,118,120,123,126,129,131,134,137,140,142,145,148,150,153,156,159,161,164,167,170,172,175,178,181,183,186,189,192,194,197,200,202,205,208,211,213,216,219,222,224,227,230,233,235,238,241,243,246,249,252,254,257,260,263,265,268,271,274,276,279,282,284],[0,17,21,24,27,30,33,36,39,42,45,48,52,55,58,61,64,67,70,73,76,79,82,86,89,92,95,98,101,104,107,110,113,116,120,123,126,129,132,135,138,141,144,147,150,154,157,160,163,166,169,172,175,178,181,184,188,191,194,197,200,203,206,209,212,215,218,222,225,228,231,234,237,240,243,246,249,252,256,259,262,265,268,271,274,277,280,283,286,290,293,296,299,302,305,308,311,314,317,320],[0,16,20,23,26,29,32,35,38,42,45,48,51,54,57,60,63,67,70,73,76,79,82,85,89,92,95,98,101,104,107,110,114,117,120,123,126,129,132,136,139,142,145,148,151,154,157,161,164,167,170,173,176,179,183,186,189,192,195,198,201,204,208,211,214,217,220,223,226,230,233,236,239,242,245,248,251,255,258,261,264,267,270,273,277,280,283,286,289,292,295,298,302,305,308,311,314,317,320,323],[1,39,47,55,63,71,79,87,95,103,111,119,127,135,143,151,159,167,175,183,191,199,207,215,223,231,239,247,255,263,271,279,287,295,303,311,319,327,335,343,351,359,367,375,383,391,399,407,415,423,431,439,447,455,463,471,479,487,495,503,511,519,527,535,543,551,559,567,575,583,591,599,607,615,623,631,639,647,655,663,671,679,687,695,703,711,719,727,735,743,751,759,767,775,783,791,799,807,815,823],[0,27,32,37,42,47,52,57,61,66,71,76,81,86,91,95,100,105,110,115,120,124,129,134,139,144,149,154,158,163,168,173,178,183,187,192,197,202,207,212,217,221,226,231,236,241,246,250,255,260,265,270,275,280,284,289,294,299,304,309,313,318,323,328,333,338,343,347,352,357,362,367,372,376,381,386,391,396,401,406,410,415,420,425,430,435,439,444,449,454,459,464,469,473,478,483,488,493,498,502]]},
{"id":13,"expParams":[36,20,30,30],"traits":[{"code":23,"dataId":0,"value":1},{"code":22,"dataId":0,"value":0.95},{"code":22,"dataId":1,"value":0.05},{"code":22,"dataId":2,"value":0.04},{"code":41,"dataId":1,"value":1},{"code":41,"dataId":2,"value":1},{"code":41,"dataId":6,"value":1},{"code":51,"dataId":6,"value":1},{"code":52,"dataId":1,"value":0},{"code":52,"dataId":2,"value":1},{"code":52,"dataId":10,"value":1},{"code":52,"dataId":11,"value":1},{"code":52,"dataId":6,"value":1}],"learnings":[{"level":1,"note":"","skillId":5},{"level":1,"note":"","skillId":6},{"level":1,"note":"","skillId":337},{"level":1,"note":"","skillId":330}],"name":"Xamã","note":"<Equip Slot: 1, 3, 4, 5>\n<Learn Skill: 131, 132, 133, 134, 135, 136, 137, 138, 139>\n<Icon: 276>\n<Learn Skill: 376, 377, 378, 379, 380, 381, 382 ,383>","params":[[1,430,498,566,634,701,769,837,904,972,1040,1108,1175,1243,1311,1378,1446,1514,1581,1649,1717,1785,1852,1920,1988,2055,2123,2191,2259,2326,2394,2462,2529,2597,2665,2732,2800,2868,2936,3003,3071,3139,3206,3274,3342,3409,3477,3545,3613,3680,3748,3816,3883,3951,4019,4087,4154,4222,4290,4357,4425,4493,4560,4628,4696,4764,4831,4899,4967,5034,5102,5170,5237,5305,5373,5441,5508,5576,5644,5711,5779,5847,5915,5982,6050,6118,6185,6253,6321,6388,6456,6524,6592,6659,6727,6795,6862,6930,6998,7065],[0,86,98,109,120,131,142,153,164,176,187,198,209,220,231,242,254,265,276,287,298,309,320,332,343,354,365,376,387,398,410,421,432,443,454,465,476,488,499,510,521,532,543,554,566,577,588,599,610,621,632,644,655,666,677,688,699,710,722,733,744,755,766,777,788,800,811,822,833,844,855,866,878,889,900,911,922,933,944,956,967,978,989,1000,1011,1022,1034,1045,1056,1067,1078,1089,1100,1112,1123,1134,1145,1156,1167,1178],[1,16,19,22,25,27,30,33,35,38,41,43,46,49,51,54,57,59,62,65,67,70,73,75,78,81,83,86,89,91,94,97,99,102,105,107,110,113,115,118,121,123,126,129,131,134,137,139,142,145,147,150,153,156,158,161,164,166,169,172,174,177,180,182,185,188,190,193,196,198,201,204,206,209,212,214,217,220,222,225,228,230,233,236,238,241,244,246,249,252,254,257,260,262,265,268,270,273,276,278],[0,16,19,22,25,27,30,33,36,38,41,44,47,49,52,55,58,60,63,66,68,71,74,77,79,82,85,88,90,93,96,99,101,104,107,109,112,115,118,120,123,126,129,131,134,137,140,142,145,148,150,153,156,159,161,164,167,170,172,175,178,181,183,186,189,192,194,197,200,202,205,208,211,213,216,219,222,224,227,230,233,235,238,241,243,246,249,252,254,257,260,263,265,268,271,274,276,279,282,284],[0,17,21,24,27,30,33,36,39,42,45,48,52,55,58,61,64,67,70,73,76,79,82,86,89,92,95,98,101,104,107,110,113,116,120,123,126,129,132,135,138,141,144,147,150,154,157,160,163,166,169,172,175,178,181,184,188,191,194,197,200,203,206,209,212,215,218,222,225,228,231,234,237,240,243,246,249,252,256,259,262,265,268,271,274,277,280,283,286,290,293,296,299,302,305,308,311,314,317,320],[1,16,20,23,26,29,32,35,38,42,45,48,51,54,57,60,63,67,70,73,76,79,82,85,89,92,95,98,101,104,107,110,114,117,120,123,126,129,132,136,139,142,145,148,151,154,157,161,164,167,170,173,176,179,183,186,189,192,195,198,201,204,208,211,214,217,220,223,226,230,233,236,239,242,245,248,251,255,258,261,264,267,270,273,277,280,283,286,289,292,295,298,302,305,308,311,314,317,320,323],[0,39,47,55,63,71,79,87,95,103,111,119,127,135,143,151,159,167,175,183,191,199,207,215,223,231,239,247,255,263,271,279,287,295,303,311,319,327,335,343,351,359,367,375,383,391,399,407,415,423,431,439,447,455,463,471,479,487,495,503,511,519,527,535,543,551,559,567,575,583,591,599,607,615,623,631,639,647,655,663,671,679,687,695,703,711,719,727,735,743,751,759,767,775,783,791,799,807,815,823],[0,27,32,37,42,47,52,57,61,66,71,76,81,86,91,95,100,105,110,115,120,124,129,134,139,144,149,154,158,163,168,173,178,183,187,192,197,202,207,212,217,221,226,231,236,241,246,250,255,260,265,270,275,280,284,289,294,299,304,309,313,318,323,328,333,338,343,347,352,357,362,367,372,376,381,386,391,396,401,406,410,415,420,425,430,435,439,444,449,454,459,464,469,473,478,483,488,493,498,502]]},
{"id":14,"expParams":[30,20,30,30],"traits":[{"code":23,"dataId":0,"value":1},{"code":22,"dataId":0,"value":0.95},{"code":22,"dataId":1,"value":0.05},{"code":22,"dataId":2,"value":0.04},{"code":41,"dataId":5,"value":0}],"learnings":[{"level":1,"note":"","skillId":256},{"level":1,"note":"","skillId":257},{"level":1,"note":"","skillId":258},{"level":1,"note":"","skillId":259},{"level":1,"note":"","skillId":261},{"level":1,"note":"","skillId":262},{"level":1,"note":"","skillId":263},{"level":1,"note":"","skillId":264}],"name":"Jogador","note":"<Equip Slot: 1, 5, 5>","params":[[1,450,515,580,645,710,775,840,904,969,1034,1099,1164,1229,1293,1358,1423,1488,1553,1618,1682,1747,1812,1877,1942,2007,2071,2136,2201,2266,2331,2396,2460,2525,2590,2655,2720,2785,2849,2914,2979,3044,3109,3174,3238,3303,3368,3433,3498,3563,3627,3692,3757,3822,3887,3952,4017,4081,4146,4211,4276,4341,4406,4470,4535,4600,4665,4730,4795,4859,4924,4989,5054,5119,5184,5248,5313,5378,5443,5508,5573,5637,5702,5767,5832,5897,5962,6026,6091,6156,6221,6286,6351,6415,6480,6545,6610,6675,6740,6804],[0,0,0,0,0,0,0,0,0,0,0,0,0,0,0,0,0,0,0,0,0,0,0,0,0,0,0,0,0,0,0,0,0,0,0,0,0,0,0,0,0,0,0,0,0,0,0,0,0,0,0,0,0,0,0,0,0,0,0,0,0,0,0,0,0,0,0,0,0,0,0,0,0,0,0,0,0,0,0,0,0,0,0,0,0,0,0,0,0,0,0,0,0,0,0,0,0,0,0,0],[1,14,18,21,24,27,30,33,36,40,43,46,49,52,55,58,61,65,68,71,74,77,80,83,87,90,93,96,99,102,105,108,112,115,118,121,124,127,130,134,137,140,143,146,149,152,155,159,162,165,168,171,174,177,181,184,187,190,193,196,199,202,206,209,212,215,218,221,224,228,231,234,237,240,243,246,249,253,256,259,262,265,268,271,275,278,281,284,287,290,293,296,300,303,306,309,312,315,318,321],[1,15,18,20,22,25,27,29,32,34,36,38,41,43,45,48,50,52,55,57,59,61,64,66,68,71,73,75,77,80,82,84,87,89,91,94,96,98,100,103,105,107,110,112,114,117,119,121,123,126,128,130,133,135,137,139,142,144,146,149,151,153,156,158,160,162,165,167,169,172,174,176,179,181,183,185,188,190,192,195,197,199,201,204,206,208,211,213,215,218,220,222,224,227,229,231,234,236,238,240],[1,1,1,1,1,1,1,1,1,1,1,1,1,1,1,1,1,1,1,1,1,1,1,1,1,1,1,1,1,1,1,1,1,1,1,1,1,1,1,1,1,1,1,1,1,1,1,1,1,1,1,1,1,1,1,1,1,1,1,1,1,1,1,1,1,1,1,1,1,1,1,1,1,1,1,1,1,1,1,1,1,1,1,1,1,1,1,1,1,1,1,1,1,1,1,1,1,1,1,1],[1,15,19,23,27,30,34,38,42,45,49,53,56,60,64,68,71,75,79,83,86,90,94,97,101,105,109,112,116,120,124,127,131,135,138,142,146,150,153,157,161,164,168,172,176,179,183,187,191,194,198,202,205,209,213,217,220,224,228,232,235,239,243,246,250,254,258,261,265,269,272,276,280,284,287,291,295,299,302,306,310,313,317,321,325,328,332,336,340,343,347,351,354,358,362,366,369,373,377,380],[1,15,19,23,27,31,34,38,42,46,49,53,57,61,65,68,72,76,80,83,87,91,95,99,102,106,110,114,117,121,125,129,133,136,140,144,148,151,155,159,163,167,170,174,178,182,185,189,193,197,200,204,208,212,216,219,223,227,231,234,238,242,246,250,253,257,261,265,268,272,276,280,284,287,291,295,299,302,306,310,314,318,321,325,329,333,336,340,344,348,352,355,359,363,367,370,374,378,382,385],[1,20,23,25,27,29,31,33,35,37,39,41,43,45,47,49,51,53,55,57,59,61,63,65,67,69,72,74,76,78,80,82,84,86,88,90,92,94,96,98,100,102,104,106,108,110,112,114,116,118,120,123,125,127,129,131,133,135,137,139,141,143,145,147,149,151,153,155,157,159,161,163,165,167,169,172,174,176,178,180,182,184,186,188,190,192,194,196,198,200,202,204,206,208,210,212,214,216,218,220]]},
{"id":15,"expParams":[30,20,30,30],"traits":[{"code":23,"dataId":0,"value":1},{"code":22,"dataId":0,"value":0.95},{"code":22,"dataId":1,"value":0.05},{"code":22,"dataId":2,"value":0.04},{"code":41,"dataId":5,"value":0}],"learnings":[],"name":"Estátua","note":"<Equip Slot: 1, 5, 5>","params":[[1,2,2,2,2,2,2,2,2,2,2,2,2,2,2,2,2,2,2,2,2,2,2,2,2,2,2,2,2,2,2,2,2,2,2,2,2,2,2,2,2,2,2,2,2,2,2,2,2,2,2,2,2,2,2,2,2,2,2,2,2,2,2,2,2,2,2,2,2,2,2,2,2,2,2,2,2,2,2,2,2,2,2,2,2,2,2,2,2,2,2,2,2,2,2,2,2,2,2,2],[0,0,0,0,0,0,0,0,0,0,0,0,0,0,0,0,0,0,0,0,0,0,0,0,0,0,0,0,0,0,0,0,0,0,0,0,0,0,0,0,0,0,0,0,0,0,0,0,0,0,0,0,0,0,0,0,0,0,0,0,0,0,0,0,0,0,0,0,0,0,0,0,0,0,0,0,0,0,0,0,0,0,0,0,0,0,0,0,0,0,0,0,0,0,0,0,0,0,0,0],[1,1,1,1,1,1,1,1,1,1,1,1,1,1,1,1,1,1,1,1,1,1,1,1,1,1,1,1,1,1,1,1,1,1,1,1,1,1,1,1,1,1,1,1,1,1,1,1,1,1,1,1,1,1,1,1,1,1,1,1,1,1,1,1,1,1,1,1,1,1,1,1,1,1,1,1,1,1,1,1,1,1,1,1,1,1,1,1,1,1,1,1,1,1,1,1,1,1,1,1],[1,1,1,1,1,1,1,1,1,1,1,1,1,1,1,1,1,1,1,1,1,1,1,1,1,1,1,1,1,1,1,1,1,1,1,1,1,1,1,1,1,1,1,1,1,1,1,1,1,1,1,1,1,1,1,1,1,1,1,1,1,1,1,1,1,1,1,1,1,1,1,1,1,1,1,1,1,1,1,1,1,1,1,1,1,1,1,1,1,1,1,1,1,1,1,1,1,1,1,1],[1,1,1,1,1,1,1,1,1,1,1,1,1,1,1,1,1,1,1,1,1,1,1,1,1,1,1,1,1,1,1,1,1,1,1,1,1,1,1,1,1,1,1,1,1,1,1,1,1,1,1,1,1,1,1,1,1,1,1,1,1,1,1,1,1,1,1,1,1,1,1,1,1,1,1,1,1,1,1,1,1,1,1,1,1,1,1,1,1,1,1,1,1,1,1,1,1,1,1,1],[1,1,1,1,1,1,1,1,1,1,1,1,1,1,1,1,1,1,1,1,1,1,1,1,1,1,1,1,1,1,1,1,1,1,1,1,1,1,1,1,1,1,1,1,1,1,1,1,1,1,1,1,1,1,1,1,1,1,1,1,1,1,1,1,1,1,1,1,1,1,1,1,1,1,1,1,1,1,1,1,1,1,1,1,1,1,1,1,1,1,1,1,1,1,1,1,1,1,1,1],[1,1,1,1,1,1,1,1,1,1,1,1,1,1,1,1,1,1,1,1,1,1,1,1,1,1,1,1,1,1,1,1,1,1,1,1,1,1,1,1,1,1,1,1,1,1,1,1,1,1,1,1,1,1,1,1,1,1,1,1,1,1,1,1,1,1,1,1,1,1,1,1,1,1,1,1,1,1,1,1,1,1,1,1,1,1,1,1,1,1,1,1,1,1,1,1,1,1,1,1],[1,1,1,1,1,1,1,1,1,1,1,1,1,1,1,1,1,1,1,1,1,1,1,1,1,1,1,1,1,1,1,1,1,1,1,1,1,1,1,1,1,1,1,1,1,1,1,1,1,1,1,1,1,1,1,1,1,1,1,1,1,1,1,1,1,1,1,1,1,1,1,1,1,1,1,1,1,1,1,1,1,1,1,1,1,1,1,1,1,1,1,1,1,1,1,1,1,1,1,1]]},
{"id":16,"expParams":[30,20,30,30],"traits":[{"code":23,"dataId":0,"value":1},{"code":22,"dataId":0,"value":0.95},{"code":22,"dataId":1,"value":0.05},{"code":22,"dataId":2,"value":0.04},{"code":41,"dataId":7,"value":0}],"learnings":[],"name":"Cachorro","note":"","params":[[1,250,303,355,407,459,511,563,615,667,719,771,823,875,927,979,1031,1083,1135,1187,1239,1291,1343,1395,1447,1499,1552,1604,1656,1708,1760,1812,1864,1916,1968,2020,2072,2124,2176,2228,2280,2332,2384,2436,2488,2540,2592,2644,2696,2748,2800,2853,2905,2957,3009,3061,3113,3165,3217,3269,3321,3373,3425,3477,3529,3581,3633,3685,3737,3789,3841,3893,3945,3997,4049,4102,4154,4206,4258,4310,4362,4414,4466,4518,4570,4622,4674,4726,4778,4830,4882,4934,4986,5038,5090,5142,5194,5246,5298,5350],[0,90,100,110,120,130,140,150,160,170,180,190,200,210,220,230,240,250,260,270,280,290,300,310,320,330,340,350,360,370,380,390,400,410,420,430,440,450,460,470,480,490,500,510,520,530,540,550,560,570,580,590,600,610,620,630,640,650,660,670,680,690,700,710,720,730,740,750,760,770,780,790,800,810,820,830,840,850,860,870,880,890,900,910,920,930,940,950,960,970,980,990,1000,1010,1020,1030,1040,1050,1060,1070],[1,30,32,33,34,35,36,37,38,39,40,42,43,44,45,46,47,48,49,50,51,53,54,55,56,57,58,59,60,61,62,64,65,66,67,68,69,70,71,72,73,75,76,77,78,79,80,81,82,83,84,86,87,88,89,90,91,92,93,94,96,97,98,99,100,101,102,103,104,105,107,108,109,110,111,112,113,114,115,116,118,119,120,121,122,123,124,125,126,127,129,130,131,132,133,134,135,136,137,138],[1,25,27,28,29,30,31,32,34,35,36,37,38,39,40,42,43,44,45,46,47,49,50,51,52,53,54,55,57,58,59,60,61,62,64,65,66,67,68,69,70,72,73,74,75,76,77,79,80,81,82,83,84,85,87,88,89,90,91,92,94,95,96,97,98,99,100,102,103,104,105,106,107,109,110,111,112,113,114,115,117,118,119,120,121,122,124,125,126,127,128,129,130,132,133,134,135,136,137,138],[0,16,18,19,20,21,23,24,25,26,28,29,30,31,33,34,35,36,38,39,40,41,43,44,45,46,48,49,50,51,53,54,55,56,58,59,60,61,63,64,65,66,68,69,70,71,73,74,75,76,77,79,80,81,82,84,85,86,87,89,90,91,92,94,95,96,97,99,100,101,102,104,105,106,107,109,110,111,112,114,115,116,117,119,120,121,122,124,125,126,127,129,130,131,132,134,135,136,137,138],[0,16,18,19,20,21,23,24,25,26,28,29,30,31,33,34,35,36,38,39,40,41,43,44,45,46,48,49,50,51,53,54,55,56,58,59,60,61,63,64,65,66,68,69,70,71,73,74,75,76,77,79,80,81,82,84,85,86,87,89,90,91,92,94,95,96,97,99,100,101,102,104,105,106,107,109,110,111,112,114,115,116,117,119,120,121,122,124,125,126,127,129,130,131,132,134,135,136,137,138],[1,60,63,65,67,69,72,74,76,78,80,83,85,87,89,91,94,96,98,100,103,105,107,109,111,114,116,118,120,122,125,127,129,131,134,136,138,140,142,145,147,149,151,153,156,158,160,162,165,167,169,171,173,176,178,180,182,184,187,189,191,193,196,198,200,202,204,207,209,211,213,215,218,220,222,224,227,229,231,233,235,238,240,242,244,246,249,251,253,255,258,260,262,264,266,269,271,273,275,277],[1,32,35,37,40,42,45,47,50,52,55,57,60,62,65,67,70,72,75,77,80,82,85,87,90,92,95,97,100,102,105,107,110,112,115,117,120,122,125,127,130,132,135,137,140,142,145,147,150,152,155,157,160,162,165,167,170,172,175,177,180,182,185,187,190,192,195,197,200,202,205,207,210,212,215,217,220,222,225,227,230,232,235,237,240,242,245,247,250,252,255,257,260,262,265,267,270,272,275,277]]},
{"id":17,"expParams":[30,20,30,30],"traits":[{"code":23,"dataId":0,"value":1},{"code":22,"dataId":0,"value":0.95},{"code":22,"dataId":1,"value":0.05},{"code":22,"dataId":2,"value":0.04},{"code":41,"dataId":1,"value":0},{"code":41,"dataId":2,"value":1},{"code":41,"dataId":6,"value":1},{"code":51,"dataId":6,"value":0},{"code":52,"dataId":1,"value":0},{"code":52,"dataId":2,"value":1},{"code":52,"dataId":9,"value":1},{"code":52,"dataId":10,"value":1},{"code":52,"dataId":11,"value":1}],"learnings":[{"level":1,"note":"","skillId":5},{"level":1,"note":"","skillId":6},{"level":1,"note":"","skillId":571},{"level":1,"note":"","skillId":572}],"name":"Mago","note":"<Equip Slot: 1, 3, 4, 5, 6>\n\n<Icon: 133>\n","params":[[1,299,366,432,499,565,631,698,764,830,897,963,1029,1096,1162,1228,1295,1361,1427,1494,1560,1626,1693,1759,1825,1892,1958,2025,2091,2157,2224,2290,2356,2423,2489,2555,2622,2688,2754,2821,2887,2953,3020,3086,3152,3219,3285,3351,3418,3484,3550,3617,3683,3750,3816,3882,3949,4015,4081,4148,4214,4280,4347,4413,4479,4546,4612,4678,4745,4811,4877,4944,5010,5076,5143,5209,5276,5342,5408,5475,5541,5607,5674,5740,5806,5873,5939,6005,6072,6138,6204,6271,6337,6403,6470,6536,6602,6669,6735,6801],[0,140,159,177,195,213,231,249,267,285,303,321,340,358,376,394,412,430,448,466,484,502,520,539,557,575,593,611,629,647,665,683,701,719,738,756,774,792,810,828,846,864,882,900,918,937,955,973,991,1009,1027,1045,1063,1081,1099,1117,1136,1154,1172,1190,1208,1226,1244,1262,1280,1298,1316,1335,1353,1371,1389,1407,1425,1443,1461,1479,1497,1515,1534,1552,1570,1588,1606,1624,1642,1660,1678,1696,1714,1733,1751,1769,1787,1805,1823,1841,1859,1877,1895,1913],[1,14,17,19,22,24,26,29,31,34,36,38,41,43,46,48,50,53,55,58,60,62,65,67,70,72,74,77,79,82,84,86,89,91,94,96,98,101,103,106,108,110,113,115,118,120,122,125,127,130,132,134,137,139,142,144,146,149,151,154,156,158,161,163,166,168,170,173,175,178,180,182,185,187,190,192,194,197,199,202,204,206,209,211,214,216,218,221,223,226,228,230,233,235,238,240,242,245,247,249],[1,13,16,18,21,23,26,28,30,33,35,38,40,42,45,47,50,52,54,57,59,62,64,66,69,71,74,76,79,81,83,86,88,91,93,95,98,100,103,105,107,110,112,115,117,119,122,124,127,129,131,134,136,139,141,144,146,148,151,153,156,158,160,163,165,168,170,172,175,177,180,182,184,187,189,192,194,197,199,201,204,206,209,211,213,216,218,221,223,225,228,230,233,235,237,240,242,245,247,249],[1,21,26,30,34,38,42,46,50,54,58,62,66,70,74,78,83,87,91,95,99,103,107,111,115,119,123,127,131,135,140,144,148,152,156,160,164,168,172,176,180,184,188,192,197,201,205,209,213,217,221,225,229,233,237,241,245,249,254,258,262,266,270,274,278,282,286,290,294,298,302,306,311,315,319,323,327,331,335,339,343,347,351,355,359,363,368,372,376,380,384,388,392,396,400,404,408,412,416,420],[1,19,24,28,32,36,40,44,48,52,57,61,65,69,73,77,81,85,90,94,98,102,106,110,114,118,123,127,131,135,139,143,147,151,156,160,164,168,172,176,180,184,189,193,197,201,205,209,213,217,221,226,230,234,238,242,246,250,254,259,263,267,271,275,279,283,287,292,296,300,304,308,312,316,320,325,329,333,337,341,345,349,353,358,362,366,370,374,378,382,386,391,395,399,403,407,411,415,419,423],[1,31,37,43,49,55,61,66,72,78,84,90,95,101,107,113,119,124,130,136,142,148,153,159,165,171,177,182,188,194,200,206,211,217,223,229,235,241,246,252,258,264,270,275,281,287,293,299,304,310,316,322,328,333,339,345,351,357,362,368,374,380,386,391,397,403,409,415,421,426,432,438,444,450,455,461,467,473,479,484,490,496,502,508,513,519,525,531,537,542,548,554,560,566,571,577,583,589,595,600],[1,31,38,45,52,59,66,72,79,86,93,100,107,113,120,127,134,141,148,154,161,168,175,182,189,195,202,209,216,223,229,236,243,250,257,264,270,277,284,291,298,305,311,318,325,332,339,346,352,359,366,373,380,386,393,400,407,414,421,427,434,441,448,455,462,468,475,482,489,496,503,509,516,523,530,537,543,550,557,564,571,578,584,591,598,605,612,619,625,632,639,646,653,660,666,673,680,687,694,700]]},
{"id":18,"expParams":[30,20,30,30],"traits":[{"code":23,"dataId":0,"value":1},{"code":22,"dataId":0,"value":0.95},{"code":22,"dataId":1,"value":0.05},{"code":22,"dataId":2,"value":0.04},{"code":41,"dataId":2,"value":0},{"code":41,"dataId":6,"value":1},{"code":51,"dataId":2,"value":0},{"code":52,"dataId":1,"value":0},{"code":52,"dataId":10,"value":1},{"code":52,"dataId":11,"value":1}],"learnings":[{"level":1,"note":"","skillId":5},{"level":1,"note":"","skillId":6},{"level":1,"note":"","skillId":577}],"name":"Ninja","note":"<Equip Slot: 1, 3, 4, 5>\n<Icon: 120>\n383>","params":[[1,358,429,500,571,641,712,783,854,924,995,1066,1136,1207,1278,1349,1419,1490,1561,1632,1702,1773,1844,1914,1985,2056,2127,2197,2268,2339,2410,2480,2551,2622,2692,2763,2834,2905,2975,3046,3117,3187,3258,3329,3400,3470,3541,3612,3683,3753,3824,3895,3965,4036,4107,4178,4248,4319,4390,4461,4531,4602,4673,4743,4814,4885,4956,5026,5097,5168,5238,5309,5380,5451,5521,5592,5663,5734,5804,5875,5946,6016,6087,6158,6229,6299,6370,6441,6512,6582,6653,6724,6794,6865,6936,7007,7077,7148,7219,7289],[0,0,0,0,0,0,0,0,0,0,0,0,0,0,0,0,0,0,0,0,0,0,0,0,0,0,0,0,0,0,0,0,0,0,0,0,0,0,0,0,0,0,0,0,0,0,0,0,0,0,0,0,0,0,0,0,0,0,0,0,0,0,0,0,0,0,0,0,0,0,0,0,0,0,0,0,0,0,0,0,0,0,0,0,0,0,0,0,0,0,0,0,0,0,0,0,0,0,0,0],[1,22,26,30,34,37,41,45,49,52,56,60,63,67,71,75,78,82,86,90,93,97,101,104,108,112,116,119,123,127,131,134,138,142,145,149,153,157,160,164,168,171,175,179,183,186,190,194,198,201,205,209,212,216,220,224,227,231,235,239,242,246,250,253,257,261,265,268,272,276,279,283,287,291,294,298,302,306,309,313,317,320,324,328,332,335,339,343,347,350,354,358,361,365,369,373,376,380,384,387],[1,19,23,26,29,33,36,39,42,46,49,52,56,59,62,65,69,72,75,79,82,85,88,92,95,98,102,105,108,111,115,118,121,125,128,131,134,138,141,144,148,151,154,157,161,164,167,171,174,177,180,184,187,190,194,197,200,203,207,210,213,217,220,223,226,230,233,236,240,243,246,249,253,256,259,263,266,269,272,276,279,282,286,289,292,295,299,302,305,309,312,315,318,322,325,328,332,335,338,341],[1,12,14,16,17,19,21,22,24,25,27,29,30,32,34,35,37,38,40,42,43,45,47,48,50,51,53,55,56,58,60,61,63,64,66,68,69,71,73,74,76,77,79,81,82,84,86,87,89,90,92,94,95,97,98,100,102,103,105,107,108,110,111,113,115,116,118,120,121,123,124,126,128,129,131,133,134,136,137,139,141,142,144,146,147,149,150,152,154,155,157,159,160,162,163,165,167,168,170,171],[1,16,19,22,24,27,30,32,35,38,40,43,46,48,51,53,56,59,61,64,67,69,72,75,77,80,83,85,88,90,93,96,98,101,104,106,109,112,114,117,120,122,125,127,130,133,135,138,141,143,146,149,151,154,157,159,162,164,167,170,172,175,178,180,183,186,188,191,194,196,199,201,204,207,209,212,215,217,220,223,225,228,231,233,236,238,241,244,246,249,252,254,257,260,262,265,268,270,273,275],[1,39,48,56,65,73,82,90,98,107,115,124,132,141,149,157,166,174,183,191,199,208,216,225,233,242,250,258,267,275,284,292,300,309,317,326,334,343,351,359,368,376,385,393,401,410,418,427,435,444,452,460,469,477,486,494,503,511,519,528,536,545,553,561,570,578,587,595,604,612,620,629,637,646,654,662,671,679,688,696,705,713,721,730,738,747,755,763,772,780,789,797,806,814,822,831,839,848,856,864],[0,32,39,46,53,60,67,74,81,88,95,102,109,116,123,130,137,144,151,158,165,172,179,186,193,200,207,214,221,228,235,242,249,256,263,270,277,284,291,298,305,312,319,326,333,340,347,354,361,368,374,381,388,395,402,409,416,423,430,437,444,451,458,465,472,479,486,493,500,507,514,521,528,535,542,549,556,563,570,577,584,591,598,605,612,619,626,633,640,647,654,661,668,675,682,689,696,703,710,716]]},
{"id":19,"expParams":[30,20,30,30],"traits":[{"code":23,"dataId":0,"value":1},{"code":22,"dataId":0,"value":0.95},{"code":22,"dataId":1,"value":0.05},{"code":22,"dataId":2,"value":0.04},{"code":41,"dataId":2,"value":0},{"code":41,"dataId":6,"value":1},{"code":51,"dataId":2,"value":1},{"code":51,"dataId":4,"value":0},{"code":52,"dataId":1,"value":0},{"code":52,"dataId":3,"value":1},{"code":52,"dataId":4,"value":1},{"code":52,"dataId":5,"value":1},{"code":52,"dataId":10,"value":1},{"code":52,"dataId":11,"value":1}],"learnings":[{"level":1,"note":"","skillId":5},{"level":1,"note":"","skillId":6},{"level":1,"note":"","skillId":573},{"level":1,"note":"","skillId":574}],"name":"Bárbaro","note":"<Icon: 1136>\n","params":[[1,641,736,831,926,1020,1115,1210,1305,1399,1494,1589,1684,1778,1873,1968,2063,2157,2252,2347,2441,2536,2631,2726,2820,2915,3010,3105,3199,3294,3389,3484,3578,3673,3768,3862,3957,4052,4147,4241,4336,4431,4526,4620,4715,4810,4905,4999,5094,5189,5283,5378,5473,5568,5662,5757,5852,5947,6041,6136,6231,6326,6420,6515,6610,6705,6799,6894,6989,7083,7178,7273,7368,7462,7557,7652,7747,7841,7936,8031,8126,8220,8315,8410,8504,8599,8694,8789,8883,8978,9073,9168,9262,9357,9452,9547,9641,9736,9831,9925],[0,0,0,0,0,0,0,0,0,0,0,0,0,0,0,0,0,0,0,0,0,0,0,0,0,0,0,0,0,0,0,0,0,0,0,0,0,0,0,0,0,0,0,0,0,0,0,0,0,0,0,0,0,0,0,0,0,0,0,0,0,0,0,0,0,0,0,0,0,0,0,0,0,0,0,0,0,0,0,0,0,0,0,0,0,0,0,0,0,0,0,0,0,0,0,0,0,0,0,0],[1,22,27,32,37,42,47,52,57,61,66,71,76,81,86,91,96,100,105,110,115,120,125,130,134,139,144,149,154,159,164,169,173,178,183,188,193,198,203,207,212,217,222,227,232,237,242,246,251,256,261,266,271,276,280,285,290,295,300,305,310,315,319,324,329,334,339,344,349,353,358,363,368,373,378,383,388,392,397,402,407,412,417,422,426,431,436,441,446,451,456,461,465,470,475,480,485,490,495,499],[1,15,18,20,23,25,27,30,32,34,37,39,41,44,46,48,51,53,55,58,60,62,65,67,69,72,74,77,79,81,84,86,88,91,93,95,98,100,102,105,107,109,112,114,116,119,121,123,126,128,130,133,135,138,140,142,145,147,149,152,154,156,159,161,163,166,168,170,173,175,177,180,182,184,187,189,192,194,196,199,201,203,206,208,210,213,215,217,220,222,224,227,229,231,234,236,238,241,243,245],[1,10,12,13,14,15,16,17,18,19,21,22,23,24,25,26,27,28,30,31,32,33,34,35,36,37,39,40,41,42,43,44,45,46,48,49,50,51,52,53,54,55,57,58,59,60,61,62,63,64,65,67,68,69,70,71,72,73,74,76,77,78,79,80,81,82,83,85,86,87,88,89,90,91,92,94,95,96,97,98,99,100,101,103,104,105,106,107,108,109,110,112,113,114,115,116,117,118,119,120],[1,10,12,14,16,18,19,21,23,25,26,28,30,32,33,35,37,39,41,42,44,46,48,49,51,53,55,56,58,60,62,63,65,67,69,71,72,74,76,78,79,81,83,85,86,88,90,92,93,95,97,99,101,102,104,106,108,109,111,113,115,116,118,120,122,123,125,127,129,131,132,134,136,138,139,141,143,145,146,148,150,152,153,155,157,159,161,162,164,166,168,169,171,173,175,176,178,180,182,183],[1,45,55,65,75,84,94,104,114,123,133,143,153,162,172,182,192,201,211,221,230,240,250,260,269,279,289,299,308,318,328,338,347,357,367,376,386,396,406,415,425,435,445,454,464,474,484,493,503,513,522,532,542,552,561,571,581,591,600,610,620,630,639,649,659,669,678,688,698,707,717,727,737,746,756,766,776,785,795,805,815,824,834,844,853,863,873,883,892,902,912,922,931,941,951,961,970,980,990,999],[1,38,45,52,59,65,72,79,85,92,99,105,112,119,126,132,139,146,152,159,166,172,179,186,192,199,206,213,219,226,233,239,246,253,259,266,273,279,286,293,300,306,313,320,326,333,340,346,353,360,366,373,380,387,393,400,407,413,420,427,433,440,447,454,460,467,474,480,487,494,500,507,514,520,527,534,541,547,554,561,567,574,581,587,594,601,607,614,621,628,634,641,648,654,661,668,674,681,688,694]]},
{"id":20,"expParams":[30,20,30,30],"traits":[{"code":23,"dataId":0,"value":1},{"code":22,"dataId":1,"value":0.05},{"code":41,"dataId":2,"value":1},{"code":41,"dataId":6,"value":1},{"code":51,"dataId":13,"value":1},{"code":52,"dataId":1,"value":0},{"code":52,"dataId":3,"value":0},{"code":52,"dataId":10,"value":1},{"code":52,"dataId":11,"value":1},{"code":52,"dataId":6,"value":1}],"learnings":[{"level":1,"note":"","skillId":5},{"level":1,"note":"","skillId":6}],"name":"Maquinista","note":"<Equip Slot: 1, 3, 4, 5>\n<Icon: 102>\n","params":[[1,320,392,463,535,606,678,749,820,892,963,1035,1106,1178,1249,1320,1392,1463,1535,1606,1678,1749,1820,1892,1963,2035,2106,2178,2249,2320,2392,2463,2535,2606,2678,2749,2820,2892,2963,3035,3106,3178,3249,3320,3392,3463,3535,3606,3678,3749,3820,3892,3963,4035,4106,4178,4249,4320,4392,4463,4535,4606,4678,4749,4820,4892,4963,5035,5106,5178,5249,5320,5392,5463,5535,5606,5678,5749,5820,5892,5963,6035,6106,6178,6249,6320,6392,6463,6535,6606,6678,6749,6820,6892,6963,7035,7106,7178,7249,7320],[0,0,0,0,0,0,0,0,0,0,0,0,0,0,0,0,0,0,0,0,0,0,0,0,0,0,0,0,0,0,0,0,0,0,0,0,0,0,0,0,0,0,0,0,0,0,0,0,0,0,0,0,0,0,0,0,0,0,0,0,0,0,0,0,0,0,0,0,0,0,0,0,0,0,0,0,0,0,0,0,0,0,0,0,0,0,0,0,0,0,0,0,0,0,0,0,0,0,0,0],[1,23,27,31,35,38,42,46,50,53,57,61,65,68,72,76,80,83,87,91,94,98,102,106,109,113,117,121,124,128,132,136,139,143,147,150,154,158,162,165,169,173,177,180,184,188,192,195,199,203,206,210,214,218,221,225,229,233,236,240,244,248,251,255,259,263,266,270,274,277,281,285,289,292,296,300,304,307,311,315,319,322,326,330,333,337,341,345,348,352,356,360,363,367,371,375,378,382,386,389],[1,20,25,29,33,37,41,45,49,53,57,61,65,69,73,77,81,85,89,93,97,102,106,110,114,118,122,126,130,134,139,142,146,150,154,158,162,166,170,174,178,183,187,191,195,199,203,207,211,215,219,223,227,231,235,239,243,247,251,255,260,264,268,272,276,280,284,288,292,296,300,304,308,312,316,320,324,328,332,336,341,345,349,353,357,361,365,369,373,377,381,385,389,393,397,401,405,409,413,417],[1,13,15,17,19,20,22,24,25,27,29,31,32,34,36,37,39,41,42,44,46,48,49,51,53,54,56,58,60,61,63,65,66,68,70,71,73,75,77,78,80,82,83,85,87,88,90,92,94,95,97,99,100,102,104,106,107,109,111,112,114,116,117,119,121,123,124,126,128,129,131,133,134,136,138,140,141,143,145,146,148,150,152,153,155,157,158,160,162,163,165,167,169,170,172,174,175,177,179,180],[1,17,21,25,29,33,37,41,45,49,53,56,60,64,68,72,76,80,84,88,92,95,99,103,107,111,115,119,123,127,131,134,138,142,146,150,154,158,162,166,170,173,177,181,185,189,193,197,201,205,208,212,216,220,224,228,232,236,240,244,247,251,255,259,263,267,271,275,279,283,286,290,294,298,302,306,310,314,318,322,325,329,333,337,341,345,349,353,357,361,364,368,372,376,380,384,388,392,396,399],[1,32,39,45,51,57,64,70,76,82,89,95,101,107,113,120,126,132,138,145,151,157,163,169,176,182,188,194,201,207,213,219,225,232,238,244,250,257,263,269,275,281,288,294,300,306,313,319,325,331,337,344,350,356,362,369,375,381,387,394,400,406,412,418,425,431,437,443,450,456,462,468,474,481,487,493,499,506,512,518,524,530,537,543,549,555,562,568,574,580,586,593,599,605,611,618,624,630,636,642],[1,18,22,26,30,33,37,41,45,48,52,56,59,63,67,71,74,78,82,86,89,93,97,100,104,108,112,115,119,123,127,130,134,138,141,145,149,153,156,160,164,167,171,175,179,182,186,190,194,197,201,205,208,212,216,220,223,227,231,235,238,242,246,249,253,257,261,264,268,272,275,279,283,287,290,294,298,302,305,309,313,316,320,324,328,331,335,339,343,346,350,354,357,361,365,369,372,376,380,383]]},
{"id":21,"expParams":[30,20,30,30],"traits":[{"code":23,"dataId":0,"value":1},{"code":22,"dataId":0,"value":0.95},{"code":22,"dataId":1,"value":0.05},{"code":22,"dataId":2,"value":0.04},{"code":41,"dataId":1,"value":0},{"code":51,"dataId":1,"value":0},{"code":52,"dataId":1,"value":0}],"learnings":[],"name":"","note":"","params":[[1,450,500,550,600,650,700,750,800,850,900,950,1000,1050,1100,1150,1200,1250,1300,1350,1400,1450,1500,1550,1600,1650,1700,1750,1800,1850,1900,1950,2000,2050,2100,2150,2200,2250,2300,2350,2400,2450,2500,2550,2600,2650,2700,2750,2800,2850,2900,2950,3000,3050,3100,3150,3200,3250,3300,3350,3400,3450,3500,3550,3600,3650,3700,3750,3800,3850,3900,3950,4000,4050,4100,4150,4200,4250,4300,4350,4400,4450,4500,4550,4600,4650,4700,4750,4800,4850,4900,4950,5000,5050,5100,5150,5200,5250,5300,5350],[0,90,100,110,120,130,140,150,160,170,180,190,200,210,220,230,240,250,260,270,280,290,300,310,320,330,340,350,360,370,380,390,400,410,420,430,440,450,460,470,480,490,500,510,520,530,540,550,560,570,580,590,600,610,620,630,640,650,660,670,680,690,700,710,720,730,740,750,760,770,780,790,800,810,820,830,840,850,860,870,880,890,900,910,920,930,940,950,960,970,980,990,1000,1010,1020,1030,1040,1050,1060,1070],[1,16,18,19,20,21,23,24,25,26,28,29,30,31,33,34,35,36,38,39,40,41,43,44,45,46,48,49,50,51,53,54,55,56,58,59,60,61,63,64,65,66,68,69,70,71,73,74,75,76,77,79,80,81,82,84,85,86,87,89,90,91,92,94,95,96,97,99,100,101,102,104,105,106,107,109,110,111,112,114,115,116,117,119,120,121,122,124,125,126,127,129,130,131,132,134,135,136,137,138],[0,16,18,19,20,21,23,24,25,26,28,29,30,31,33,34,35,36,38,39,40,41,43,44,45,46,48,49,50,51,53,54,55,56,58,59,60,61,63,64,65,66,68,69,70,71,73,74,75,76,77,79,80,81,82,84,85,86,87,89,90,91,92,94,95,96,97,99,100,101,102,104,105,106,107,109,110,111,112,114,115,116,117,119,120,121,122,124,125,126,127,129,130,131,132,134,135,136,137,138],[0,16,18,19,20,21,23,24,25,26,28,29,30,31,33,34,35,36,38,39,40,41,43,44,45,46,48,49,50,51,53,54,55,56,58,59,60,61,63,64,65,66,68,69,70,71,73,74,75,76,77,79,80,81,82,84,85,86,87,89,90,91,92,94,95,96,97,99,100,101,102,104,105,106,107,109,110,111,112,114,115,116,117,119,120,121,122,124,125,126,127,129,130,131,132,134,135,136,137,138],[0,16,18,19,20,21,23,24,25,26,28,29,30,31,33,34,35,36,38,39,40,41,43,44,45,46,48,49,50,51,53,54,55,56,58,59,60,61,63,64,65,66,68,69,70,71,73,74,75,76,77,79,80,81,82,84,85,86,87,89,90,91,92,94,95,96,97,99,100,101,102,104,105,106,107,109,110,111,112,114,115,116,117,119,120,121,122,124,125,126,127,129,130,131,132,134,135,136,137,138],[0,32,35,37,40,42,45,47,50,52,55,57,60,62,65,67,70,72,75,77,80,82,85,87,90,92,95,97,100,102,105,107,110,112,115,117,120,122,125,127,130,132,135,137,140,142,145,147,150,152,155,157,160,162,165,167,170,172,175,177,180,182,185,187,190,192,195,197,200,202,205,207,210,212,215,217,220,222,225,227,230,232,235,237,240,242,245,247,250,252,255,257,260,262,265,267,270,272,275,277],[0,32,35,37,40,42,45,47,50,52,55,57,60,62,65,67,70,72,75,77,80,82,85,87,90,92,95,97,100,102,105,107,110,112,115,117,120,122,125,127,130,132,135,137,140,142,145,147,150,152,155,157,160,162,165,167,170,172,175,177,180,182,185,187,190,192,195,197,200,202,205,207,210,212,215,217,220,222,225,227,230,232,235,237,240,242,245,247,250,252,255,257,260,262,265,267,270,272,275,277]]}
]