{
"autoplayBgm":false,"autoplayBgs":true,"battleback1Name":"","battleback2Name":"","bgm":{"name":"","pan":0,"pitch":100,"volume":90},"bgs":{"name":"","pan":0,"pitch":100,"volume":90},"disableDashing":false,"displayName":"","encounterList":[],"encounterStep":30,"height":10,"note":"","parallaxLoopX":false,"parallaxLoopY":false,"parallaxName":"","parallaxShow":true,"parallaxSx":0,"parallaxSy":0,"scrollType":0,"specifyBattleback":false,"tilesetId":8,"width":10,
"data":[6128,6128,6128,6128,6128,6128,6128,6128,6128,6128,6128,6132,6156,6156,6156,6156,6156,6156,6136,6128,6128,6152,6522,6522,6522,6522,6522,6522,6144,6128,6128,6152,4002,3988,3988,3988,3988,4004,6144,6128,6128,6152,3984,3968,3968,3968,3968,3992,6144,6128,6128,6152,3984,3968,3968,3968,3968,3992,6144,6128,6128,6152,3984,3968,3968,3968,3968,3992,6144,6128,6128,6152,4008,3980,3996,3996,3996,4006,6144,6128,6128,6130,6164,4012,6162,6148,6148,6148,6129,6128,6128,6128,6130,6148,6129,6128,6128,6128,6128,6128,0,0,0,0,0,0,0,0,0,0,0,0,0,0,0,0,0,0,0,0,0,0,0,0,0,0,0,0,0,0,0,0,0,0,0,0,0,0,0,0,0,0,0,0,0,0,0,0,0,0,0,0,0,0,0,0,0,0,0,0,0,0,0,0,0,0,0,0,0,0,0,0,0,0,0,0,0,0,0,0,0,0,0,0,0,0,0,0,0,0,0,0,0,0,0,0,0,0,0,0,0,0,0,0,0,0,0,0,0,0,0,0,0,0,0,0,0,0,0,0,0,0,0,0,0,0,0,0,0,0,0,0,0,0,0,0,0,0,0,0,0,0,0,0,0,0,0,0,0,0,0,0,0,0,0,0,0,0,0,0,0,0,0,0,0,0,0,0,0,0,0,0,0,0,0,0,0,0,0,0,0,0,0,0,0,0,0,0,0,0,0,0,0,0,0,0,0,0,0,0,0,0,0,0,0,0,0,0,0,0,0,0,0,0,0,0,0,0,0,0,0,0,840,841,842,0,0,0,0,0,0,0,848,849,850,0,0,0,0,0,0,0,0,0,0,0,0,0,0,0,0,0,0,0,0,0,0,0,0,0,0,0,0,0,0,0,0,815,0,0,0,0,0,0,0,0,0,0,0,0,0,0,0,0,0,0,0,0,0,0,0,0,0,0,0,0,0,0,0,0,0,0,0,0,0,0,0,0,0,0,0,0,0,0,0,0,0,0,0,0,0,0,0,0,0,0,0,0,0,0,0,0,5,0,0,15,15,15,0,0,0,0,5,0,0,0,0,0,0,0,0,0,5,0,0,0,0,0,0,0,0,0,5,0,0,0,0,0,0,0,0,0,5,0,0,0,0,0,0,0,0,0,0,0,0,0,0,0,0,0,0,0,0,0,0,0,0,0,0,0,0,0,0,0,0,0,0,0,0,0,0,10,10,10,10,10,10,10,10,0,0,10,0,0,0,0,0,0,10,0,0,10,0,0,0,0,0,0,10,0,0,10,0,0,0,0,0,0,10,0,0,10,0,0,0,0,0,0,10,0,0,10,0,0,0,0,0,0,10,0,0,10,0,0,0,0,0,0,10,0,0,10,10,0,10,10,10,10,10,0,0,0,10,10,10,10,0,0,0,0],
"events":[
null,
{"id":1,"name":"Funko","note":"","pages":[{"conditions":{"actorId":1,"actorValid":false,"itemId":1,"itemValid":false,"selfSwitchCh":"A","selfSwitchValid":false,"switch1Id":1,"switch1Valid":false,"switch2Id":1,"switch2Valid":false,"variableId":51,"variableValid":false,"variableValue":0},"directionFix":false,"image":{"tileId":0,"characterName":"ECA_Item","direction":2,"pattern":0,"characterIndex":0},"list":[{"code":126,"indent":0,"parameters":[150,0,0,1]},{"code":249,"indent":0,"parameters":[{"name":"Fanfare2","volume":90,"pitch":100,"pan":0}]},{"code":231,"indent":0,"parameters":[1,"Funko_Barbosa-Mago",0,0,300,0,75,75,255,0]},{"code":101,"indent":0,"parameters":["",0,0,2]},{"code":401,"indent":0,"parameters":["Você encontrou um Funko!<br>"]},{"code":401,"indent":0,"parameters":["\"Barbosa - Mago\""]},{"code":235,"indent":0,"parameters":[1]},{"code":111,"indent":0,"parameters":[12,"!$gameParty.hasQuest(1)"]},{"code":356,"indent":1,"parameters":["Quest Add 1"]},{"code":356,"indent":1,"parameters":["GabText Missão adicionada: Gotta Catch Em All!"]},{"code":356,"indent":1,"parameters":["ShowGab"]},{"code":0,"indent":1,"parameters":[]},{"code":412,"indent":0,"parameters":[]},{"code":122,"indent":0,"parameters":[252,252,1,0,1]},{"code":122,"indent":0,"parameters":[150,150,1,0,1]},{"code":117,"indent":0,"parameters":[165]},{"code":123,"indent":0,"parameters":["A",0]},{"code":0,"indent":0,"parameters":[]}],"moveFrequency":3,"moveRoute":{"list":[{"code":0,"parameters":[]}],"repeat":true,"skippable":false,"wait":false},"moveSpeed":3,"moveType":0,"priorityType":1,"stepAnime":false,"through":false,"trigger":0,"walkAnime":true},{"conditions":{"actorId":1,"actorValid":false,"itemId":1,"itemValid":false,"selfSwitchCh":"A","selfSwitchValid":true,"switch1Id":150,"switch1Valid":false,"switch2Id":1,"switch2Valid":false,"variableId":1,"variableValid":false,"variableValue":0},"directionFix":false,"image":{"characterIndex":0,"characterName":"","direction":2,"pattern":0,"tileId":0},"list":[{"code":0,"indent":0,"parameters":[]}],"moveFrequency":3,"moveRoute":{"list":[{"code":0,"parameters":[]}],"repeat":true,"skippable":false,"wait":false},"moveSpeed":3,"moveType":0,"priorityType":0,"stepAnime":false,"through":false,"trigger":0,"walkAnime":true}],"x":5,"y":3},
{"id":2,"name":"EV002","note":"","pages":[{"conditions":{"actorId":1,"actorValid":false,"itemId":1,"itemValid":false,"selfSwitchCh":"A","selfSwitchValid":false,"switch1Id":1,"switch1Valid":false,"switch2Id":1,"switch2Valid":false,"variableId":1,"variableValid":false,"variableValue":0},"directionFix":false,"image":{"characterIndex":0,"characterName":"","direction":2,"pattern":0,"tileId":0},"list":[{"code":201,"indent":0,"parameters":[0,9,10,3,0,0]},{"code":0,"indent":0,"parameters":[]}],"moveFrequency":3,"moveRoute":{"list":[{"code":0,"parameters":[]}],"repeat":true,"skippable":false,"wait":false},"moveSpeed":3,"moveType":0,"priorityType":0,"stepAnime":false,"through":false,"trigger":1,"walkAnime":true}],"x":3,"y":8}
]
}