{
"autoplayBgm":false,"autoplayBgs":true,"battleback1Name":"PoisonSwamp","battleback2Name":"GrassMaze","bgm":{"name":"","pan":0,"pitch":100,"volume":85},"bgs":{"name":"","pan":0,"pitch":100,"volume":90},"disableDashing":false,"displayName":"","encounterList":[{"regionSet":[2],"troopId":11,"weight":5},{"regionSet":[2],"troopId":12,"weight":5},{"regionSet":[2],"troopId":13,"weight":5}],"encounterStep":30,"height":23,"note":"<Region 2 Battleback1: Grassland>\n<Region 2 Battleback2: Forest>","parallaxLoopX":false,"parallaxLoopY":false,"parallaxName":"","parallaxShow":true,"parallaxSx":0,"parallaxSy":0,"scrollType":0,"specifyBattleback":true,"tilesetId":7,"width":23,
"data":[2048,2048,2048,2048,2048,2052,2076,2086,2832,2840,2928,2936,2832,2840,2088,2076,2056,2048,2048,2048,2048,2048,2048,2048,2048,2048,2048,2052,2086,2850,2836,2821,2854,2952,2950,2856,2826,2836,2852,2088,2056,2048,2048,2048,2048,2048,2048,2048,2048,2048,2072,2850,2817,2820,2854,2754,2740,2740,2756,2856,2824,2818,2852,2064,2048,2048,2048,2048,2048,2048,2048,2048,2052,2086,2832,2820,2854,2754,2721,2720,2720,2722,2756,2856,2824,2840,2088,2056,2048,2048,2048,2048,2048,2048,2048,2072,2850,2817,2840,2754,2721,2720,2720,2720,2720,2722,2756,2832,2818,2852,2064,2048,2048,2048,2048,2048,2048,2048,2072,2832,2816,2840,2736,2720,2720,2720,2720,2720,2720,2744,2832,2816,2840,2064,2048,2048,2048,2048,2048,2048,2048,2072,2832,2816,2840,2760,2728,2720,2720,2720,2720,2724,2758,2832,2816,2840,2064,2048,2048,2048,2048,2048,2048,2048,2072,2856,2824,2818,2852,2760,2728,2720,2720,2724,2758,2859,2825,2820,2854,2064,2048,2048,2048,2048,2048,2048,2048,2050,2084,2832,2820,2846,2853,2760,2748,2748,2758,2082,2084,2832,2840,2082,2049,2048,2048,2048,2048,2048,2048,2048,2048,2072,2856,2841,2090,2857,2849,2838,2852,2091,2057,2072,2834,2854,2064,2048,2048,2048,2048,2048,2048,2048,2048,2048,2050,2084,2860,2065,2068,2084,2832,2818,2852,2088,2073,2860,2082,2049,2048,2048,2048,2048,2048,2048,2048,2048,2048,2048,2050,2068,2049,2052,2086,2856,2828,2846,2861,2065,2068,2049,2048,2048,2048,2048,2048,2048,2048,2048,2048,2048,2048,2048,2048,2048,2072,2862,2954,2848,2082,2068,2049,2048,2048,2048,2048,2048,2048,2048,2048,2048,2048,2048,2048,2048,2048,2048,2048,2050,2084,2944,2860,2064,2048,2048,2048,2048,2048,2048,2048,2048,2048,2048,2048,2048,2048,2048,2048,2048,2048,2048,2048,2072,2929,2948,2088,2056,2048,2048,2048,2048,2048,2048,2048,2048,2048,2048,2048,2048,2048,2048,2048,2048,2048,2048,2072,2928,2936,2858,2064,2048,2048,2048,2048,2048,2048,2048,2048,2048,2048,2048,2048,2048,2048,2048,2048,2048,2048,2072,2928,2936,2860,2064,2048,2048,2048,2048,2048,2048,2048,2048,2048,2048,2048,2048,2048,2048,2048,2048,2048,2052,2086,2928,2936,2082,2049,2048,2048,2048,2048,2048,2048,2048,2048,2048,2048,2048,2048,2048,2048,2048,2048,2048,2072,2862,2928,2936,2064,2048,2048,2048,2048,2048,2048,2048,2048,2048,2048,2048,2048,2048,2048,2048,2048,2048,2048,2054,2093,2928,2936,2088,2056,2048,2048,2048,2048,2048,2048,2048,2048,2048,2076,2076,2076,2076,2056,2048,2048,2048,2072,2858,2928,2936,2858,2088,2076,2076,2076,2076,2076,2076,2076,2076,2076,2836,2836,2836,2852,2088,2076,2076,2076,2086,2848,2928,2936,2833,2836,2836,2836,2836,2836,2836,2836,2836,2836,2836,2816,2816,2816,2818,2836,2836,2836,2836,2836,2842,2928,2936,2832,2816,2816,2816,2816,2816,2816,2816,2816,2816,2816,0,0,0,0,2136,2124,2124,2134,0,0,0,0,0,0,2136,2124,2121,2184,2169,2112,2096,2096,2096,2117,2129,2118,2132,0,0,0,0,0,0,0,0,0,0,0,0,2137,2133,2188,2136,2104,2096,2096,2120,2190,2136,2106,2132,0,0,0,0,0,0,0,0,0,0,0,0,2113,2132,2186,2112,2096,2096,2126,2133,2186,2114,2134,0,0,0,0,0,0,0,0,0,0,0,0,2136,2121,2188,2112,2096,2096,0,2140,2176,2128,3962,0,0,0,0,0,0,0,0,0,0,0,0,0,2113,2116,2097,2100,2124,0,0,2176,2128,3964,0,0,0,0,0,0,0,0,0,0,0,0,0,2112,2096,2100,2134,0,2132,2179,2183,2128,0,3966,0,0,0,0,0,0,0,0,0,0,0,0,2112,2100,2134,0,2139,2120,2188,0,2140,0,0,0,0,0,0,0,0,0,0,0,0,3955,3965,2114,2134,0,2186,0,2098,2116,2132,0,0,0,0,0,0,0,0,0,0,0,0,3954,3946,2131,2135,0,2142,2188,2130,2096,2096,2120,0,0,0,0,0,0,0,0,0,0,0,0,3938,3958,2140,0,2138,2186,0,2112,2124,2124,2106,2132,0,0,0,0,0,0,0,0,0,0,0,3964,2142,0,2131,2135,2188,2130,2097,2177,2181,2136,2106,2116,2116,2116,2132,0,0,3963,3943,3965,0,2131,2141,0,2130,2122,2186,0,2114,2124,2132,2185,2181,2112,2096,2096,2096,2098,2132,0,0,3952,2130,2116,2122,0,2130,2101,2134,2188,2139,2135,0,2098,2132,2188,2136,2104,2096,2096,2096,2098,2132,0,3964,2112,2096,2098,2116,2097,2120,2190,2142,0,0,0,2096,2098,2132,2190,2136,2124,2104,2096,2100,2134,0,0,2136,2104,2096,2100,2124,2134,0,0,0,2130,2116,2124,2124,2106,2132,2187,2189,2136,2104,2120,2234,0,0,0,2112,2096,2120,0,0,2142,0,2130,2097,2096,0,0,2136,2106,2116,2132,2190,2112,2120,2224,0,0,0,2112,2096,2102,2129,2141,0,2130,2097,2096,2096,2132,0,0,2136,2124,2106,2116,2097,2120,2236,3050,0,0,2112,2100,2134,0,0,2130,2097,2096,2096,2096,2098,2132,0,0,0,2136,2104,2096,2120,0,3040,0,0,2112,2120,0,2130,2116,2097,2096,2096,2096,2096,2096,2098,2116,2132,0,0,2136,2124,2134,2238,3049,3045,0,2112,2098,2116,2097,2096,2096,2096,2096,2096,2096,2124,2124,2124,2126,2133,0,0,0,0,0,0,3052,0,2136,2124,2124,2124,2124,2124,2124,2124,2124,2124,0,0,0,0,2137,2129,2129,2141,0,0,0,0,0,0,0,0,0,0,0,0,0,0,0,0,0,0,0,0,0,0,0,0,0,0,0,0,0,0,0,0,0,0,0,0,0,0,0,0,0,0,0,0,0,0,0,0,0,0,176,176,0,0,0,0,0,0,0,0,0,0,0,0,0,0,0,176,0,0,0,0,0,0,176,0,176,0,0,0,0,0,0,0,0,0,0,0,0,176,0,0,0,0,0,0,0,0,0,0,176,0,0,0,0,0,0,0,0,0,0,0,0,0,0,0,0,0,0,0,0,0,0,0,0,0,0,0,0,0,0,0,0,0,0,0,0,0,0,0,0,0,0,0,0,0,0,0,0,0,0,0,0,0,0,0,0,0,0,0,0,0,0,0,0,0,0,0,0,0,0,0,0,0,0,0,0,0,0,0,0,0,0,0,0,0,0,0,0,0,0,0,0,0,0,0,0,0,0,0,0,0,0,0,0,0,0,0,0,0,0,0,0,0,0,0,0,0,0,0,0,0,0,0,0,0,0,0,0,0,0,0,0,0,0,0,0,0,0,0,0,0,0,0,0,0,0,0,0,0,0,0,0,0,0,0,0,0,0,0,0,0,0,0,0,0,0,0,0,0,0,0,0,0,0,0,0,0,0,0,0,0,0,0,0,0,0,0,0,0,0,0,0,0,0,0,0,0,0,0,0,0,0,0,0,0,0,0,0,0,0,0,0,0,0,0,0,0,0,0,0,0,0,0,0,0,0,0,0,0,0,0,0,0,0,0,0,0,0,0,0,0,0,0,0,0,0,0,0,0,0,0,0,0,0,0,0,0,0,0,0,0,0,0,0,0,0,0,0,0,0,0,0,0,0,0,0,0,0,0,0,0,0,0,0,0,0,0,0,0,0,0,0,0,0,0,0,0,0,0,0,0,0,0,0,0,0,0,0,0,0,0,0,0,0,0,0,0,0,0,0,0,0,0,0,0,0,0,0,0,0,0,0,0,0,0,0,0,0,0,0,0,0,0,0,0,0,0,0,0,0,0,0,0,0,0,0,0,0,0,0,0,0,0,0,0,0,0,0,0,0,0,0,0,0,0,0,0,0,0,0,0,0,0,0,0,0,0,0,0,0,0,0,0,0,0,0,0,0,0,0,0,0,0,0,0,0,0,0,0,0,0,0,0,0,0,0,0,0,0,0,0,0,0,0,0,0,0,0,0,0,0,0,0,0,0,0,0,0,0,0,0,0,0,0,0,0,0,0,0,0,0,0,0,0,0,0,0,0,0,0,0,0,0,0,0,0,0,0,0,0,0,0,168,168,176,73,0,0,168,168,0,168,0,0,0,0,0,0,0,0,0,0,0,0,168,169,176,0,0,0,0,176,169,0,169,168,0,0,0,0,0,0,0,0,0,0,0,169,176,0,0,0,0,0,0,176,0,176,169,0,0,0,0,0,0,0,0,0,0,0,176,0,0,0,0,0,0,0,0,0,0,176,0,0,0,0,0,0,0,0,0,0,0,0,0,0,0,0,0,0,0,0,0,0,0,0,0,0,0,0,0,0,0,0,0,92,0,0,0,0,0,0,0,0,0,0,0,171,0,0,0,0,0,0,0,0,0,0,0,0,0,0,0,0,0,0,0,0,0,0,168,0,0,0,0,0,0,0,0,0,0,171,0,168,0,0,0,0,0,0,0,0,0,176,0,0,0,0,0,0,0,0,0,0,0,0,176,0,0,0,0,0,0,0,0,0,0,0,0,0,0,0,0,0,0,0,0,0,0,0,0,0,0,0,0,0,0,0,0,0,0,0,0,0,0,0,0,0,0,0,0,0,280,0,0,0,0,0,0,0,0,0,0,0,0,0,0,0,0,0,0,0,0,0,0,0,0,0,0,0,372,373,281,0,0,0,0,0,0,0,0,0,0,0,0,0,0,0,0,0,0,0,0,380,381,0,0,0,0,0,0,0,0,0,0,0,0,0,0,0,0,0,0,0,0,0,0,0,0,0,0,0,0,0,0,0,0,0,0,0,0,0,0,0,0,0,0,0,0,0,0,0,0,0,0,0,0,0,0,0,0,0,0,0,0,0,0,0,0,0,0,0,0,0,0,0,0,0,0,0,0,0,0,0,0,0,0,0,0,0,0,0,0,0,0,0,0,0,0,0,0,0,0,0,0,0,0,0,0,0,0,0,0,0,0,0,0,0,0,0,0,0,0,0,0,0,0,0,0,0,0,0,0,0,0,0,0,0,0,0,0,0,0,0,0,0,0,0,0,0,0,0,0,0,0,0,0,0,0,0,0,0,0,0,0,0,0,0,0,0,0,0,0,0,0,0,0,0,0,0,0,0,0,0,0,0,0,0,0,0,0,0,0,0,0,0,0,0,0,112,113,112,113,112,113,112,113,112,113,0,0,112,113,112,113,112,113,112,113,112,113,112,120,121,120,121,120,121,120,121,120,121,0,0,120,121,120,121,120,121,120,121,120,121,120,0,0,0,0,0,0,0,0,0,0,0,0,0,0,0,0,0,0,0,0,0,0,0,0,0,0,0,0,0,0,0,0,0,0,0,0,0,0,0,0,0,0,0,0,0,0,0,0,0,0,0,0,0,0,0,0,0,0,0,0,0,0,0,0,0,0,0,0,0,0,0,0,0,0,0,0,0,0,0,0,0,0,0,0,0,0,0,0,0,0,0,0,0,0,0,0,0,0,0,0,0,0,0,0,0,0,0,0,0,0,0,0,0,0,0,0,0,0,0,0,0,0,0,0,0,0,0,0,0,0,0,0,0,0,0,0,0,0,0,0,0,0,0,0,0,0,0,0,0,0,0,0,0,0,0,0,0,0,0,0,0,0,0,0,0,0,0,0,0,0,0,0,0,0,0,0,0,0,0,0,0,0,0,0,0,0,0,0,0,0,0,0,0,0,0,0,0,0,0,0,0,0,0,0,0,0,0,0,0,0,0,0,0,0,0,0,0,0,0,0,0,0,0,0,0,0,0,0,0,0,0,0,0,0,0,0,0,0,0,0,0,0,0,0,0,0,0,0,0,0,0,0,0,0,0,0,0,0,0,0,0,0,0,0,0,0,0,0,0,0,0,0,0,0,0,0,0,0,0,0,0,0,0,0,0,0,0,0,0,0,0,0,0,0,0,0,0,0,0,0,0,0,0,0,0,0,0,0,0,0,0,0,0,0,0,0,0,0,0,0,0,0,0,0,0,0,0,0,0,0,0,0,0,0,0,0,0,0,0,0,0,0,0,0,0,0,0,0,0,0,0,0,0,0,0,0,0,0,0,0,0,0,0,0,0,0,0,0,0,0,0,0,0,0,0,0,0,0,0,0,0,0,0,0,0,0,0,0,0,0,0,0,0,0,0,0,0,0,0,0,0,0,0,0,0,0,0,0,0,0,0,0,0,0,0,0,0,0,0,0,0,0,0,0,0,0,0,0,0,0,0,0,0,0,0,0,0,0,0,0,0,0,0,0,0,0,0,0,0,0,0,0,0,0,0,0,0,0,0,0,0,0,0,0,0,0,0,0,0,0,0,0,0,0,0,0,0,0,0,0,0,0,0,0,0,0,0,0,0,0,0,0,0,0,0,0,0,0,0,0,0,0,0,0,0,0,0,0,0,0,0,0,0,0,0,0,0,0,0,0,0,0,0,0,0,0,0,0,0,0,0,0,0,0,0,0,0,0,0,0,0,0,0,0,0,0,0,0,0,0,0,0,0,0,0,0,0,0,0,0,0,0,0,0,0,0,0,0,0,0,0,0,0,0,0,0,0,0,0,0,0,0,0,0,0,0,0,0,0,0,0,0,0,0,0,0,0,0,0,0,0,0,0,0,0,0,0,0,0,0,0,0,0,0,0,0,0,0,0,0,0,0,0,0,0,0,0,0,0,0,0,0,0,0,0,0,0,0,0,0,0,0,0,0,0,0,0,0,0,0,0,0,0,0,0,0,0,0,0,0,0,0,0,0,0,0,0,0,0,0,0,0,0,0,0,0,0,0,0,0,0,0,0,0,0,0,0,0,0,0,0,0,0,0,0,0,0,0,0,0,0,0,0,0,0,0,0,0,0,0,0,0,0,0,0,0,0,0,0,0,0,0,0,0,0,0,0,0,0,0,0,0,0,0,0,0,0,0,0,0,0,0,0,0,0,0,0,0,0,0,0,0,0,0,0,0,0,0,0,0,0,0,0,0,0,0,0,0,0,0,0,0,0,0,0,0,0,0,0,0,0,0,0,0,0,0,0,0,0,0,0,0,0,0,0,0,0,0,0,0,0,0,0,0,0,2,2,2,2,2,2,2,2,2,2,2,2,2,2,2,2,2,2,2,2,2,2,2,2,2,2,2,2,2,2,2,2,2,2,2,2,2,2,2,2,2,2,2,2,2,2,2,2,2,2,2,2,2,2,2,2,2,2,2,2,2,2,2,2,2,2,2,2,2,2,2,2,2,2,2,2,2,2,2,2,2,2,2,2,2,2,2,2,2,2,2,2,2,2,2,2,2,2,2,2,2,2,2,2,2,2,2,2,2,2,2,2,2,2,2,2,2,2,2,2,2,2,2,2,2,2,2,2,2,2,2,2,2,2,2,2,2,2,2,2,2,2,2,2,2,2,2,2,2,2,2,2,2,2,2,2,2,2,2,2,2,2,2,2,2,2,2,2,2,2,2,2,2,2,2,2,2,2,2,2,2,2,2,2,2,2,2,2,2,2,2,2,2,2,2,2,2,2,2,2,2,2,2,2,2,2,2,2,2,2,2,2,2,2,2,2,2,2,2,2,2,2,2,2,2,2,2,2,2,2,2,2,2,2,2,2,2,2,2,2,2,2,2,2,2,2,2,2,2,2,2,2,2],
"events":[
null,
{"id":1,"name":"EV001","note":"","pages":[{"conditions":{"actorId":1,"actorValid":false,"itemId":1,"itemValid":false,"selfSwitchCh":"A","selfSwitchValid":false,"switch1Id":1,"switch1Valid":false,"switch2Id":1,"switch2Valid":false,"variableId":1,"variableValid":true,"variableValue":0},"directionFix":false,"image":{"characterIndex":0,"characterName":"","direction":2,"pattern":0,"tileId":0},"list":[{"code":101,"indent":0,"parameters":["Hulk",4,0,2]},{"code":401,"indent":0,"parameters":["\\} \\}Ela tá por perto\\.,eu to sentindo a presneça dela me olhando com aqueles olhinhos malignos..."]},{"code":250,"indent":0,"parameters":[{"name":"Earth4","volume":90,"pitch":100,"pan":0}]},{"code":225,"indent":0,"parameters":[5,5,60,true]},{"code":101,"indent":0,"parameters":["Hulk",3,0,2]},{"code":401,"indent":0,"parameters":["AAAAAH!!\\. É ela, a mariposa tá vindo!!!"]},{"code":250,"indent":0,"parameters":[{"name":"Earth4","volume":90,"pitch":100,"pan":0}]},{"code":225,"indent":0,"parameters":[5,5,120,true]},{"code":301,"indent":0,"parameters":[0,102,false,false]},{"code":117,"indent":0,"parameters":[384]},{"code":101,"indent":0,"parameters":["Hulk",4,0,2]},{"code":401,"indent":0,"parameters":["\\}\\|Ela foi embora?"]},{"code":101,"indent":0,"parameters":["Exemplo_Faces",0,0,2]},{"code":401,"indent":0,"parameters":["Me parece que\\. \\^"]},{"code":101,"indent":0,"parameters":["Hulk",2,0,2]},{"code":401,"indent":0,"parameters":["\\fb\\} Fala baixo, seu imbecil!\\. Vai que ela volta dos mortos!"]},{"code":356,"indent":0,"parameters":["Quest NextStep 3"]},{"code":356,"indent":0,"parameters":["GabText Missão atualizada: Dedetização"]},{"code":356,"indent":0,"parameters":["ShowGab"]},{"code":122,"indent":0,"parameters":[55,55,0,0,1]},{"code":0,"indent":0,"parameters":[]}],"moveFrequency":3,"moveRoute":{"list":[{"code":0,"parameters":[]}],"repeat":true,"skippable":false,"wait":false},"moveSpeed":3,"moveType":0,"priorityType":0,"stepAnime":false,"through":false,"trigger":1,"walkAnime":true},{"conditions":{"actorId":1,"actorValid":false,"itemId":1,"itemValid":false,"selfSwitchCh":"A","selfSwitchValid":false,"switch1Id":1,"switch1Valid":false,"switch2Id":1,"switch2Valid":false,"variableId":55,"variableValid":true,"variableValue":1},"directionFix":false,"image":{"characterIndex":0,"characterName":"","direction":2,"pattern":0,"tileId":0},"list":[{"code":0,"indent":0,"parameters":[]}],"moveFrequency":3,"moveRoute":{"list":[{"code":0,"parameters":[]}],"repeat":true,"skippable":false,"wait":false},"moveSpeed":3,"moveType":0,"priorityType":0,"stepAnime":false,"through":false,"trigger":0,"walkAnime":true}],"x":10,"y":9},
{"id":2,"name":"EV002","note":"","pages":[{"conditions":{"actorId":1,"actorValid":false,"itemId":1,"itemValid":false,"selfSwitchCh":"A","selfSwitchValid":false,"switch1Id":1,"switch1Valid":false,"switch2Id":1,"switch2Valid":false,"variableId":1,"variableValid":false,"variableValue":0},"directionFix":false,"image":{"characterIndex":0,"characterName":"","direction":2,"pattern":0,"tileId":0},"list":[{"code":201,"indent":0,"parameters":[0,15,10,0,0,0]},{"code":0,"indent":0,"parameters":[]}],"moveFrequency":3,"moveRoute":{"list":[{"code":0,"parameters":[]}],"repeat":true,"skippable":false,"wait":false},"moveSpeed":3,"moveType":0,"priorityType":0,"stepAnime":false,"through":false,"trigger":1,"walkAnime":true}],"x":10,"y":22},
{"id":3,"name":"EV003","note":"","pages":[{"conditions":{"actorId":1,"actorValid":false,"itemId":1,"itemValid":false,"selfSwitchCh":"A","selfSwitchValid":false,"switch1Id":1,"switch1Valid":false,"switch2Id":1,"switch2Valid":false,"variableId":1,"variableValid":false,"variableValue":0},"directionFix":false,"image":{"characterIndex":0,"characterName":"","direction":2,"pattern":0,"tileId":0},"list":[{"code":201,"indent":0,"parameters":[0,15,10,0,0,0]},{"code":0,"indent":0,"parameters":[]}],"moveFrequency":3,"moveRoute":{"list":[{"code":0,"parameters":[]}],"repeat":true,"skippable":false,"wait":false},"moveSpeed":3,"moveType":0,"priorityType":0,"stepAnime":false,"through":false,"trigger":1,"walkAnime":true}],"x":11,"y":22},
{"id":4,"name":"EV004","note":"","pages":[{"conditions":{"actorId":1,"actorValid":false,"itemId":1,"itemValid":false,"selfSwitchCh":"A","selfSwitchValid":false,"switch1Id":1,"switch1Valid":false,"switch2Id":1,"switch2Valid":false,"variableId":1,"variableValid":false,"variableValue":0},"directionFix":false,"image":{"characterIndex":0,"characterName":"","direction":2,"pattern":0,"tileId":0},"list":[{"code":101,"indent":0,"parameters":["",0,0,2]},{"code":401,"indent":0,"parameters":["-- Sede dos \\v[3] -- <br>"]},{"code":401,"indent":0,"parameters":["Ponte em reforma"]},{"code":0,"indent":0,"parameters":[]}],"moveFrequency":3,"moveRoute":{"list":[{"code":0,"parameters":[]}],"repeat":true,"skippable":false,"wait":false},"moveSpeed":3,"moveType":0,"priorityType":1,"stepAnime":false,"through":false,"trigger":0,"walkAnime":true},{"conditions":{"actorId":1,"actorValid":false,"itemId":1,"itemValid":false,"selfSwitchCh":"A","selfSwitchValid":false,"switch1Id":17,"switch1Valid":true,"switch2Id":1,"switch2Valid":false,"variableId":1,"variableValid":false,"variableValue":0},"directionFix":false,"image":{"characterIndex":0,"characterName":"","direction":2,"pattern":0,"tileId":0},"list":[{"code":101,"indent":0,"parameters":["",0,0,2]},{"code":401,"indent":0,"parameters":["-- Sede dos \\v[3] -- <br>"]},{"code":0,"indent":0,"parameters":[]}],"moveFrequency":3,"moveRoute":{"list":[{"code":0,"parameters":[]}],"repeat":true,"skippable":false,"wait":false},"moveSpeed":3,"moveType":0,"priorityType":1,"stepAnime":false,"through":false,"trigger":0,"walkAnime":true}],"x":9,"y":0},
{"id":5,"name":"EV005","note":"","pages":[{"conditions":{"actorId":1,"actorValid":false,"itemId":1,"itemValid":false,"selfSwitchCh":"A","selfSwitchValid":false,"switch1Id":1,"switch1Valid":false,"switch2Id":1,"switch2Valid":false,"variableId":1,"variableValid":true,"variableValue":0},"directionFix":false,"image":{"characterIndex":0,"characterName":"","direction":2,"pattern":0,"tileId":0},"list":[{"code":101,"indent":0,"parameters":["Hulk",4,0,2]},{"code":401,"indent":0,"parameters":["\\} \\}Ela tá por perto\\.,eu to sentindo a presneça dela me olhando com aqueles olhinhos malignos..."]},{"code":250,"indent":0,"parameters":[{"name":"Earth4","volume":90,"pitch":100,"pan":0}]},{"code":225,"indent":0,"parameters":[5,5,60,true]},{"code":101,"indent":0,"parameters":["Hulk",3,0,2]},{"code":401,"indent":0,"parameters":["AAAAAH!!\\. É ela, a mariposa tá vindo!!!"]},{"code":250,"indent":0,"parameters":[{"name":"Earth4","volume":90,"pitch":100,"pan":0}]},{"code":225,"indent":0,"parameters":[5,5,120,true]},{"code":301,"indent":0,"parameters":[0,102,false,false]},{"code":117,"indent":0,"parameters":[384]},{"code":101,"indent":0,"parameters":["Hulk",4,0,2]},{"code":401,"indent":0,"parameters":["\\}\\|Ela foi embora?"]},{"code":101,"indent":0,"parameters":["Exemplo_Faces",0,0,2]},{"code":401,"indent":0,"parameters":["Me parece que\\. \\^"]},{"code":101,"indent":0,"parameters":["Hulk",2,0,2]},{"code":401,"indent":0,"parameters":["\\fb\\} Fala baixo, seu imbecil!\\. Vai que ela volta dos mortos!"]},{"code":356,"indent":0,"parameters":["Quest NextStep 3"]},{"code":356,"indent":0,"parameters":["GabText Missão atualizada: Dedetização"]},{"code":356,"indent":0,"parameters":["ShowGab"]},{"code":122,"indent":0,"parameters":[55,55,0,0,1]},{"code":0,"indent":0,"parameters":[]}],"moveFrequency":3,"moveRoute":{"list":[{"code":0,"parameters":[]}],"repeat":true,"skippable":false,"wait":false},"moveSpeed":3,"moveType":0,"priorityType":0,"stepAnime":false,"through":false,"trigger":1,"walkAnime":true},{"conditions":{"actorId":1,"actorValid":false,"itemId":1,"itemValid":false,"selfSwitchCh":"A","selfSwitchValid":false,"switch1Id":1,"switch1Valid":false,"switch2Id":1,"switch2Valid":false,"variableId":55,"variableValid":true,"variableValue":1},"directionFix":false,"image":{"characterIndex":0,"characterName":"","direction":2,"pattern":0,"tileId":0},"list":[{"code":0,"indent":0,"parameters":[]}],"moveFrequency":3,"moveRoute":{"list":[{"code":0,"parameters":[]}],"repeat":true,"skippable":false,"wait":false},"moveSpeed":3,"moveType":0,"priorityType":0,"stepAnime":false,"through":false,"trigger":0,"walkAnime":true}],"x":11,"y":9},
{"id":6,"name":"EV006","note":"","pages":[{"conditions":{"actorId":1,"actorValid":false,"itemId":1,"itemValid":false,"selfSwitchCh":"A","selfSwitchValid":false,"switch1Id":1,"switch1Valid":false,"switch2Id":1,"switch2Valid":false,"variableId":1,"variableValid":false,"variableValue":0},"directionFix":false,"image":{"characterIndex":0,"characterName":"","direction":2,"pattern":0,"tileId":0},"list":[{"code":201,"indent":0,"parameters":[0,17,29,29,0,0]},{"code":0,"indent":0,"parameters":[]}],"moveFrequency":3,"moveRoute":{"list":[{"code":0,"parameters":[]}],"repeat":true,"skippable":false,"wait":false},"moveSpeed":3,"moveType":0,"priorityType":0,"stepAnime":false,"through":false,"trigger":1,"walkAnime":true}],"x":10,"y":0},
{"id":7,"name":"EV007","note":"","pages":[{"conditions":{"actorId":1,"actorValid":false,"itemId":1,"itemValid":false,"selfSwitchCh":"A","selfSwitchValid":false,"switch1Id":1,"switch1Valid":false,"switch2Id":1,"switch2Valid":false,"variableId":1,"variableValid":false,"variableValue":0},"directionFix":false,"image":{"characterIndex":0,"characterName":"","direction":2,"pattern":0,"tileId":0},"list":[{"code":201,"indent":0,"parameters":[0,17,29,29,0,0]},{"code":0,"indent":0,"parameters":[]}],"moveFrequency":3,"moveRoute":{"list":[{"code":0,"parameters":[]}],"repeat":true,"skippable":false,"wait":false},"moveSpeed":3,"moveType":0,"priorityType":0,"stepAnime":false,"through":false,"trigger":1,"walkAnime":true}],"x":11,"y":0}
]
}