{
"autoplayBgm":true,"autoplayBgs":true,"battleback1Name":"GrassMaze","battleback2Name":"Forest","bgm":{"name":"6-Timberlake","pan":0,"pitch":100,"volume":90},"bgs":{"name":"","pan":0,"pitch":100,"volume":90},"disableDashing":false,"displayName":"Ilha do Fundão","encounterList":[{"regionSet":[],"troopId":1,"weight":5},{"regionSet":[],"troopId":3,"weight":5}],"encounterStep":50,"height":40,"note":"","parallaxLoopX":false,"parallaxLoopY":false,"parallaxName":"","parallaxShow":false,"parallaxSx":0,"parallaxSy":0,"scrollType":0,"specifyBattleback":true,"tilesetId":7,"width":40,
"data":[2048,2048,2048,2048,2048,2048,2048,2048,2048,2048,2048,2048,2048,2072,2928,2936,2064,2048,2048,2048,2048,2048,2048,2052,2076,2076,2056,2048,2048,2048,2048,2048,2048,2048,2048,2052,2076,2076,2076,2076,2048,2048,2052,2076,2076,2076,2056,2048,2048,2048,2048,2048,2052,2086,2928,2936,2064,2048,2048,2048,2048,2048,2052,2086,2850,2852,2064,2048,2048,2048,2048,2048,2048,2048,2052,2086,2862,2947,2945,2945,2048,2052,2086,2850,2836,2852,2088,2056,2048,2048,2048,2048,2072,2858,2930,2950,2088,2056,2048,2048,2048,2048,2072,2850,2817,2840,2064,2048,2048,2048,2048,2048,2048,2052,2086,2947,2945,2951,2090,2859,2048,2072,2850,2817,2816,2818,2852,2088,2056,2048,2048,2048,2072,2848,2944,2850,2852,2088,2060,2076,2076,2076,2086,2832,2816,2840,2088,2076,2076,2056,2048,2048,2048,2072,2858,2944,2091,2070,2051,2068,2048,2072,2832,2816,2816,2816,2818,2852,2064,2048,2048,2048,2072,2848,2956,2832,2818,2852,2092,2850,2836,2836,2836,2817,2816,2818,2836,2836,2852,2088,2056,2048,2048,2072,2860,2956,2862,2064,2048,2048,2048,2072,2832,2816,2816,2816,2816,2840,2064,2048,2048,2048,2072,2857,2838,2817,2816,2818,2836,2817,2816,2816,2816,2816,2816,2816,2816,2816,2818,2852,2064,2048,2048,2050,2068,2068,2068,2049,2048,2048,2048,2072,2832,2816,2816,2816,2816,2840,2064,2048,2048,2048,2050,2084,2856,2824,2816,2816,2816,2816,2816,2816,2816,2816,2816,2816,2816,2816,2816,2840,2088,2056,2048,2048,2048,2048,2048,2048,2048,2048,2052,2086,2832,2816,2816,2816,2820,2854,2064,2048,2048,2048,2048,2050,2084,2856,2824,2816,2816,2816,2816,2816,2820,2844,2844,2844,2824,2816,2816,2818,2852,2088,2056,2048,2048,2048,2048,2048,2048,2048,2072,2850,2817,2816,2820,2844,2854,2082,2049,2048,2048,2048,2048,2048,2050,2084,2832,2816,2816,2816,2820,2844,2854,2082,2068,2084,2856,2824,2816,2816,2818,2852,2064,2052,2076,2076,2076,2056,2048,2048,2072,2856,2824,2820,2854,2082,2068,2049,2048,2048,2048,2048,2048,2048,2048,2072,2832,2816,2816,2816,2840,2082,2068,2049,2048,2050,2084,2856,2824,2816,2816,2840,2088,2086,2862,2954,2858,2088,2056,2048,2054,2093,2834,2854,2082,2049,2048,2048,2048,2048,2048,2048,2048,2052,2076,2086,2832,2816,2820,2844,2854,2064,2048,2048,2048,2048,2050,2084,2856,2824,2816,2818,2836,2852,2947,2951,2833,2852,2064,2048,2072,2859,2843,2091,2077,2056,2048,2048,2048,2048,2048,2048,2052,2086,2850,2836,2817,2820,2854,2082,2068,2049,2048,2048,2048,2048,2048,2050,2084,2856,2844,2824,2816,2840,2956,2859,2845,2854,2064,2048,2050,2084,2833,2836,2852,2064,2048,2048,2048,2048,2052,2076,2086,2850,2817,2816,2820,2854,2082,2049,2048,2048,2048,2048,2048,2048,2048,2048,2050,2069,2093,2832,2816,2822,2861,2082,2068,2068,2049,2048,2052,2086,2832,2816,2840,2064,2048,2052,2076,2076,2086,2850,2836,2817,2816,2820,2854,2082,2049,2048,2048,2048,2048,2048,2048,2048,2048,2048,2052,2086,2850,2817,2816,2840,2082,2049,2048,2048,2048,2048,2072,2850,2817,2816,2840,2064,2048,2072,2859,2838,2836,2817,2816,2820,2844,2854,2082,2049,2048,2048,2048,2048,2048,2048,2048,2048,2048,2048,2072,2850,2817,2816,2816,2840,2088,2056,2048,2048,2048,2048,2072,2832,2816,2816,2840,2064,2048,2050,2084,2856,2824,2816,2820,2854,2082,2068,2049,2048,2048,2048,2048,2048,2048,2048,2048,2048,2048,2052,2086,2832,2816,2816,2816,2818,2852,2088,2056,2048,2048,2048,2072,2832,2816,2816,2840,2064,2048,2048,2054,2093,2832,2820,2854,2082,2049,2048,2048,2048,2048,2048,2048,2048,2048,2048,2048,2052,2076,2086,2850,2817,2816,2816,2816,2816,2818,2852,2064,2048,2048,2048,2072,2832,2816,2816,2840,2064,2048,2048,2072,2850,2817,2840,2082,2049,2048,2048,2048,2048,2048,2048,2048,2048,2048,2048,2052,2086,2850,2836,2817,2816,2816,2816,2816,2820,2844,2841,2064,2048,2048,2048,2072,2832,2816,2816,2840,2088,2056,2048,2072,2832,2820,2854,2064,2048,2048,2048,2048,2048,2048,2048,2048,2048,2048,2052,2086,2850,2817,2816,2816,2816,2820,2844,2844,2854,2090,2860,2064,2052,2076,2056,2072,2832,2816,2816,2818,2852,2064,2052,2086,2832,2840,2082,2049,2048,2048,2048,2048,2048,2048,2048,2048,2048,2052,2086,2850,2817,2820,2844,2844,2844,2854,2082,2068,2068,2055,2081,2061,2086,2858,2064,2072,2856,2824,2816,2816,2840,2064,2072,2850,2817,2840,2064,2048,2048,2048,2048,2048,2048,2048,2048,2052,2076,2086,2850,2821,2844,2854,2082,2068,2068,2068,2049,2048,2048,2072,2862,2080,2859,2843,2064,2050,2084,2856,2844,2824,2840,2064,2072,2856,2828,2854,2064,2048,2048,2048,2048,2048,2048,2052,2076,2086,2850,2836,2821,2854,2082,2068,2049,2048,2048,2048,2048,2048,2048,2050,2068,2051,2084,2848,2064,2048,2050,2069,2093,2832,2840,2064,2050,2084,2848,2954,2064,2048,2048,2048,2048,2048,2052,2086,2850,2836,2817,2820,2854,2082,2049,2048,2048,2048,2048,2048,2048,2048,2048,2048,2048,2052,2086,2848,2064,2048,2048,2072,2850,2817,2840,2064,2048,2072,2848,2944,2088,2076,2076,2076,2076,2076,2086,2850,2817,2816,2816,2840,2091,2077,2076,2076,2076,2076,2056,2048,2048,2048,2048,2048,2048,2072,2851,2855,2064,2048,2048,2072,2832,2816,2840,2088,2060,2086,2848,2944,2859,2838,2836,2836,2836,2836,2836,2817,2816,2816,2816,2822,2849,2849,2849,2849,2849,2861,2064,2048,2048,2048,2048,2048,2048,2072,2848,2091,2077,2048,2048,2072,2856,2844,2846,2853,2092,2850,2842,2953,2949,2856,2824,2816,2816,2816,2816,2816,2816,2816,2816,2840,2091,2081,2081,2070,2068,2068,2049,2052,2076,2076,2056,2048,2048,2072,2833,2836,2836,2048,2048,2050,2068,2068,2084,2857,2849,2829,2854,2090,2953,2949,2832,2816,2816,2820,2844,2844,2844,2824,2816,2818,2836,2836,2852,2088,2056,2048,2048,2072,2850,2852,2064,2048,2048,2072,2832,2816,2816,2048,2048,2048,2048,2048,2050,2068,2084,2860,2082,2074,2858,2956,2856,2844,2844,2854,2082,2068,2084,2856,2824,2816,2816,2816,2818,2852,2064,2048,2052,2086,2832,2840,2064,2048,2048,2072,2832,2816,2816,2048,2048,2048,2048,2048,2048,2048,2050,2068,2049,2072,2857,2853,2082,2068,2068,2068,2049,2048,2050,2084,2832,2816,2816,2816,2816,2840,2088,2076,2073,2850,2817,2840,2088,2056,2052,2086,2832,2816,2816,2048,2048,2048,2052,2076,2076,2056,2048,2048,2048,2050,2084,2848,2064,2048,2048,2048,2048,2048,2048,2072,2856,2824,2816,2816,2816,2818,2836,2852,2092,2832,2816,2818,2852,2088,2086,2850,2817,2816,2816,2048,2048,2048,2072,2850,2852,2064,2048,2048,2048,2048,2072,2848,2088,2056,2048,2048,2048,2048,2048,2050,2084,2832,2816,2816,2816,2816,2816,2818,2836,2817,2816,2816,2818,2836,2836,2817,2816,2816,2816,2048,2048,2052,2086,2832,2840,2088,2076,2056,2048,2048,2072,2857,2853,2064,2048,2048,2048,2048,2048,2048,2072,2856,2824,2816,2816,2816,2816,2816,2816,2816,2816,2816,2816,2816,2816,2816,2816,2816,2816,2048,2052,2086,2850,2817,2818,2836,2852,2088,2076,2056,2050,2084,2848,2088,2076,2056,2048,2048,2048,2048,2050,2084,2832,2816,2816,2816,2816,2816,2816,2816,2816,2816,2816,2816,2816,2816,2816,2816,2816,2048,2072,2859,2825,2816,2816,2816,2818,2836,2852,2064,2052,2086,2833,2836,2852,2088,2076,2076,2076,2076,2076,2086,2832,2816,2816,2816,2816,2816,2816,2816,2816,2816,2816,2816,2816,2816,2816,2816,2816,2048,2050,2084,2832,2816,2816,2816,2816,2816,2840,2088,2086,2850,2817,2816,2818,2836,2836,2836,2836,2836,2836,2836,2817,2816,2816,2816,2816,2816,2816,2816,2816,2816,2816,2816,2816,2816,2816,2816,2816,2048,2052,2086,2832,2816,2816,2816,2816,2816,2818,2836,2836,2817,2816,2816,2816,2816,2816,2816,2816,2816,2816,2816,2816,2816,2816,2816,2816,2816,2816,2816,2816,2816,2816,2816,2816,2816,2816,2816,2816,2052,2086,2850,2817,2816,2816,2816,2816,2816,2816,2816,2816,2816,2816,2816,2816,2820,2844,2824,2816,2816,2816,2816,2816,2816,2816,2816,2816,2816,2816,2816,2816,2816,2816,2816,2816,2816,2816,2816,2816,2072,2859,2825,2816,2816,2816,2816,2816,2816,2816,2816,2816,2816,2816,2816,2816,2840,2954,2856,2824,2820,2844,2824,2816,2816,2816,2816,2816,2816,2816,2816,2816,2816,2816,2816,2816,2816,2816,2816,2816,2050,2084,2856,2844,2844,2844,2844,2844,2844,2844,2844,2844,2844,2844,2844,2844,2854,2929,2948,2832,2840,1635,2832,2816,2816,2816,2816,2816,2816,2816,2816,2816,2816,2816,2816,2816,2816,2816,2816,2816,2048,2050,2068,2068,2068,2068,2068,2068,2068,2068,2068,2068,2068,2068,2068,2068,2084,2928,2936,2832,2818,2836,2817,2816,2816,2816,2816,2816,2816,2816,2816,2816,2816,2816,2816,2816,2816,2816,2816,2816,2134,2232,2220,2220,2230,2112,2096,2096,2096,2096,2096,2096,2096,2120,3040,0,2112,2096,2096,2096,2096,2120,2184,2169,2136,2124,2104,2096,2096,2096,2096,2096,2096,2096,2096,2100,2124,2124,2124,2124,2228,2131,2129,2129,2129,2125,2104,2096,2096,2096,2096,2096,2100,2134,3052,0,2112,2096,2096,2096,2096,2098,2132,2188,0,0,2112,2096,2096,2096,2096,2096,2096,2096,2100,2134,0,0,0,0,2216,2128,0,0,0,0,2136,2104,2096,2096,2096,2096,2120,3050,0,0,2136,2104,2096,2096,2096,2096,2120,0,0,0,2112,2096,2096,2100,2124,2124,2104,2100,2134,0,0,0,2138,0,2216,2128,3954,3956,0,0,0,2136,2104,2096,2096,2096,2120,3040,0,0,0,2136,2108,2124,2124,2124,2134,0,0,0,2136,2124,2124,2121,0,0,2136,2121,0,0,2139,2118,2122,0,2230,2128,3936,3944,0,0,0,0,2112,2096,2096,2096,2120,3040,0,0,0,0,2140,0,3954,3956,0,0,0,0,0,0,0,2137,2133,0,0,2140,0,0,0,2112,2120,0,2116,2122,3936,3944,0,0,0,0,2112,2096,2096,2096,2120,3049,3045,0,0,0,0,0,3936,3944,0,0,0,0,0,0,0,0,2113,2132,0,0,2139,2129,2129,2125,2121,0,2096,2120,3936,3944,0,0,0,0,2112,2096,2096,2096,2098,2132,3052,0,0,0,0,3954,3921,3944,0,0,0,0,0,0,0,0,2136,2106,2132,0,0,0,0,0,2137,2118,2100,2134,3936,3944,0,0,0,0,2112,2096,2096,2096,2096,2120,2190,0,0,0,3954,3921,3920,3944,0,0,0,0,0,0,0,0,0,2136,2106,2116,2116,2116,2116,2132,0,2136,2120,3954,3925,3958,0,0,0,2130,2097,2096,2096,2096,2096,2098,2132,2190,0,3954,3921,3920,3924,3958,0,2130,2116,2132,0,0,0,0,0,0,2112,2100,2124,2124,2124,2121,0,0,2120,3960,3945,0,0,2130,2116,2097,2096,2096,2096,2096,2096,2096,2098,2132,3954,3925,3948,3928,3944,2130,2116,2097,2096,2098,2132,0,0,0,0,0,2136,2134,0,0,0,2140,0,0,2120,0,3952,0,2130,2097,2096,2096,2096,2096,2096,2096,2096,2100,2124,2134,3936,3944,0,3960,3958,2114,2124,2124,2104,2096,2098,2132,0,0,0,0,0,0,0,0,0,0,0,0,2120,3963,3947,2139,2125,2104,2096,2096,2096,2096,2096,2096,2100,2134,3954,3940,3921,3944,0,2130,2117,2135,3042,3044,2136,2124,2104,2098,2132,0,0,0,0,0,0,0,0,0,2130,2116,2120,0,3937,3956,0,2112,2096,2096,2096,2096,2100,2124,2134,3954,3925,3948,3948,3958,2130,2097,2120,3042,3009,3010,3028,3044,2112,2096,2098,2117,2141,0,0,0,0,2130,2116,2116,2097,2096,2120,0,3936,3922,3956,2112,2096,2100,2124,2124,2134,3954,3941,3949,3958,0,0,2130,2097,2100,2134,3024,3008,3008,3008,3032,2112,2096,2100,2134,0,0,0,0,2130,2097,2096,2096,2096,2096,2120,3963,3929,3920,3944,2112,2096,2120,0,0,0,3936,3944,0,0,0,2130,2097,2100,2134,2234,3048,3016,3008,3012,3046,2112,2096,2120,0,0,0,0,0,2136,2104,2096,2096,2096,2096,2120,3050,3960,3932,3958,2112,2100,2126,2133,0,0,3936,3944,0,2130,2117,2125,2124,2134,2227,2231,2138,3048,3020,3046,2130,2097,2100,2134,0,0,0,0,0,0,2136,2104,2096,2096,2096,2120,3040,0,3952,0,2112,2120,2190,2115,2141,3954,3925,3958,2130,2101,2134,2226,2212,2213,2231,2130,2099,2132,3052,2130,2101,2124,2134,0,0,0,0,0,0,0,0,2112,2096,2096,2096,2120,3040,0,3952,0,2112,2098,2116,2122,3954,3925,3958,2130,2097,2120,2226,2193,2192,2216,2130,2097,2096,2098,2116,2101,2134,0,0,0,0,0,0,0,0,0,0,2136,2104,2096,2096,2120,3040,0,3952,0,2136,2104,2096,2120,3936,3944,0,2112,2096,2120,2210,2220,2220,2230,2112,2096,2096,2096,2100,2134,0,0,0,0,0,0,0,0,0,2138,0,2190,2114,2124,2104,2120,3040,0,3952,0,0,2112,2100,2134,3936,3944,2130,2097,2096,2120,2236,2131,2129,2118,2097,2096,2096,2100,2134,0,0,0,0,0,0,0,2131,2129,2129,2111,2129,2119,2135,0,2112,2120,3052,0,3964,0,0,2112,2120,0,3936,3944,2112,2096,2100,2126,2129,2135,3050,2112,2096,2100,2124,2134,0,0,0,0,2130,2116,2116,2116,2122,2226,2228,2128,0,2128,0,0,2112,2134,2186,0,0,0,0,2112,2120,0,3938,3958,2114,2124,2134,3042,3029,3041,3047,2114,2124,2134,0,0,0,0,2130,2116,2097,2096,2096,2096,2120,2208,2216,2137,2118,2099,2132,0,2112,2177,2175,2177,2189,0,0,2112,2098,2132,3952,0,2128,3051,3041,3037,3046,2130,2117,2135,0,0,0,0,0,2130,2097,2096,2096,2096,2096,2096,2120,2232,2222,2237,2112,2100,2134,0,2112,2116,2116,2132,0,0,0,2112,2096,2120,3964,0,2137,2129,2129,2129,2129,2125,2134,0,0,0,0,0,2139,2125,2124,2124,2124,2124,2104,2096,2098,2116,2116,2116,2097,2120,0,0,2112,2096,2096,2120,0,0,0,2136,2108,2134,0,0,0,0,0,0,0,0,0,0,0,0,0,0,0,3051,3041,3041,3041,3053,2112,2096,2096,2096,2096,2096,2096,2120,0,2139,2125,2096,2096,2120,0,0,0,0,2140,0,0,0,0,0,3963,3953,3953,3965,0,0,0,0,0,0,2139,2129,2129,2118,2116,2116,2097,2100,2124,2124,2104,2096,2096,2120,0,0,0,2096,2100,2126,2118,2116,2132,0,0,0,0,2138,0,0,0,0,0,0,0,0,0,0,3954,3956,0,0,0,2136,2104,2096,2096,2120,0,3962,2112,2096,2096,2120,0,0,0,2100,2134,2186,2136,2104,2098,2117,2141,0,2139,2123,0,0,0,0,0,0,2130,2116,2132,0,3960,3930,3956,0,0,0,2112,2096,2100,2134,3954,3946,2112,2096,2096,2120,0,0,0,2120,2179,2175,2189,2112,2100,2134,2226,2212,2228,2128,0,0,2130,2117,2129,2129,2125,2104,2098,2132,0,3960,3930,3940,3956,0,2136,2124,2121,0,3936,3944,2136,2104,2100,2134,0,0,0,2120,2176,2130,2117,2125,2134,0,2232,2200,2216,2137,2133,0,2112,2120,2226,2212,2228,2136,2104,2120,0,0,3960,3948,3930,3940,3956,0,2140,0,3936,3944,0,2136,2134,0,0,0,0,2120,2188,2112,2120,0,0,0,0,2232,2202,2228,2128,0,2136,2121,2232,2220,2202,2228,2136,2106,2132,0,0,0,3936,3920,3944,0,0,3954,3921,3922,3940,3940,3940,3956,0,0,0,2098,2116,2101,2134,0,0,2142,0,2142,2232,2230,2128,0,0,2113,2116,2132,2232,2202,2228,2112,2120,0,0,0,3960,3928,3944,0,3954,3921,3920,3924,3948,3948,3948,3945,0,0,0,2124,2108,2134,0,3954,3940,3940,3956,0,2139,2129,2127,2141,0,2136,2124,2106,2132,2232,2230,2112,2098,2132,0,0,0,3936,3944,0,3936,3924,3948,3958,0,3043,3053,3964,0,0,0,2237,2128,0,3954,3925,3948,3928,3922,3956,0,0,0,0,3962,0,0,2136,2126,2129,2129,2125,2124,2134,0,0,0,3936,3922,3940,3925,3958,0,0,0,3040,3966,0,0,0,3042,2129,2107,2132,3936,3944,0,3936,3920,3944,0,0,0,0,3937,3940,3956,0,0,0,0,0,0,0,0,0,0,3936,3924,3948,3958,0,0,0,3042,3034,0,0,0,3042,3009,2237,2114,2134,3936,3944,0,3960,3948,3958,0,0,0,0,3960,3928,3922,3940,3940,3940,3956,0,0,0,0,0,0,3960,3945,0,0,0,3955,3965,3024,3032,0,0,3042,3009,3008,2117,2135,0,3960,3958,0,0,0,0,0,3042,3044,0,0,3960,3948,3948,3948,3928,3944,0,0,0,0,0,0,0,3961,3953,3953,3953,3959,0,3024,3010,3028,3028,3009,3008,3008,2120,0,0,0,0,0,0,0,3042,3028,3009,3010,3028,3044,0,0,0,0,3960,3945,0,0,0,0,0,0,0,0,0,0,0,0,0,3024,3008,3008,3008,3008,3008,3008,2098,2132,0,0,0,0,0,3051,3037,3036,3036,3036,3036,3038,3041,3053,0,0,0,3952,0,0,0,0,0,0,0,0,0,0,0,0,3042,3009,3008,3008,3008,3008,3008,3008,2096,2098,2132,0,0,0,0,0,0,0,0,0,0,0,0,0,0,0,0,3952,0,0,0,0,0,0,0,0,0,3042,3028,3028,3009,3008,3008,3008,3008,3008,3008,3008,0,0,0,0,0,0,0,0,0,0,0,0,0,0,0,0,0,0,0,0,0,0,0,0,0,0,0,0,0,0,0,0,0,0,0,0,0,0,0,0,0,0,0,0,0,0,0,0,0,0,0,0,0,0,0,0,0,0,0,0,0,0,0,0,0,92,0,0,0,0,0,0,0,0,0,0,0,0,0,0,0,0,0,0,0,0,0,0,0,0,0,0,0,0,0,0,0,0,0,0,0,0,0,0,0,0,0,0,0,0,0,0,0,0,0,0,0,0,0,0,0,0,0,0,0,0,604,0,0,0,0,0,0,0,0,0,0,0,0,0,0,0,0,0,0,89,0,0,0,0,0,0,0,0,0,0,0,0,0,0,0,0,0,0,0,0,612,0,0,0,0,0,0,0,0,0,0,0,0,0,0,0,0,0,0,0,0,0,0,0,0,0,0,0,0,0,0,0,0,0,0,0,0,0,0,0,613,614,0,0,0,0,0,0,0,0,0,0,0,0,0,0,0,0,0,0,0,0,0,0,0,0,0,0,0,0,0,0,0,0,0,0,0,0,0,0,0,0,0,0,0,0,0,0,0,0,0,0,0,0,0,0,0,0,0,0,0,0,0,0,0,0,0,0,0,0,0,0,0,0,0,0,0,0,0,0,0,0,0,0,0,0,0,0,0,0,0,0,0,0,0,0,0,0,0,0,0,0,0,0,0,0,0,0,0,0,0,0,0,0,0,89,0,0,0,0,0,0,0,0,0,0,0,0,0,0,0,0,0,0,0,0,0,0,0,0,0,0,0,0,0,0,0,0,0,0,0,0,0,0,0,0,0,0,89,0,0,0,0,0,0,0,0,0,0,0,0,0,0,0,0,0,0,0,0,0,0,89,0,0,0,0,0,0,0,0,0,0,0,0,0,0,0,0,0,0,0,0,0,0,0,0,0,0,191,0,0,0,0,0,0,0,0,0,0,0,0,0,0,0,0,0,0,0,0,0,0,0,0,0,0,0,0,0,0,0,0,0,0,0,0,0,0,0,0,0,0,0,0,0,0,0,0,0,0,0,0,0,0,0,0,0,0,0,0,0,0,0,0,0,0,0,0,0,0,0,0,0,0,0,0,0,0,0,0,0,0,0,0,0,0,0,0,0,0,0,0,0,0,0,0,0,0,0,0,0,0,0,0,0,0,0,0,0,0,0,0,0,0,0,0,0,0,0,0,0,0,0,0,0,0,0,0,0,0,0,0,0,0,0,0,0,0,0,0,0,0,0,0,0,0,0,0,0,0,0,0,0,0,0,87,0,0,0,0,0,0,0,0,0,0,0,0,0,0,0,0,0,0,0,0,0,0,0,0,0,0,0,0,0,0,0,0,0,0,0,0,0,0,0,90,0,0,0,0,0,0,0,0,0,0,0,0,0,0,0,0,0,0,0,0,0,0,0,0,0,0,0,0,0,0,0,0,0,0,0,0,0,0,0,0,0,0,0,0,0,0,0,0,0,0,0,0,0,0,0,0,0,0,0,0,0,0,0,0,0,0,0,0,0,0,0,0,639,0,0,0,0,0,0,0,0,0,0,0,0,0,0,0,0,0,0,0,0,0,0,0,0,90,0,0,0,0,0,0,0,0,0,0,0,0,0,0,0,0,0,0,0,0,0,0,0,0,0,0,0,0,0,0,0,0,0,0,0,0,0,0,0,0,0,0,0,0,90,0,0,0,0,0,0,0,0,0,0,0,0,0,0,0,0,0,0,0,0,0,0,0,0,0,0,0,0,0,0,0,0,0,0,0,0,0,0,0,0,0,0,0,0,0,0,0,0,0,0,0,0,0,0,0,0,0,0,0,0,0,0,0,0,0,0,0,0,0,0,0,0,0,0,0,0,0,0,0,0,0,0,0,0,0,0,0,0,0,0,0,0,0,0,0,0,0,0,0,0,0,0,0,0,0,0,0,0,0,0,0,0,0,0,0,0,0,0,0,0,0,0,0,0,0,0,0,0,0,0,0,0,0,0,0,0,0,0,0,0,0,0,0,0,0,0,0,0,0,0,0,0,0,0,0,0,0,0,0,0,0,0,0,0,0,0,0,0,0,0,0,0,0,0,0,0,0,0,0,0,0,0,0,0,0,0,0,0,0,0,0,0,0,0,0,0,0,0,0,0,0,0,0,0,0,0,0,0,0,0,0,0,0,0,0,0,0,0,0,0,0,89,0,0,608,0,0,0,0,0,0,0,0,0,0,0,0,0,0,0,0,0,0,0,0,0,0,0,0,0,0,0,0,0,0,0,0,0,0,0,0,0,0,0,0,0,0,0,0,0,0,0,0,0,0,0,0,0,0,0,0,0,0,0,0,0,0,0,0,0,0,0,0,0,0,0,0,0,0,0,0,0,0,0,0,0,0,0,0,0,0,0,0,0,0,0,0,0,0,0,0,0,0,0,0,0,0,0,0,0,0,0,0,0,0,0,0,0,0,0,0,88,0,0,0,0,0,0,0,0,0,0,0,0,0,0,0,0,0,0,0,0,0,0,0,0,0,0,0,0,0,0,0,0,0,0,0,0,0,0,0,0,0,0,0,0,0,0,0,0,0,0,0,0,0,0,0,0,0,0,0,0,0,0,0,0,0,0,0,0,0,0,0,0,0,0,0,0,0,0,0,0,0,0,0,0,0,0,0,0,600,0,0,0,0,0,0,171,98,0,0,0,0,0,0,0,0,0,0,0,0,0,0,0,0,0,0,0,0,0,0,0,0,0,0,0,0,0,88,0,608,0,0,0,0,0,0,0,0,0,0,0,0,0,0,0,0,0,0,0,0,0,0,0,0,0,0,0,0,0,0,0,0,0,0,0,0,0,0,0,0,0,0,0,0,0,0,0,0,0,0,0,0,0,0,0,0,0,0,0,0,0,0,0,0,0,0,0,0,0,0,0,0,0,0,0,0,0,0,0,0,0,0,0,0,0,0,0,0,0,0,0,0,0,0,0,0,0,0,0,0,0,0,0,0,0,0,0,0,0,0,0,0,0,0,0,0,0,0,0,0,0,0,0,0,0,0,0,0,0,0,0,0,0,0,0,0,0,0,0,0,100,97,0,0,0,0,0,0,91,0,0,0,0,0,0,0,0,0,0,0,0,0,0,0,0,0,0,0,0,0,0,0,0,0,0,0,0,0,0,0,0,0,0,0,0,0,0,0,0,0,0,0,0,0,0,0,0,0,0,0,0,0,0,0,0,0,0,0,0,0,0,0,0,0,0,0,0,0,0,0,0,91,0,0,0,0,0,0,87,0,0,0,0,0,0,0,0,0,0,0,0,0,0,0,0,0,0,0,0,0,0,0,0,0,0,0,0,91,0,0,0,0,0,0,0,0,0,0,0,0,0,0,0,0,0,0,0,0,0,0,0,0,0,0,0,0,0,0,0,0,0,97,0,0,0,0,0,0,0,0,0,0,0,0,0,0,0,0,0,0,0,0,0,0,0,0,0,0,0,0,0,0,0,0,0,0,0,0,0,0,0,0,0,0,0,0,0,0,0,0,0,0,0,0,0,0,0,0,0,0,0,0,0,0,0,0,0,0,0,0,0,0,0,0,0,0,0,0,0,0,0,0,0,0,0,0,0,0,0,0,0,0,0,0,0,0,0,0,0,0,0,0,0,0,0,0,0,0,597,598,599,0,0,0,0,0,0,0,0,0,0,0,0,0,0,0,0,584,585,586,587,588,0,0,0,0,0,0,73,0,0,0,0,0,0,0,0,0,605,606,607,0,0,0,0,0,0,0,0,0,0,0,0,0,0,0,0,592,593,594,595,596,0,0,0,0,0,0,0,0,0,0,0,0,0,0,0,0,613,614,615,0,0,0,0,0,0,0,0,0,0,0,0,0,0,0,0,600,601,602,603,597,598,0,0,0,0,560,561,562,0,0,0,0,0,620,621,622,623,0,616,617,618,619,0,0,0,0,0,0,0,0,0,0,0,0,0,608,609,610,611,605,606,0,0,0,0,568,569,570,0,0,0,0,87,628,629,630,631,0,624,625,626,627,0,0,0,0,0,0,0,0,0,0,0,0,0,597,598,620,621,622,623,0,0,0,0,576,577,578,0,0,754,755,0,636,637,638,639,0,632,633,634,635,0,0,0,0,0,0,0,0,0,0,0,0,0,605,606,628,629,630,631,0,0,0,0,0,0,0,0,0,762,763,0,0,0,0,0,0,0,0,0,0,0,0,0,0,0,0,0,0,0,0,0,0,0,613,614,636,637,638,639,0,0,0,0,0,0,0,107,0,0,0,0,0,0,0,0,0,0,0,560,561,562,0,0,0,0,0,0,0,0,0,0,0,620,621,622,623,0,0,0,0,0,0,0,0,0,0,0,0,0,0,530,531,0,0,0,0,0,0,568,569,570,0,0,0,0,0,0,0,0,0,0,0,628,629,630,631,0,0,0,0,0,0,0,0,0,0,0,0,0,0,538,539,0,0,0,0,0,0,576,577,578,0,0,0,73,0,0,597,598,599,0,0,636,637,638,639,0,0,0,0,0,0,0,0,563,564,0,0,0,90,546,547,0,0,0,0,0,0,0,100,0,0,0,0,0,0,0,605,606,607,0,0,89,0,0,0,0,0,0,0,0,0,0,0,571,572,554,0,0,0,0,0,0,0,0,0,0,0,0,0,0,0,0,0,0,0,0,613,614,615,0,0,0,616,617,618,619,0,620,621,622,623,0,0,579,580,0,0,0,0,0,0,0,0,0,0,0,0,0,0,0,0,0,0,0,0,0,0,0,0,0,0,0,624,625,626,627,0,628,629,630,631,554,0,0,0,91,0,0,0,0,0,0,0,0,0,0,0,0,0,530,531,0,0,0,0,0,0,0,0,0,0,0,632,633,634,635,0,636,637,638,639,0,0,90,0,0,0,0,0,191,0,0,0,0,0,0,0,0,0,538,539,0,0,560,561,562,0,0,0,0,620,621,622,623,0,0,0,0,0,0,560,561,562,0,0,0,0,0,0,0,0,0,0,0,0,616,617,618,619,546,547,754,755,568,569,570,0,0,0,0,628,629,630,631,0,0,0,0,0,0,568,569,570,0,0,0,0,0,0,0,191,0,0,0,0,624,625,626,627,0,0,762,763,576,577,578,0,0,0,0,636,637,638,560,561,562,0,0,0,0,576,577,578,0,0,0,0,0,0,0,0,0,0,0,0,632,633,634,635,0,0,0,0,0,0,0,0,0,0,0,0,0,0,568,569,570,0,0,0,0,90,0,0,0,0,0,0,0,0,0,0,0,530,531,0,0,90,0,0,0,0,0,554,555,0,89,0,0,0,0,0,536,537,576,577,578,0,0,0,0,0,0,0,189,0,0,0,0,0,0,0,0,538,539,0,0,0,0,0,90,0,0,0,0,0,0,0,0,0,0,0,544,545,0,87,0,0,0,87,91,0,0,189,0,0,0,0,0,0,0,0,0,546,547,0,88,0,0,0,0,0,0,0,0,0,0,0,0,0,0,0,0,0,560,561,562,0,0,178,0,0,0,0,0,0,0,0,0,584,585,586,587,588,0,0,0,0,0,0,0,0,0,0,0,0,0,0,0,100,0,0,0,0,568,569,570,0,0,0,97,0,0,0,0,0,0,0,0,592,593,594,595,596,0,0,0,0,0,0,0,0,0,0,0,0,0,0,0,0,0,0,0,0,576,577,578,0,0,0,0,0,0,0,0,0,0,0,0,600,601,602,603,604,0,0,0,0,0,0,0,0,0,0,0,0,0,0,0,0,0,0,0,0,0,0,92,0,0,0,90,0,0,89,0,0,554,555,563,564,609,610,611,612,0,0,0,0,0,0,0,0,191,0,0,0,0,560,561,562,0,0,0,0,0,0,100,0,190,0,179,0,0,0,560,561,562,0,571,572,0,0,0,0,0,0,0,0,0,0,0,0,0,0,0,0,0,568,569,570,0,0,0,0,0,0,0,0,0,0,0,0,0,0,568,569,570,0,579,580,0,0,0,0,0,0,0,0,0,0,0,0,0,0,0,191,0,576,577,578,0,0,0,0,0,0,0,0,0,0,0,0,88,0,576,577,578,0,0,0,0,0,0,0,554,584,585,586,587,588,0,0,0,0,0,0,0,0,0,92,0,0,0,0,0,0,0,0,0,0,0,0,171,0,0,0,0,0,0,0,0,0,88,0,0,592,593,594,595,596,0,0,0,0,0,0,0,0,178,0,0,0,0,0,616,617,618,619,0,0,0,0,0,0,0,0,0,0,0,0,0,0,620,621,622,623,601,602,603,604,0,0,620,621,622,623,0,89,0,554,555,0,0,0,624,625,626,627,0,0,0,0,0,0,0,0,0,0,0,0,0,0,628,629,630,631,609,610,611,612,178,0,628,629,630,631,0,0,0,0,0,0,0,0,632,633,634,635,0,0,0,0,0,0,0,0,0,0,0,0,0,0,636,637,638,639,0,0,0,0,0,0,636,637,638,639,0,0,0,0,0,0,0,0,584,585,586,587,588,0,0,0,0,597,598,0,0,0,0,0,0,0,191,0,0,0,88,88,0,0,0,98,0,0,0,0,0,0,178,0,0,0,0,0,592,593,594,595,596,0,0,0,0,605,606,0,91,0,0,0,0,0,0,0,0,88,530,531,0,0,0,0,0,0,0,0,0,0,0,0,0,0,0,0,600,601,602,603,604,0,0,0,0,613,614,91,91,0,0,0,552,553,0,0,0,0,538,539,0,98,100,0,0,0,0,0,0,87,616,617,618,0,563,564,608,609,610,611,612,97,0,0,0,0,0,91,0,0,0,0,563,564,91,178,0,0,546,547,0,0,542,543,0,540,541,0,0,0,624,625,626,0,571,572,0,0,0,616,617,618,619,0,0,563,564,0,178,0,0,0,571,572,0,0,0,91,0,0,0,0,550,551,0,548,549,565,566,567,632,633,634,0,579,580,0,0,90,624,625,626,627,0,0,571,572,0,0,0,0,0,579,580,0,0,0,584,585,586,587,588,558,559,97,556,557,573,574,575,616,617,618,0,0,0,0,97,0,632,633,634,635,0,0,579,580,0,0,73,0,0,0,0,0,0,0,592,593,594,595,596,87,0,0,0,0,581,582,583,624,625,626,0,0,0,0,0,0,0,0,0,0,0,0,0,0,0,0,0,0,0,0,620,621,622,623,600,601,602,603,604,0,0,97,565,566,567,179,0,632,633,634,0,0,0,0,0,0,0,0,0,0,0,0,0,0,0,0,0,0,0,0,0,0,0,0,0,0,0,0,0,0,0,0,0,0,0,0,0,0,0,0,0,0,0,0,0,0,0,0,0,0,0,0,0,0,0,0,0,0,0,0,0,0,0,0,0,0,0,0,0,0,0,0,0,0,0,0,0,0,0,0,0,0,0,0,0,0,0,0,0,0,0,0,0,0,0,0,0,0,0,0,0,0,0,0,0,0,0,0,0,0,0,0,0,0,0,0,0,0,0,0,0,0,0,0,0,0,0,0,0,0,0,0,0,0,0,0,0,0,0,0,0,0,0,0,0,0,0,0,0,0,0,0,0,0,0,0,0,0,0,0,0,0,0,0,0,0,0,0,0,0,0,0,0,0,0,0,0,0,0,0,0,0,0,0,0,0,0,0,0,0,0,0,0,0,0,0,0,0,0,0,0,0,0,0,0,0,0,0,0,0,0,0,0,0,0,0,0,0,0,0,0,0,0,0,0,0,0,0,0,0,0,0,0,0,0,0,0,0,0,0,0,0,0,0,0,0,0,0,0,0,0,0,0,0,0,0,0,0,0,0,0,0,0,0,0,0,0,0,0,0,0,0,0,0,0,0,0,0,0,0,0,0,0,0,0,0,0,0,0,0,0,0,0,0,0,0,0,0,0,0,0,0,0,0,0,0,0,0,0,0,0,0,0,0,0,0,0,0,0,0,0,0,0,0,0,0,0,0,0,0,0,0,0,0,0,0,0,0,0,0,0,0,0,0,0,0,0,0,0,0,0,0,0,0,0,0,0,0,0,0,0,0,0,0,0,0,0,0,0,0,0,0,0,0,0,0,0,0,0,0,0,0,0,0,0,0,0,0,0,0,0,0,0,0,0,0,0,0,0,0,0,0,0,0,0,0,0,0,0,0,0,0,0,0,0,0,0,0,0,0,0,0,0,0,0,0,0,0,0,0,0,0,0,0,0,0,0,0,0,0,0,0,0,0,0,0,0,0,0,0,0,0,0,0,0,0,0,0,0,0,0,0,0,0,0,0,0,0,0,0,0,0,0,0,0,0,0,0,0,0,0,0,0,0,0,0,0,0,0,0,0,0,0,0,0,0,0,0,0,0,0,0,0,0,0,0,0,0,0,0,0,0,0,0,0,0,0,0,0,0,0,0,0,0,0,0,0,0,0,0,0,0,0,0,0,0,0,0,0,0,0,0,0,0,0,0,0,0,0,0,0,0,0,0,0,0,0,0,0,0,0,0,0,0,0,0,0,0,0,0,0,0,0,0,0,0,0,0,0,0,0,0,0,0,0,0,0,0,0,0,0,0,0,0,0,0,0,0,0,0,0,0,0,0,0,0,0,0,0,0,0,0,0,0,0,0,0,0,0,0,0,0,0,0,0,0,0,0,0,0,0,0,0,0,0,0,0,0,0,0,0,0,0,0,0,0,0,0,0,0,0,0,0,0,0,0,0,0,0,0,0,0,0,0,0,0,0,0,0,0,0,0,0,0,0,0,0,0,0,0,0,0,0,0,0,0,0,0,0,0,0,0,0,0,0,0,0,0,0,0,0,0,0,0,0,0,0,0,0,0,0,0,0,0,0,0,0,0,0,0,0,0,0,0,0,0,0,0,0,0,0,0,0,0,0,0,0,0,0,0,0,0,0,0,0,0,0,0,0,0,0,0,0,0,0,0,0,0,0,0,0,0,0,0,0,0,0,0,0,0,0,0,0,0,0,0,0,0,0,0,0,0,0,0,0,0,0,0,0,0,0,0,0,0,0,0,0,0,0,0,0,0,0,0,0,0,0,0,0,0,0,0,0,0,0,0,0,0,0,0,0,0,0,0,0,0,0,0,0,0,0,0,0,0,0,0,0,0,0,0,0,0,0,0,0,0,0,0,0,0,0,0,0,0,0,0,0,0,0,0,0,0,0,0,0,0,0,0,0,0,0,0,0,0,0,0,0,0,0,0,0,0,0,0,0,0,0,0,0,0,0,0,0,0,0,0,0,0,0,0,0,0,0,0,0,0,0,0,0,0,0,0,0,0,0,0,0,0,0,0,0,0,0,0,0,0,0,0,0,0,0,0,0,0,0,0,0,0,0,0,0,0,0,0,0,0,0,0,0,0,0,0,0,0,0,0,0,0,0,0,0,0,0,0,0,0,0,0,0,0,0,0,0,0,0,0,0,0,0,0,0,0,0,0,0,0,0,0,0,0,0,0,0,0,0,0,0,0,0,0,0,0,0,0,0,0,0,0,0,0,0,0,0,0,0,0,0,0,0,0,0,0,0,0,0,0,0,0,0,0,0,0,0,0,0,0,0,0,0,0,0,0,0,0,0,0,0,0,0,0,0,0,0,0,0,0,0,0,0,0,0,0,0,0,0,0,0,0,0,0,0,0,0,0,0,0,0,0,0,0,0,0,0,0,0,0,0,0,0,0,0,0,0,0,0,0,0,0,0,0,0,0,0,0,0,0,0,0,0,0,0,0,0,0,0,0,0,0,0,0,0,0,0,0,0,0,0,0,0,0,0,0,0,0,0,0,0,0,0,0,0,0,0,0,0,0,0,0,0,0,0,0,0,0,0,0,0,0,0,0,0,0,0,0,0,0,0,0,0,0,0,0,0,0,0,0,0,0,0,0,0,0,0,0,0,0,0,0,0,0,0,0,0,0,0,0,0,0,0,0,0,0,0,0,0,0,0,0,0,0,0,0,0,0,0,0,0,0,0,0,0,0,0,0,0,0,0,0,0,0,0,0,0,0,0,0,0,0,0,0,0,0,0,0,0,0,0,0,0,0,0,0,0,0,0,0,0,0,0,0,0,0,0,0,0,0,0,0,0,0,0,0,0,0,0,0,0,0,0,0,0,0,0,0,0,0,0,0,0,0,0,0,0,0,0,0,0,0,0,0,0,0,0,0,0,0,0,0,0,0,0,0,0,0,0,0,0,0,0,0,0,0,0,0,0,0,0,0,0,0,0,0,0,0,0,0,0,0,0,0,0,0,0,0,0,0,0,0,0,0,0,0,0,0,0,0,0,0,0,0,0,0,0,0,0,0,0,0,0,0,0,0,0,0,0,0,0,0,0,0,0,0,0,0,0,0,0,0,0,0,0,0,0,0,0,0,0,0,0,0,0,0,0,0,0,0,0,0,0,0,0,0,0,0,0,0,0,0,0,0,0,0,0,0,0,0,0,0,0,0,0,0,0,0,0,0,0,0,0,0,0,0,0,0,0,0,0,0,0,0,0,0,0,0,0,0,0,0,0,0,0,0,0,0,0,0,0,0,0,0,0,0,0,0,0,0,0,0,0,0,0,0,0,0,0,0,0,0,0,0,0,0,0,0,0,0,0,0,0,0,0,0,0,0,0,0,0,0,0,0,0,0,0,0,0,0,0,0,0,0,0,0,0,0,0,0,0,0,0,0,0,0,0,0,0,0,0,0,0,0,0,0,0,0,0,0,0,0,0,0,0,0,0,0,0,0,0,0,0,0,0,0,0,0,0,0,0,0,0,0,0,0,0,0,0,0,0,0,0,0,0,0,0,0,0,0,0,0,0,0,0,0,0,0,0,0,0,0,0,0,0,0,0,0,0,0,0,0,0,0,0,0,0,0,0,0,0,0,0,0,0,0,0,0,0,0,0,0,0,0,0,0,0,0,0,0,0,0,0,0,0,0,0,0,0,0,0,0,0,0,0,0,0,0,0,0,0,0,0,0,0,0,0,0,0,0,0,0,0,0,0,0,0,0,0,0,0,0,0,0,0,0,0,0,0,0,0,0,0,0,0,0,0,0,0,0,0,0,0,0,0,0,0,0,0,0,0,0,0,0,0,0,0,0,0,0,0,0,0,0,0,0,0,0,0,0,0,0,0,0,0,0,0,0,0,0,0,0,0,0,0,0,0,0,0,0,0,0,0,0,0,0,0,0,0,0,0,0,0,0,0,0,0,0,0,0,0,0,0,0,0,0,0,0,0,0,0,0,0,0,0,0,0,0,0,0,0,0,0,0,0,0,0,0,0,0,0,0,0,0,0,0,0,0,0,0,0,0,0,0,0,0,0,0,0,0,0,0,0,0,0,0,0,0,0,0,0,0,0,0,0,0,0,0,0,0,0,0,0,0,0,0,0,0,0,0,0,0,0,0,0,0,0,0,0,0,0,0,0,0,0,0,0,0,0,0,0,0,0,0,0,0,0,0,0,0,0,0,0,0,0,0,0,0,0,0,0,0,0,0,0,0,0,0,0,0,0,0,0,0,0,0,0,0,0,0,0,0,0,0,0,0,0,0,0,0,0,0,0,0,0,0,0,0,0,0,0,0,0,0,0,0,0,0,0,0,0,0,0,0,0,0,0,0,0,0,0,0,0,0,0,0,0,0,0,0,0,0,0,0,0,0,0,0,0,0,0,0,0,0,0,0,0,0,0,0,0,0,0,0,0,0,0,0,0,0,0,0,0,0,0,0,0,0,0,0,0,0,0,0,0,0,0,0,0,0,0,0,0,0,0,0,0,0,0,0,0,0,0,0,0,0,0,0,0,0,0,0,0,0,0,0,0,0,0,0,0,0,0,0,0,0,0,0,0,0,0,0,0,0,0,0,0,0,0,0,0,0,0,0,0,0,0,0,0,0,0,0,0,0,0,0,0,0,0,0,0,0,0,0,0,0,0,0,0,0,0,0,0,0,0,0,0,0,0,0,0,0,0,0,0,0,0,0,0,0,0,0,0,0,0,0,0,0,0,0,0,0,0,0,0,0,0,0,0,0,0,0,0,0,0,0,0,0,0,0,0,0,0,0,0,0,0,0,0,0,0,0,0,0,0,0,0,0,0,0,0,0,0,0,0,0,0,0,0,0,0,0,0,0,0,0,0,0,0,0,0,0,0,0,0,0,0,0,0,0,0,0,0,0,0,0,0,0,0,0,0,0,0,0,0,0,0,0,0,0,0,0,0,0,0,0,0,0,0,0,0,0,0,0,0,0,0,0,0,0,0,0,0,0,0,0,0,0,0,0,0,0,0,0,0,0,0,0,0,0,0,0,0,0,0,0,0,0,0,0,0,0,0,0,0,0,0,0,0,0,0,0,0,0,0,0,0,0,0,0,0,0,0,0,0,0,0,0,0,0,0,0,0,0,0,0,0,0,0,0,0,0,0,0,0,0,0,0,0,0,0,0,0,0,0,0,0,0,0,0,0,0,0,0,0,0,0,0,0,0,0,0,0,0,0,0,0,0,0,0,0,0,0,0,0,0,0,0,0,0,0,0,0,0,0,0,0,0,0,0,0,0,0,0,0,0,0,0,0,0,0,0,0,0,0,0,0,0,0,0,0,0,0,0,0,0,0,0,0,0,0,0,0,0,0,0,0,0,0,0,0,0,0,0,0,0,0,0,0,0,0,0,0,0,0,0,0,0,0,0,0,0,0,0,0,0,0,0,0,0,0,0,0,0,0,0,0,0,0,0,0,0,0,0,0,0,0,0,0,0,0,0,0,0,0,0,0,0,0,0,0,0,0,0,0,0,0,0,0,0,0,0,0,0,0,0,0,0,0,0,0,0,0,0,0,0,0,0,0,0,0,0,0,0,0,0,0,0,0,0,0,0,0,0,0,0,0,0,0,0,0,0,0,0,0,0,0,0,0,0,0,0,0,0,0,0,0,0,0,0,0,0,0,0,0,0,0,0,0,0,0,0,0,0,0,0,0,0,0,0,0,0,0,0,0,0,0,0,0,0,0,0,0,0,0,0,0,0,0,0,0,0,0,0,0,0,0,0,0,0,0,0,0,0,0,0,0,0,0,0,0,0,0,0,0,0,0,0,0,0,0,0,0,0,0,0,0,0,0,0,0,0,0,0,0,0,0,0,0,0,0,0,0,0,0,0,0,0,0,0,0,0,0,0,0,0,0,0,0,0,0,0,0,0,0,0,0,0,0,0,0,0,0,0,0,0,0,0,0,0,0,0,0,0,0,0,0,0,0,0,0,0,0,0,0,0,0,0,0,0,0,0,0,0,0,0,0,0,0,0,0,0,0,0,0,0,0,0,0,0,0,0,0,0,0,0,0,0,0,0,0,0,0,0,0,0,0,0,0,0,0,0,0,0,0,0,0,0,0,0,0,0,0,0,0,0,0,0,0,0,0,0,0,0,0,0,0,0,0,0,0,0,0,0,0,0,0,0,0,0,0,0,0,0,0,0,0,0,0,0,0,0,0,0,0,0,0,0,0,0,0,0,0,0,0,0,0,0,0,0,0,0,0,0,0,0,0,0,0,0,0,0,0,0,0,0,0,0,0,0,0,0,0,0,0,0,0,0,0,0,0,0,0,0,0,0,0,0,0,0,0,0,0,0,0,0,0,0,0,0,0,0,0,0,0,0,0,0,0,0,0,0,0,0,0,0,0,0,0,0,0,0,0,0,0,0,0,0,0,0,0,0,0,0,0,0,0,0,0,0,0,0,0,0,0,0,0,0,0,0,0,0,0,0,0,0,0,0,0,0,0,0,0,0,0,0,0,0,0,0,0,0,0,0,0,0,0,0,0,0,0,0,0,0,0,0,0,0,0,0,0,0,0,0,0,0,0,0,0,0,0,0,0,0,0,0,0,0,0,0,0,0,0,0,0,0,0,0,0,0,0,0,0,0,0,0,0,0,0,0,0,0,0,0,0,0,0,0,0,0,0,0,0,0,0,0,0,0,0,0,0,0,0,0,0,0,0,0,0,0,0,0,0,0,0,0,0,0,0,0,0,0,0,0,0,0,0,0,0,0,0,0,0,0,0,0,0,0,0,0,0,0,0,0,0,0,0,0,0,0,0,0,0,0,0,0,0,0,0,0,0,0,0,0,0,0,0,0,0,0,0,0,0,0,0,0,0,0,0,0,0,0,0,0,0,0,0,0,0,0,0,0,0,0,0,0,0,0,0,0,0,0,0,0,0,0,0,0,0,0,0,0,0,0,0,0,0,0,0,0,0,0,0,0,0,0,0,0,0,0,0,0,0,0,0,0,0,0,0,0,0,0,0,0,0,0,0,0,0,0,0,0,0,0,0,0,0,0,0,0,0,0,0,0,0,0,0,0,0,0,0,0,0,0,0,0,0,0,0,0,0,0,0,0,0,0,0,0,0,0,0,0,0,0,0,0,0,0,0,0,0,0,0,0,0,0,0,0,0,0,0,0,0,0],
"events":[
null,
{"id":1,"name":"EV001","note":"","pages":[{"conditions":{"actorId":1,"actorValid":false,"itemId":1,"itemValid":false,"selfSwitchCh":"A","selfSwitchValid":false,"switch1Id":1,"switch1Valid":false,"switch2Id":1,"switch2Valid":false,"variableId":1,"variableValid":false,"variableValue":0},"directionFix":false,"image":{"characterIndex":0,"characterName":"","direction":2,"pattern":0,"tileId":0},"list":[{"code":101,"indent":0,"parameters":["",0,0,2]},{"code":401,"indent":0,"parameters":["-- Sede dos \\v[3] -- <br>"]},{"code":401,"indent":0,"parameters":["Ponte em reforma"]},{"code":0,"indent":0,"parameters":[]}],"moveFrequency":3,"moveRoute":{"list":[{"code":0,"parameters":[]}],"repeat":true,"skippable":false,"wait":false},"moveSpeed":3,"moveType":0,"priorityType":1,"stepAnime":false,"through":false,"trigger":0,"walkAnime":true},{"conditions":{"actorId":1,"actorValid":false,"itemId":1,"itemValid":false,"selfSwitchCh":"A","selfSwitchValid":false,"switch1Id":17,"switch1Valid":true,"switch2Id":1,"switch2Valid":false,"variableId":1,"variableValid":false,"variableValue":0},"directionFix":false,"image":{"characterIndex":0,"characterName":"","direction":2,"pattern":0,"tileId":0},"list":[{"code":101,"indent":0,"parameters":["",0,0,2]},{"code":401,"indent":0,"parameters":["-- Sede dos \\v[3] -- <br>"]},{"code":0,"indent":0,"parameters":[]}],"moveFrequency":3,"moveRoute":{"list":[{"code":0,"parameters":[]}],"repeat":true,"skippable":false,"wait":false},"moveSpeed":3,"moveType":0,"priorityType":1,"stepAnime":false,"through":false,"trigger":0,"walkAnime":true}],"x":33,"y":9},
{"id":2,"name":"EV002","note":"","pages":[{"conditions":{"actorId":1,"actorValid":false,"itemId":1,"itemValid":false,"selfSwitchCh":"A","selfSwitchValid":false,"switch1Id":1,"switch1Valid":false,"switch2Id":1,"switch2Valid":false,"variableId":1,"variableValid":false,"variableValue":0},"directionFix":false,"image":{"characterIndex":0,"characterName":"","direction":2,"pattern":0,"tileId":0},"list":[{"code":201,"indent":0,"parameters":[0,2,21,59,0,0]},{"code":0,"indent":0,"parameters":[]}],"moveFrequency":3,"moveRoute":{"list":[{"code":0,"parameters":[]}],"repeat":true,"skippable":false,"wait":false},"moveSpeed":3,"moveType":0,"priorityType":0,"stepAnime":false,"through":false,"trigger":1,"walkAnime":true}],"x":14,"y":0},
{"id":3,"name":"EV003","note":"","pages":[{"conditions":{"actorId":1,"actorValid":false,"itemId":1,"itemValid":false,"selfSwitchCh":"A","selfSwitchValid":false,"switch1Id":1,"switch1Valid":false,"switch2Id":1,"switch2Valid":false,"variableId":1,"variableValid":false,"variableValue":0},"directionFix":false,"image":{"characterIndex":0,"characterName":"","direction":2,"pattern":0,"tileId":0},"list":[{"code":201,"indent":0,"parameters":[0,2,21,59,0,0]},{"code":0,"indent":0,"parameters":[]}],"moveFrequency":3,"moveRoute":{"list":[{"code":0,"parameters":[]}],"repeat":true,"skippable":false,"wait":false},"moveSpeed":3,"moveType":0,"priorityType":0,"stepAnime":false,"through":false,"trigger":1,"walkAnime":true}],"x":15,"y":0},
{"id":4,"name":"EV004","note":"","pages":[{"conditions":{"actorId":1,"actorValid":false,"itemId":1,"itemValid":false,"selfSwitchCh":"A","selfSwitchValid":false,"switch1Id":1,"switch1Valid":false,"switch2Id":1,"switch2Valid":false,"variableId":1,"variableValid":false,"variableValue":0},"directionFix":false,"image":{"characterIndex":0,"characterName":"","direction":2,"pattern":0,"tileId":0},"list":[{"code":101,"indent":0,"parameters":["",0,0,2]},{"code":401,"indent":0,"parameters":["-- \\v[1] --"]},{"code":0,"indent":0,"parameters":[]}],"moveFrequency":3,"moveRoute":{"list":[{"code":0,"parameters":[]}],"repeat":true,"skippable":false,"wait":false},"moveSpeed":3,"moveType":0,"priorityType":1,"stepAnime":false,"through":false,"trigger":0,"walkAnime":true}],"x":13,"y":1},
{"id":5,"name":"EV005","note":"","pages":[{"conditions":{"actorId":8,"actorValid":false,"itemId":1,"itemValid":false,"selfSwitchCh":"A","selfSwitchValid":false,"switch1Id":355,"switch1Valid":true,"switch2Id":1,"switch2Valid":false,"variableId":1,"variableValid":false,"variableValue":0},"directionFix":false,"image":{"tileId":0,"characterName":"Vilões Secundários5","direction":2,"pattern":1,"characterIndex":4},"list":[{"code":101,"indent":0,"parameters":["Vilões Secundários4",4,0,2]},{"code":401,"indent":0,"parameters":["\\n<Caloura de Química>Hahah\\., vocês vieram atrás da estátua do CAENG?"]},{"code":111,"indent":0,"parameters":[4,9,0]},{"code":101,"indent":1,"parameters":["Vilões Secundários4",4,0,2]},{"code":401,"indent":1,"parameters":["Pff\\., vocês são frouxos. "]},{"code":101,"indent":1,"parameters":["Hulk",3,0,2]},{"code":401,"indent":1,"parameters":["IH AH LÁ\\., VAI DEIXAR?!?!?"]},{"code":301,"indent":1,"parameters":[0,78,false,false]},{"code":122,"indent":1,"parameters":[180,180,0,0,1]},{"code":0,"indent":1,"parameters":[]},{"code":411,"indent":0,"parameters":[]},{"code":101,"indent":1,"parameters":["Vilões Secundários4",4,0,2]},{"code":401,"indent":1,"parameters":["Vocês não tem a menor condição de enfrentar a gente.\\. Sai daqui\\., vai\\., volta quando você for menos frouxo."]},{"code":0,"indent":1,"parameters":[]},{"code":412,"indent":0,"parameters":[]},{"code":0,"indent":0,"parameters":[]}],"moveFrequency":3,"moveRoute":{"list":[{"code":0,"parameters":[]}],"repeat":true,"skippable":false,"wait":false},"moveSpeed":3,"moveType":0,"priorityType":1,"stepAnime":false,"through":false,"trigger":0,"walkAnime":true},{"conditions":{"actorId":1,"actorValid":false,"itemId":1,"itemValid":false,"selfSwitchCh":"A","selfSwitchValid":false,"switch1Id":1,"switch1Valid":false,"switch2Id":1,"switch2Valid":false,"variableId":180,"variableValid":true,"variableValue":1},"directionFix":false,"image":{"characterIndex":0,"characterName":"","direction":2,"pattern":0,"tileId":0},"list":[{"code":230,"indent":0,"parameters":[30]},{"code":101,"indent":0,"parameters":["Bon Jovi_Faces",0,0,2]},{"code":401,"indent":0,"parameters":["Toma no cu essas porras\\., roubando nossa estátua.\\. Bora levar de volta."]},{"code":123,"indent":0,"parameters":["A",0]},{"code":356,"indent":0,"parameters":["Quest NextStep 47"]},{"code":356,"indent":0,"parameters":["GabText Missão atualizada: Cadilac Dinossauro"]},{"code":356,"indent":0,"parameters":["ShowGab"]},{"code":0,"indent":0,"parameters":[]}],"moveFrequency":3,"moveRoute":{"list":[{"code":0,"parameters":[]}],"repeat":true,"skippable":false,"wait":false},"moveSpeed":3,"moveType":0,"priorityType":0,"stepAnime":false,"through":false,"trigger":3,"walkAnime":true},{"conditions":{"actorId":1,"actorValid":false,"itemId":1,"itemValid":false,"selfSwitchCh":"A","selfSwitchValid":true,"switch1Id":1,"switch1Valid":false,"switch2Id":1,"switch2Valid":false,"variableId":1,"variableValid":false,"variableValue":0},"directionFix":false,"image":{"characterIndex":0,"characterName":"","direction":2,"pattern":0,"tileId":0},"list":[{"code":0,"indent":0,"parameters":[]}],"moveFrequency":3,"moveRoute":{"list":[{"code":0,"parameters":[]}],"repeat":true,"skippable":false,"wait":false},"moveSpeed":3,"moveType":0,"priorityType":0,"stepAnime":false,"through":false,"trigger":0,"walkAnime":true}],"x":3,"y":17},
{"id":6,"name":"SetTextVariables","note":"","pages":[{"conditions":{"actorId":1,"actorValid":false,"itemId":1,"itemValid":false,"selfSwitchCh":"A","selfSwitchValid":false,"switch1Id":1,"switch1Valid":false,"switch2Id":1,"switch2Valid":false,"variableId":3,"variableValid":false,"variableValue":0},"directionFix":false,"image":{"characterIndex":0,"characterName":"","direction":2,"pattern":0,"tileId":0},"list":[{"code":122,"indent":0,"parameters":[1,1,0,4,"\"Castelo de Tecnologia\""]},{"code":122,"indent":0,"parameters":[2,2,0,4,"\"Ilha do Fundão\""]},{"code":122,"indent":0,"parameters":[3,3,0,4,"\"Guerreiros Exemplares\""]},{"code":121,"indent":0,"parameters":[101,101,0]},{"code":122,"indent":0,"parameters":[8,8,0,0,0]},{"code":122,"indent":0,"parameters":[9,9,0,0,0]},{"code":129,"indent":0,"parameters":[1,0,false]},{"code":111,"indent":0,"parameters":[0,578,0]},{"code":316,"indent":1,"parameters":[0,1,0,0,29,false]},{"code":356,"indent":1,"parameters":["gainJp 1 19000"]},{"code":0,"indent":1,"parameters":[]},{"code":412,"indent":0,"parameters":[]},{"code":223,"indent":0,"parameters":[[0,0,0,0],180,true]},{"code":230,"indent":0,"parameters":[90]},{"code":101,"indent":0,"parameters":["Magali_Faces",1,0,2]},{"code":401,"indent":0,"parameters":[" \\n<\\N[1]> Vejamos o que teremos de bom hoje..."]},{"code":356,"indent":0,"parameters":["Quest Add 2"]},{"code":356,"indent":0,"parameters":["GabText Missão adicionada: Qual a boa hoje?"]},{"code":356,"indent":0,"parameters":["ShowGab"]},{"code":126,"indent":0,"parameters":[20,0,0,3]},{"code":126,"indent":0,"parameters":[21,0,0,3]},{"code":123,"indent":0,"parameters":["A",0]},{"code":0,"indent":0,"parameters":[]}],"moveFrequency":3,"moveRoute":{"list":[{"code":0,"parameters":[]}],"repeat":true,"skippable":false,"wait":false},"moveSpeed":3,"moveType":0,"priorityType":0,"stepAnime":false,"through":false,"trigger":3,"walkAnime":true},{"conditions":{"actorId":1,"actorValid":false,"itemId":1,"itemValid":false,"selfSwitchCh":"A","selfSwitchValid":true,"switch1Id":1,"switch1Valid":false,"switch2Id":1,"switch2Valid":false,"variableId":1,"variableValid":false,"variableValue":0},"directionFix":false,"image":{"characterIndex":0,"characterName":"","direction":2,"pattern":0,"tileId":0},"list":[{"code":0,"indent":0,"parameters":[]}],"moveFrequency":3,"moveRoute":{"list":[{"code":0,"parameters":[]}],"repeat":true,"skippable":false,"wait":false},"moveSpeed":3,"moveType":0,"priorityType":0,"stepAnime":false,"through":false,"trigger":0,"walkAnime":true},{"conditions":{"actorId":1,"actorValid":false,"itemId":1,"itemValid":false,"selfSwitchCh":"A","selfSwitchValid":false,"switch1Id":17,"switch1Valid":true,"switch2Id":1,"switch2Valid":false,"variableId":1,"variableValid":false,"variableValue":0},"directionFix":false,"image":{"characterIndex":0,"characterName":"","direction":2,"pattern":0,"tileId":0},"list":[{"code":356,"indent":0,"parameters":["Quest Complete 2"]},{"code":356,"indent":0,"parameters":["GabText Missão completada: Começando o dia"]},{"code":356,"indent":0,"parameters":["ShowGab"]},{"code":117,"indent":0,"parameters":[398]},{"code":250,"indent":0,"parameters":[{"name":"Glorious","volume":45,"pitch":100,"pan":0}]},{"code":230,"indent":0,"parameters":[60]},{"code":356,"indent":0,"parameters":["GabText Missão adicionada: Dedetização"]},{"code":356,"indent":0,"parameters":["Quest Add 3"]},{"code":123,"indent":0,"parameters":["B",0]},{"code":0,"indent":0,"parameters":[]}],"moveFrequency":3,"moveRoute":{"list":[{"code":0,"parameters":[]}],"repeat":true,"skippable":false,"wait":false},"moveSpeed":3,"moveType":0,"priorityType":0,"stepAnime":false,"through":false,"trigger":3,"walkAnime":true},{"conditions":{"actorId":1,"actorValid":false,"itemId":1,"itemValid":false,"selfSwitchCh":"B","selfSwitchValid":true,"switch1Id":1,"switch1Valid":false,"switch2Id":1,"switch2Valid":false,"variableId":1,"variableValid":false,"variableValue":0},"directionFix":false,"image":{"characterIndex":0,"characterName":"","direction":2,"pattern":0,"tileId":0},"list":[{"code":0,"indent":0,"parameters":[]}],"moveFrequency":3,"moveRoute":{"list":[{"code":0,"parameters":[]}],"repeat":true,"skippable":false,"wait":false},"moveSpeed":3,"moveType":0,"priorityType":0,"stepAnime":false,"through":false,"trigger":0,"walkAnime":true}],"x":0,"y":0},
{"id":7,"name":"Save","note":"","pages":[{"conditions":{"actorId":1,"actorValid":false,"itemId":1,"itemValid":false,"selfSwitchCh":"A","selfSwitchValid":false,"switch1Id":1,"switch1Valid":false,"switch2Id":1,"switch2Valid":false,"variableId":1,"variableValid":false,"variableValue":0},"directionFix":true,"image":{"tileId":0,"characterName":"!Crystal","direction":2,"pattern":1,"characterIndex":3},"list":[{"code":352,"indent":0,"parameters":[]},{"code":0,"indent":0,"parameters":[]}],"moveFrequency":3,"moveRoute":{"list":[{"code":0,"parameters":[]}],"repeat":true,"skippable":false,"wait":false},"moveSpeed":3,"moveType":0,"priorityType":1,"stepAnime":true,"through":false,"trigger":0,"walkAnime":false}],"x":19,"y":38},
{"id":8,"name":"EV008","note":"","pages":[{"conditions":{"actorId":1,"actorValid":false,"itemId":1,"itemValid":false,"selfSwitchCh":"A","selfSwitchValid":false,"switch1Id":1,"switch1Valid":false,"switch2Id":1,"switch2Valid":false,"variableId":1,"variableValid":false,"variableValue":0},"directionFix":false,"image":{"characterIndex":0,"characterName":"","direction":2,"pattern":0,"tileId":0},"list":[{"code":101,"indent":0,"parameters":["",0,0,2]},{"code":401,"indent":0,"parameters":["-- Hospital Universitário --<br>"]},{"code":401,"indent":0,"parameters":[" -- Saída da \\v[2] --"]},{"code":0,"indent":0,"parameters":[]}],"moveFrequency":3,"moveRoute":{"list":[{"code":0,"parameters":[]}],"repeat":true,"skippable":false,"wait":false},"moveSpeed":3,"moveType":0,"priorityType":1,"stepAnime":false,"through":false,"trigger":0,"walkAnime":true}],"x":16,"y":38},
{"id":9,"name":"EV009","note":"","pages":[{"conditions":{"actorId":1,"actorValid":false,"itemId":1,"itemValid":false,"selfSwitchCh":"A","selfSwitchValid":false,"switch1Id":1,"switch1Valid":false,"switch2Id":1,"switch2Valid":false,"variableId":1,"variableValid":false,"variableValue":0},"directionFix":false,"image":{"characterIndex":0,"characterName":"","direction":2,"pattern":0,"tileId":0},"list":[{"code":101,"indent":0,"parameters":["Magali_Faces",4,0,2]},{"code":401,"indent":0,"parameters":["Infelizmente, eu não posso ir embora ainda..."]},{"code":0,"indent":0,"parameters":[]}],"moveFrequency":3,"moveRoute":{"list":[{"code":0,"parameters":[]}],"repeat":true,"skippable":false,"wait":false},"moveSpeed":3,"moveType":0,"priorityType":0,"stepAnime":false,"through":false,"trigger":1,"walkAnime":true},{"conditions":{"actorId":1,"actorValid":false,"itemId":1,"itemValid":false,"selfSwitchCh":"A","selfSwitchValid":false,"switch1Id":1,"switch1Valid":false,"switch2Id":1,"switch2Valid":false,"variableId":51,"variableValid":true,"variableValue":1},"directionFix":false,"image":{"characterIndex":0,"characterName":"","direction":2,"pattern":0,"tileId":0},"list":[{"code":201,"indent":0,"parameters":[0,6,2,0,0,0]},{"code":0,"indent":0,"parameters":[]}],"moveFrequency":3,"moveRoute":{"list":[{"code":0,"parameters":[]}],"repeat":true,"skippable":false,"wait":false},"moveSpeed":3,"moveType":0,"priorityType":0,"stepAnime":false,"through":false,"trigger":1,"walkAnime":true}],"x":18,"y":39},
{"id":10,"name":"EV010","note":"","pages":[{"conditions":{"actorId":1,"actorValid":false,"itemId":1,"itemValid":false,"selfSwitchCh":"A","selfSwitchValid":false,"switch1Id":1,"switch1Valid":false,"switch2Id":1,"switch2Valid":false,"variableId":1,"variableValid":false,"variableValue":0},"directionFix":false,"image":{"characterIndex":0,"characterName":"","direction":2,"pattern":0,"tileId":0},"list":[{"code":101,"indent":0,"parameters":["Magali_Faces",4,0,2]},{"code":401,"indent":0,"parameters":["Infelizmente, eu não posso ir embora ainda..."]},{"code":0,"indent":0,"parameters":[]}],"moveFrequency":3,"moveRoute":{"list":[{"code":0,"parameters":[]}],"repeat":true,"skippable":false,"wait":false},"moveSpeed":3,"moveType":0,"priorityType":0,"stepAnime":false,"through":false,"trigger":1,"walkAnime":true},{"conditions":{"actorId":1,"actorValid":false,"itemId":1,"itemValid":false,"selfSwitchCh":"A","selfSwitchValid":false,"switch1Id":1,"switch1Valid":false,"switch2Id":1,"switch2Valid":false,"variableId":51,"variableValid":true,"variableValue":1},"directionFix":false,"image":{"characterIndex":0,"characterName":"","direction":2,"pattern":0,"tileId":0},"list":[{"code":201,"indent":0,"parameters":[0,6,2,0,0,0]},{"code":0,"indent":0,"parameters":[]}],"moveFrequency":3,"moveRoute":{"list":[{"code":0,"parameters":[]}],"repeat":true,"skippable":false,"wait":false},"moveSpeed":3,"moveType":0,"priorityType":0,"stepAnime":false,"through":false,"trigger":1,"walkAnime":true}],"x":17,"y":39},
{"id":11,"name":"EV011","note":"","pages":[{"conditions":{"actorId":1,"actorValid":false,"itemId":1,"itemValid":false,"selfSwitchCh":"A","selfSwitchValid":false,"switch1Id":17,"switch1Valid":true,"switch2Id":1,"switch2Valid":false,"variableId":1,"variableValid":false,"variableValue":0},"directionFix":false,"image":{"tileId":16,"characterName":"","characterIndex":0,"direction":2,"pattern":0},"list":[{"code":0,"indent":0,"parameters":[]}],"moveFrequency":3,"moveRoute":{"list":[{"code":0,"parameters":[]}],"repeat":true,"skippable":false,"wait":false},"moveSpeed":3,"moveType":0,"priorityType":0,"stepAnime":false,"through":false,"trigger":0,"walkAnime":true}],"x":35,"y":8},
{"id":12,"name":"EV012","note":"","pages":[{"conditions":{"actorId":1,"actorValid":false,"itemId":1,"itemValid":false,"selfSwitchCh":"A","selfSwitchValid":false,"switch1Id":17,"switch1Valid":true,"switch2Id":1,"switch2Valid":false,"variableId":1,"variableValid":false,"variableValue":0},"directionFix":false,"image":{"tileId":16,"characterName":"","characterIndex":0,"direction":2,"pattern":0},"list":[{"code":0,"indent":0,"parameters":[]}],"moveFrequency":3,"moveRoute":{"list":[{"code":0,"parameters":[]}],"repeat":true,"skippable":false,"wait":false},"moveSpeed":3,"moveType":0,"priorityType":0,"stepAnime":false,"through":false,"trigger":0,"walkAnime":true}],"x":34,"y":8},
{"id":13,"name":"EV013","note":"","pages":[{"conditions":{"actorId":1,"actorValid":false,"itemId":1,"itemValid":false,"selfSwitchCh":"A","selfSwitchValid":false,"switch1Id":17,"switch1Valid":true,"switch2Id":1,"switch2Valid":false,"variableId":1,"variableValid":false,"variableValue":0},"directionFix":false,"image":{"tileId":16,"characterName":"","characterIndex":0,"direction":2,"pattern":0},"list":[{"code":0,"indent":0,"parameters":[]}],"moveFrequency":3,"moveRoute":{"list":[{"code":0,"parameters":[]}],"repeat":true,"skippable":false,"wait":false},"moveSpeed":3,"moveType":0,"priorityType":0,"stepAnime":false,"through":false,"trigger":0,"walkAnime":true}],"x":34,"y":7},
{"id":14,"name":"EV014","note":"","pages":[{"conditions":{"actorId":1,"actorValid":false,"itemId":1,"itemValid":false,"selfSwitchCh":"A","selfSwitchValid":false,"switch1Id":17,"switch1Valid":true,"switch2Id":1,"switch2Valid":false,"variableId":1,"variableValid":false,"variableValue":0},"directionFix":false,"image":{"tileId":16,"characterName":"","characterIndex":0,"direction":2,"pattern":0},"list":[{"code":0,"indent":0,"parameters":[]}],"moveFrequency":3,"moveRoute":{"list":[{"code":0,"parameters":[]}],"repeat":true,"skippable":false,"wait":false},"moveSpeed":3,"moveType":0,"priorityType":0,"stepAnime":false,"through":false,"trigger":0,"walkAnime":true}],"x":34,"y":6},
{"id":15,"name":"EV015","note":"","pages":[{"conditions":{"actorId":1,"actorValid":false,"itemId":1,"itemValid":false,"selfSwitchCh":"A","selfSwitchValid":false,"switch1Id":17,"switch1Valid":true,"switch2Id":1,"switch2Valid":false,"variableId":1,"variableValid":false,"variableValue":0},"directionFix":false,"image":{"tileId":16,"characterName":"","characterIndex":0,"direction":2,"pattern":0},"list":[{"code":0,"indent":0,"parameters":[]}],"moveFrequency":3,"moveRoute":{"list":[{"code":0,"parameters":[]}],"repeat":true,"skippable":false,"wait":false},"moveSpeed":3,"moveType":0,"priorityType":0,"stepAnime":false,"through":false,"trigger":0,"walkAnime":true}],"x":34,"y":5},
{"id":16,"name":"EV016","note":"","pages":[{"conditions":{"actorId":1,"actorValid":false,"itemId":1,"itemValid":false,"selfSwitchCh":"A","selfSwitchValid":false,"switch1Id":17,"switch1Valid":true,"switch2Id":1,"switch2Valid":false,"variableId":1,"variableValid":false,"variableValue":0},"directionFix":false,"image":{"tileId":16,"characterName":"","characterIndex":0,"direction":2,"pattern":0},"list":[{"code":0,"indent":0,"parameters":[]}],"moveFrequency":3,"moveRoute":{"list":[{"code":0,"parameters":[]}],"repeat":true,"skippable":false,"wait":false},"moveSpeed":3,"moveType":0,"priorityType":0,"stepAnime":false,"through":false,"trigger":0,"walkAnime":true}],"x":35,"y":5},
{"id":17,"name":"EV017","note":"","pages":[{"conditions":{"actorId":1,"actorValid":false,"itemId":1,"itemValid":false,"selfSwitchCh":"A","selfSwitchValid":false,"switch1Id":17,"switch1Valid":true,"switch2Id":1,"switch2Valid":false,"variableId":1,"variableValid":false,"variableValue":0},"directionFix":false,"image":{"tileId":16,"characterName":"","characterIndex":0,"direction":2,"pattern":0},"list":[{"code":0,"indent":0,"parameters":[]}],"moveFrequency":3,"moveRoute":{"list":[{"code":0,"parameters":[]}],"repeat":true,"skippable":false,"wait":false},"moveSpeed":3,"moveType":0,"priorityType":0,"stepAnime":false,"through":false,"trigger":0,"walkAnime":true}],"x":36,"y":5},
{"id":18,"name":"EV018","note":"","pages":[{"conditions":{"actorId":1,"actorValid":false,"itemId":1,"itemValid":false,"selfSwitchCh":"A","selfSwitchValid":false,"switch1Id":17,"switch1Valid":true,"switch2Id":1,"switch2Valid":false,"variableId":1,"variableValid":false,"variableValue":0},"directionFix":false,"image":{"tileId":16,"characterName":"","characterIndex":0,"direction":2,"pattern":0},"list":[{"code":0,"indent":0,"parameters":[]}],"moveFrequency":3,"moveRoute":{"list":[{"code":0,"parameters":[]}],"repeat":true,"skippable":false,"wait":false},"moveSpeed":3,"moveType":0,"priorityType":0,"stepAnime":false,"through":false,"trigger":0,"walkAnime":true}],"x":36,"y":6},
{"id":19,"name":"EV019","note":"","pages":[{"conditions":{"actorId":1,"actorValid":false,"itemId":1,"itemValid":false,"selfSwitchCh":"A","selfSwitchValid":false,"switch1Id":17,"switch1Valid":true,"switch2Id":1,"switch2Valid":false,"variableId":1,"variableValid":false,"variableValue":0},"directionFix":false,"image":{"tileId":16,"characterName":"","characterIndex":0,"direction":2,"pattern":0},"list":[{"code":0,"indent":0,"parameters":[]}],"moveFrequency":3,"moveRoute":{"list":[{"code":0,"parameters":[]}],"repeat":true,"skippable":false,"wait":false},"moveSpeed":3,"moveType":0,"priorityType":0,"stepAnime":false,"through":false,"trigger":0,"walkAnime":true}],"x":35,"y":6},
{"id":20,"name":"EV020","note":"","pages":[{"conditions":{"actorId":1,"actorValid":false,"itemId":1,"itemValid":false,"selfSwitchCh":"A","selfSwitchValid":false,"switch1Id":17,"switch1Valid":true,"switch2Id":1,"switch2Valid":false,"variableId":1,"variableValid":false,"variableValue":0},"directionFix":false,"image":{"tileId":16,"characterName":"","characterIndex":0,"direction":2,"pattern":0},"list":[{"code":0,"indent":0,"parameters":[]}],"moveFrequency":3,"moveRoute":{"list":[{"code":0,"parameters":[]}],"repeat":true,"skippable":false,"wait":false},"moveSpeed":3,"moveType":0,"priorityType":0,"stepAnime":false,"through":false,"trigger":0,"walkAnime":true}],"x":35,"y":7},
{"id":21,"name":"EV021","note":"","pages":[{"conditions":{"actorId":1,"actorValid":false,"itemId":1,"itemValid":false,"selfSwitchCh":"A","selfSwitchValid":false,"switch1Id":17,"switch1Valid":true,"switch2Id":1,"switch2Valid":false,"variableId":1,"variableValid":false,"variableValue":0},"directionFix":false,"image":{"tileId":16,"characterName":"","characterIndex":0,"direction":2,"pattern":0},"list":[{"code":0,"indent":0,"parameters":[]}],"moveFrequency":3,"moveRoute":{"list":[{"code":0,"parameters":[]}],"repeat":true,"skippable":false,"wait":false},"moveSpeed":3,"moveType":0,"priorityType":0,"stepAnime":false,"through":false,"trigger":0,"walkAnime":true}],"x":36,"y":7},
{"id":22,"name":"EV022","note":"","pages":[{"conditions":{"actorId":1,"actorValid":false,"itemId":1,"itemValid":false,"selfSwitchCh":"A","selfSwitchValid":false,"switch1Id":17,"switch1Valid":true,"switch2Id":1,"switch2Valid":false,"variableId":1,"variableValid":false,"variableValue":0},"directionFix":false,"image":{"tileId":16,"characterName":"","characterIndex":0,"direction":2,"pattern":0},"list":[{"code":0,"indent":0,"parameters":[]}],"moveFrequency":3,"moveRoute":{"list":[{"code":0,"parameters":[]}],"repeat":true,"skippable":false,"wait":false},"moveSpeed":3,"moveType":0,"priorityType":0,"stepAnime":false,"through":false,"trigger":0,"walkAnime":true}],"x":36,"y":8},
{"id":23,"name":"EV023","note":"","pages":[{"conditions":{"actorId":1,"actorValid":false,"itemId":1,"itemValid":false,"selfSwitchCh":"A","selfSwitchValid":false,"switch1Id":1,"switch1Valid":false,"switch2Id":1,"switch2Valid":false,"variableId":1,"variableValid":false,"variableValue":0},"directionFix":false,"image":{"characterIndex":0,"characterName":"","direction":2,"pattern":0,"tileId":0},"list":[{"code":201,"indent":0,"parameters":[0,15,0,78,0,0]},{"code":0,"indent":0,"parameters":[]}],"moveFrequency":3,"moveRoute":{"list":[{"code":0,"parameters":[]}],"repeat":true,"skippable":false,"wait":false},"moveSpeed":3,"moveType":0,"priorityType":0,"stepAnime":false,"through":false,"trigger":1,"walkAnime":true}],"x":39,"y":1},
{"id":24,"name":"EV024","note":"","pages":[{"conditions":{"actorId":1,"actorValid":false,"itemId":1,"itemValid":false,"selfSwitchCh":"A","selfSwitchValid":false,"switch1Id":1,"switch1Valid":false,"switch2Id":1,"switch2Valid":false,"variableId":1,"variableValid":false,"variableValue":0},"directionFix":false,"image":{"characterIndex":0,"characterName":"","direction":2,"pattern":0,"tileId":0},"list":[{"code":201,"indent":0,"parameters":[0,15,0,78,0,0]},{"code":0,"indent":0,"parameters":[]}],"moveFrequency":3,"moveRoute":{"list":[{"code":0,"parameters":[]}],"repeat":true,"skippable":false,"wait":false},"moveSpeed":3,"moveType":0,"priorityType":0,"stepAnime":false,"through":false,"trigger":1,"walkAnime":true}],"x":39,"y":2},
{"id":25,"name":"EV025","note":"","pages":[{"conditions":{"actorId":1,"actorValid":false,"itemId":1,"itemValid":false,"selfSwitchCh":"A","selfSwitchValid":false,"switch1Id":355,"switch1Valid":true,"switch2Id":1,"switch2Valid":false,"variableId":1,"variableValid":false,"variableValue":0},"directionFix":false,"image":{"tileId":0,"characterName":"Vilões Secundários5","direction":2,"pattern":1,"characterIndex":5},"list":[{"code":0,"indent":0,"parameters":[]}],"moveFrequency":3,"moveRoute":{"list":[{"code":0,"parameters":[]}],"repeat":true,"skippable":false,"wait":false},"moveSpeed":3,"moveType":0,"priorityType":1,"stepAnime":false,"through":false,"trigger":0,"walkAnime":true},{"conditions":{"actorId":1,"actorValid":false,"itemId":1,"itemValid":false,"selfSwitchCh":"A","selfSwitchValid":false,"switch1Id":1,"switch1Valid":false,"switch2Id":1,"switch2Valid":false,"variableId":180,"variableValid":true,"variableValue":1},"directionFix":false,"image":{"characterIndex":0,"characterName":"","direction":2,"pattern":0,"tileId":0},"list":[{"code":0,"indent":0,"parameters":[]}],"moveFrequency":3,"moveRoute":{"list":[{"code":0,"parameters":[]}],"repeat":true,"skippable":false,"wait":false},"moveSpeed":3,"moveType":0,"priorityType":0,"stepAnime":false,"through":false,"trigger":0,"walkAnime":true}],"x":4,"y":16},
null
]
}