{
"autoplayBgm":true,"autoplayBgs":true,"battleback1Name":"Meadow","battleback2Name":"Forest","bgm":{"name":"54-Cambodja","pan":0,"pitch":100,"volume":90},"bgs":{"name":"","pan":0,"pitch":100,"volume":90},"disableDashing":false,"displayName":"Cambodja","encounterList":[{"regionSet":[],"troopId":28,"weight":5},{"regionSet":[],"troopId":31,"weight":5}],"encounterStep":30,"height":30,"note":"","parallaxLoopX":false,"parallaxLoopY":false,"parallaxName":"","parallaxShow":true,"parallaxSx":0,"parallaxSy":0,"scrollType":0,"specifyBattleback":true,"tilesetId":18,"width":30,
"data":[2816,2816,2816,2820,2854,2080,1633,2856,2844,2844,2854,1634,2832,2816,2840,1632,1633,1633,1633,1633,1633,1633,1633,1633,1633,1633,2832,2816,2840,2064,2816,2816,2820,2854,1641,2080,1641,1641,1641,1641,1641,1642,2856,2844,2854,1640,1641,1641,1641,1641,1641,1641,1641,1641,1633,1633,2832,2820,2854,2064,2816,2816,2840,1634,1649,2483,1649,1649,1649,1649,1649,1650,1560,1561,1562,1648,1649,1649,1649,1649,1649,1649,1649,1649,1632,1633,2834,2854,2082,2049,2816,2816,2840,1634,1657,2579,1657,1657,1657,1657,1657,1658,1560,1561,1562,1656,1657,1657,1657,1657,1657,1657,1657,1657,1632,1633,2848,2082,2049,2048,2816,2816,2840,1634,2082,2051,2084,2850,2836,2836,2836,2836,2836,2836,2836,2836,2836,2836,2836,2836,2836,2836,2836,2852,1632,2859,2855,2064,2052,2076,2816,2816,2840,1634,2064,2048,2072,2832,2816,2816,2816,2816,2816,2816,2816,2816,2816,2816,2816,2816,2816,2816,2816,2840,1632,2082,2068,2053,2086,2850,2816,2820,2854,1634,2064,2048,2072,2856,2844,2844,2824,2816,2816,2816,2816,2816,2816,2816,2816,2816,2816,2816,2816,2840,1632,2064,2048,2072,2850,2817,2820,2854,1644,1642,2064,2048,2050,2068,2068,2084,2856,2844,2844,2844,2844,2844,2844,2824,2816,2816,2816,2816,2816,2840,1640,2066,2076,2086,2832,2816,2854,1644,1642,1650,2064,2048,2048,2048,2048,2050,2068,1538,1539,1540,2068,2068,2084,2856,2824,2816,2816,2816,2816,2840,1648,2483,1632,2859,2825,2816,1644,1642,1650,1658,2064,2048,2048,2048,2048,2048,2048,1538,1539,1540,2056,2048,2050,2084,2856,2844,2824,2816,2816,2840,1656,2579,1640,1643,2832,2816,1642,1650,1658,2082,2049,2048,2048,2048,2048,2052,2076,1538,1539,1540,2088,2056,2048,2050,2068,2084,2856,2828,2844,2846,2861,2080,1648,1632,2856,2824,1650,1658,2082,2049,2052,2076,2076,2076,2076,2086,2858,2906,2850,2836,2852,2088,2076,2076,2056,2050,2084,2860,2082,2068,2068,2074,1656,1640,1643,2832,1658,2082,2053,2076,2086,2850,2836,2836,2836,2836,2842,2896,2832,2816,2818,2836,2836,2852,2064,2048,2050,2068,2049,2048,2048,2050,2084,1648,1632,2832,2852,2088,2086,2850,2836,2817,2816,2816,2816,2816,2840,2896,2832,2816,2816,2816,2816,2840,2088,2056,2048,2048,2048,2048,2048,2048,2072,1656,1632,2856,2818,2836,2836,2817,2816,2816,2816,2816,2816,2820,2854,2896,2832,2816,2816,2816,2816,2818,2852,2088,2076,2056,2048,2048,2048,2048,2050,2084,1640,1641,2816,2816,2816,2816,2816,2816,2816,2816,2816,2840,2899,2903,2832,2816,2816,2816,2816,2816,2818,2836,2852,2088,2056,2048,2048,2048,2048,2072,1648,1649,2816,2816,2816,2816,2816,2816,2816,2816,2816,2840,2896,2850,2817,2816,2816,2820,2844,2844,2844,2844,2846,2861,2088,2076,2076,2076,2076,2086,1656,1657,2816,2816,2816,2816,2816,2816,2816,2816,2820,2854,2896,2832,2816,2816,2820,2854,2899,2897,2897,2897,2897,2897,2897,2897,2897,2897,2897,2897,2897,2897,2816,2816,2816,2816,2816,2816,2816,2816,2840,2898,2890,2856,2844,2844,2854,2899,2903,2850,2836,2836,2837,2861,2082,2068,2069,2081,2081,2093,2850,2836,2816,2816,2816,2816,2816,2816,2816,2816,2840,2882,2894,2897,2897,2897,2897,2903,2850,2817,2816,2820,2854,2082,2053,2076,2086,2850,2836,2836,2817,2816,2816,2816,2816,2816,2816,2816,2816,2816,2840,2896,2850,2836,2836,2836,2836,2836,2817,2816,2816,2840,2082,2049,2072,2859,2838,2817,2816,2816,2816,2816,2816,2816,2816,2816,2816,2816,2816,2816,2840,2896,2856,2824,2816,2816,2816,2816,2816,2816,2816,2840,2064,2048,2050,2084,2832,2816,2816,2816,2816,2816,2844,2824,2816,2816,2816,2816,2816,2816,2840,2905,2901,2856,2824,2816,2816,2816,2816,2816,2816,2840,2064,2048,2048,2072,2832,2816,2816,2816,2816,2816,1626,2856,2824,2816,2816,2816,2816,2816,2818,2852,2905,2901,2832,2816,2816,2816,2816,2816,2816,2840,2064,2048,2052,2086,2856,2844,2824,2816,2816,2816,1636,1626,2856,2844,2824,2816,2816,2816,2816,2818,2852,2896,2832,2816,2816,2816,2816,2816,2816,2840,2064,2048,2072,2862,2082,2084,2856,2824,2816,2816,2852,1636,1625,1626,2856,2844,2844,2844,2824,2816,2840,2896,2832,2816,2816,2816,2816,2816,2816,2840,2064,2048,2050,2068,2049,2050,2084,2832,2816,2816,2818,2836,2852,1636,1625,1625,1625,1626,2856,2824,2840,2896,2856,2824,2816,2816,2816,2816,2816,2840,2088,2056,2048,2048,2052,2076,2086,2832,2816,2816,2816,2816,2818,2836,2836,2836,2852,1636,1626,2832,2840,2905,2901,2856,2824,2816,2816,2816,2816,2818,2852,2064,2048,2052,2086,2850,2836,2817,2816,2816,2816,2816,2816,2816,2816,2816,2818,2852,1634,2832,2818,2852,2881,2900,2856,2824,2816,2816,2820,2844,2854,2064,2048,2072,2850,2817,2816,2816,2816,2816,2816,2816,2816,2816,2816,2816,2816,2840,1634,2832,2816,2840,2880,2866,2900,2832,2816,2816,2840,2082,2068,2049,2048,2072,2832,2816,2816,2816,2816,2816,0,0,0,0,0,0,0,0,0,0,0,0,0,3024,3032,0,0,0,0,0,0,0,0,0,0,0,0,0,0,0,0,0,0,0,0,0,0,0,0,0,0,0,0,3048,3046,0,0,0,0,0,0,0,0,0,0,0,0,0,0,0,0,0,0,0,0,0,0,0,0,0,0,0,0,0,0,0,0,0,0,0,0,0,0,0,0,0,0,0,0,0,0,0,0,0,0,0,0,0,0,0,0,0,0,0,0,0,0,0,0,0,0,0,0,0,0,0,0,0,0,0,0,0,0,0,0,0,0,0,0,0,0,0,0,0,3042,3028,3028,3028,3028,3044,0,0,0,0,0,0,0,0,0,0,0,0,0,0,0,0,0,0,0,0,0,0,2898,2900,3048,3016,3008,3008,3008,3032,0,0,0,0,0,0,0,0,0,0,0,0,0,0,0,0,0,0,0,0,0,2907,2893,2902,0,3048,3016,3008,3008,3032,0,0,0,0,0,0,0,0,0,0,0,0,0,0,0,0,0,0,0,0,0,0,0,0,0,0,3048,3016,3008,3010,3044,0,0,0,0,0,0,0,0,0,0,0,0,0,0,0,0,0,0,0,0,0,0,0,0,0,0,3048,3036,3016,3032,0,0,3050,0,0,0,0,0,0,0,0,0,0,0,0,0,0,0,0,0,0,0,0,0,0,0,0,0,3048,3018,3028,3029,3047,0,0,0,0,0,0,0,0,0,0,0,0,0,0,0,0,0,0,0,0,0,0,0,0,0,0,3048,3020,3046,0,0,0,0,0,0,0,0,0,0,0,0,0,0,0,0,0,0,0,0,0,0,0,0,0,0,0,0,3052,0,0,0,0,0,0,0,0,0,0,0,0,0,0,3042,3028,3028,3029,3053,0,0,0,3050,0,0,0,0,0,0,0,0,2186,0,0,0,0,0,0,0,0,0,0,0,0,3048,3016,3012,3046,0,0,0,3042,3011,3028,3028,3044,0,0,0,0,0,2185,2181,0,0,0,0,0,0,0,0,0,0,0,0,3048,3046,0,0,0,3042,3009,3008,3008,3008,3010,3044,0,0,0,0,0,2188,0,0,0,0,0,0,0,0,0,0,0,0,0,0,0,0,0,3024,3008,3008,3008,3008,3008,3032,0,0,0,0,0,0,0,0,0,0,0,0,0,0,0,0,0,0,0,0,0,0,3042,3009,3008,3008,3012,3036,3036,3038,3041,3041,3053,2235,2237,2190,2235,2225,2237,0,0,0,0,0,0,0,0,0,0,0,0,0,3024,3008,3008,3012,3046,0,0,0,0,0,0,0,0,0,0,0,0,0,0,0,0,0,0,0,0,0,0,0,0,0,3048,3036,3036,3046,0,0,3042,3028,3044,0,0,0,0,0,0,0,0,0,0,0,0,0,0,0,0,0,0,0,0,0,0,0,0,0,0,3042,3009,3008,3014,3053,0,0,0,0,0,0,3051,3041,3041,0,0,0,0,0,0,0,0,3050,0,0,3042,3028,3028,3028,3028,3009,3008,3008,3032,0,0,0,0,0,0,0,0,0,0,0,0,0,0,0,0,0,3042,3034,0,0,3024,3008,3008,3008,3008,3008,3008,3008,3032,0,0,0,0,0,0,0,0,0,0,0,0,0,0,0,3042,3028,3013,3046,0,0,3048,3036,3036,3016,3008,3008,3008,3008,3032,0,0,0,0,0,0,0,0,0,0,0,0,0,0,0,3024,3008,3032,0,0,0,0,0,0,3024,3008,3008,3008,3008,3032,0,0,0,0,0,0,0,0,0,0,0,0,0,0,3042,3009,3008,3010,3044,0,0,0,0,3042,3009,3008,3008,3012,3036,3046,0,0,0,0,0,0,0,0,0,0,0,0,0,0,3048,3036,3036,3036,3018,3044,0,0,0,3048,3036,3016,3012,3046,0,0,0,0,0,0,0,0,0,0,0,0,3044,0,0,0,0,0,0,0,3048,3033,0,0,0,0,0,3024,3032,0,0,0,0,0,0,0,0,0,0,0,0,0,3010,3028,3044,0,0,0,0,0,0,3049,3053,0,0,0,0,3048,3046,0,0,0,0,2138,0,0,0,0,0,0,0,0,3008,3008,3010,3044,0,0,0,0,0,0,0,0,0,0,0,0,0,0,0,0,0,2113,2132,0,0,0,0,0,0,0,3008,3008,3008,3010,3028,3044,0,0,0,0,0,0,0,0,0,0,0,0,0,2130,2116,2097,2098,2132,0,0,0,0,0,0,0,0,816,0,0,0,0,0,0,0,1015,0,0,0,0,0,0,0,0,0,0,0,0,0,515,512,0,664,0,0,0,0,824,0,0,0,0,0,586,1022,1022,0,0,0,0,0,0,0,0,0,0,0,0,0,646,0,0,672,0,0,0,0,538,0,0,0,0,0,0,0,0,0,0,0,0,0,0,0,0,0,0,0,0,0,654,0,0,0,0,0,0,0,546,0,0,0,203,0,997,0,0,0,0,0,0,0,0,0,0,0,0,0,0,0,662,0,0,0,0,0,0,871,0,0,0,0,0,0,1005,0,1007,0,90,0,0,0,576,577,578,682,666,667,668,669,670,0,0,0,0,0,0,879,0,0,0,0,0,0,1013,0,1015,0,0,0,0,0,584,585,586,690,674,675,676,677,678,0,0,0,0,0,0,833,828,829,0,0,0,0,1021,0,1023,0,0,0,0,0,0,0,0,698,0,0,0,0,0,0,0,0,0,0,0,0,90,0,0,0,0,0,0,0,0,0,0,0,0,0,0,0,0,706,0,0,0,0,0,0,0,0,0,0,0,0,0,0,0,0,0,0,0,0,0,0,0,0,0,0,0,0,0,714,0,0,717,718,0,0,0,121,0,0,91,0,0,0,0,0,0,0,0,0,0,0,0,0,0,0,0,0,0,0,0,0,0,0,0,0,0,878,879,0,0,0,0,0,0,0,0,0,0,0,0,0,0,0,0,0,0,0,0,0,0,0,0,0,0,0,0,0,0,0,0,0,0,0,0,112,0,0,112,113,0,0,0,120,121,924,925,0,0,0,0,0,0,0,0,0,0,0,0,888,0,0,0,0,0,120,121,0,120,870,871,0,0,0,90,932,933,934,0,0,0,0,0,0,0,0,0,0,0,0,0,0,0,0,0,0,0,121,871,878,879,0,0,171,0,0,0,0,0,0,0,0,0,0,0,0,0,0,0,0,0,0,0,624,625,626,0,0,879,179,91,0,0,96,0,0,0,0,0,112,0,0,0,0,0,0,0,0,0,0,0,0,0,0,0,0,0,0,0,0,0,0,0,800,801,0,0,0,0,120,0,0,0,0,0,0,0,0,0,0,0,0,0,0,0,0,0,0,0,0,0,0,90,0,0,0,0,0,0,0,0,0,0,0,0,0,0,0,0,0,0,0,0,619,620,621,0,0,0,0,0,0,99,0,0,0,0,0,0,0,0,0,0,0,0,0,0,0,0,0,0,0,0,627,628,629,0,0,0,0,0,0,0,0,0,0,0,0,0,0,0,0,0,0,0,0,0,0,0,0,0,0,0,924,925,926,0,0,0,0,0,0,0,0,0,0,0,0,0,0,0,0,0,848,849,120,121,120,121,0,0,0,0,932,933,934,0,0,0,0,0,0,0,0,113,0,0,0,0,0,0,0,0,856,857,0,0,0,0,0,0,0,0,0,0,0,0,0,0,0,0,90,879,120,121,0,0,0,0,0,0,0,0,0,0,848,849,848,849,0,0,115,0,0,0,0,0,0,0,0,0,0,0,0,90,0,0,0,0,0,0,0,0,0,0,856,857,856,857,0,0,0,0,0,0,0,0,0,0,0,0,0,0,179,0,0,0,0,90,0,0,0,0,0,0,0,0,0,0,0,657,0,0,0,120,0,0,0,92,0,0,0,0,171,0,0,121,887,0,0,0,0,0,0,0,0,933,934,856,857,665,120,0,0,0,0,0,0,0,0,0,0,0,96,0,0,681,895,0,0,0,0,0,0,0,0,0,0,0,0,522,90,660,661,662,0,112,0,0,0,0,0,0,0,91,0,99,0,0,0,0,0,0,0,0,0,850,0,0,0,530,0,668,669,670,90,120,0,0,0,0,0,0,0,0,96,0,0,0,0,0,0,0,0,0,0,858,0,0,0,538,0,676,677,678,0,0,0,0,0,0,0,0,0,0,0,0,0,0,0,0,0,0,0,0,0,0,0,1013,0,0,0,0,0,0,0,0,0,0,0,0,0,0,0,0,0,0,0,0,0,0,0,0,0,0,0,0,0,1021,0,520,521,522,817,818,0,576,577,578,1014,1014,1015,0,0,0,878,879,878,879,1022,1023,0,544,545,546,516,517,518,665,0,528,529,530,825,826,0,584,585,981,982,983,1023,0,0,90,0,0,0,0,512,642,643,644,645,523,524,525,526,673,0,536,537,870,871,0,0,0,0,989,990,991,0,0,0,0,0,560,561,562,0,650,651,652,653,531,532,533,534,0,0,544,545,878,879,0,0,908,909,910,998,999,0,0,0,0,0,568,569,570,0,658,659,660,661,539,540,541,542,0,0,870,811,812,813,0,0,916,917,918,1006,808,809,810,0,0,0,768,769,770,771,683,684,685,686,547,548,549,550,520,521,878,819,820,821,0,0,924,925,926,1014,816,817,818,107,171,0,776,777,778,779,691,692,693,694,992,993,0,0,528,529,832,827,992,993,0,0,932,933,934,1022,824,825,826,0,0,0,784,785,786,787,699,700,701,702,1000,1001,0,0,536,537,840,841,1000,1001,0,0,0,0,0,0,91,0,0,0,90,0,792,793,794,795,707,708,709,710,0,0,112,113,544,545,848,849,0,0,0,0,0,191,0,0,0,0,0,0,0,0,800,801,802,803,715,716,870,871,0,0,120,870,871,864,856,857,0,0,0,0,189,0,0,0,0,0,0,0,0,908,909,910,0,0,99,0,878,879,0,0,0,112,113,872,0,0,203,592,593,594,0,0,970,971,972,0,0,112,113,916,917,918,0,0,0,870,871,90,0,0,195,120,121,880,195,0,0,600,601,602,113,0,978,979,980,0,0,768,769,770,771,926,0,0,0,878,879,0,0,0,0,0,870,871,0,0,0,608,609,610,112,113,986,987,988,0,0,776,777,778,779,940,941,942,0,0,0,0,0,0,0,195,878,879,112,113,0,616,617,618,120,870,994,995,996,0,90,784,785,786,787,948,949,950,0,190,0,0,0,0,0,0,112,113,114,115,113,595,596,597,598,878,1002,1003,1004,0,0,792,793,794,795,956,957,958,113,0,0,0,0,0,0,0,120,121,122,123,121,603,604,605,606,0,1010,1011,1012,0,808,809,810,802,803,964,965,966,121,0,0,0,0,0,0,0,0,0,114,115,113,611,612,613,614,870,871,1019,1020,0,816,817,818,0,0,0,0,0,0,0,0,0,0,0,0,0,0,0,122,123,121,908,909,910,622,878,879,170,0,0,824,825,826,0,0,0,0,0,112,113,0,832,833,0,0,0,0,0,114,115,113,916,917,918,630,182,0,0,0,171,0,0,552,553,554,867,868,869,120,121,0,840,841,112,113,112,113,112,122,123,121,908,909,910,0,886,887,0,0,0,0,0,560,561,562,875,876,877,0,0,981,982,983,832,833,832,833,120,114,115,113,916,917,918,0,894,895,0,90,870,871,112,568,569,570,883,884,885,0,0,989,990,991,840,841,840,841,0,122,123,121,924,925,926,112,113,0,0,0,878,832,833,576,577,578,891,892,893,0,0,997,998,999,908,909,910,832,833,120,112,113,932,933,934,120,121,171,0,0,0,840,841,584,585,586,0,112,113,0,0,1005,1006,1007,916,917,918,840,841,649,120,121,0,112,113,90,0,0,91,0,0,848,849,0,112,113,0,120,121,0,0,1013,1014,1015,924,925,926,848,849,642,643,644,645,646,121,0,90,179,0,0,0,856,857,90,120,886,642,643,644,645,646,1021,1022,1023,932,834,835,981,982,650,651,652,653,654,0,99,0,96,592,593,594,870,871,0,680,894,650,651,652,653,654,0,0,0,0,842,843,989,990,658,659,682,683,684,685,686,113,0,600,601,602,878,879,567,688,689,658,659,660,661,662,0,0,867,868,869,851,997,998,666,667,690,691,692,693,694,121,0,608,609,610,0,0,575,696,697,666,667,668,669,670,0,0,875,876,877,859,1005,1006,674,675,698,699,700,701,702,0,0,616,617,618,0,0,583,704,705,674,675,676,677,678,0,0,883,884,885,886,887,1014,546,0,706,707,708,709,710,91,0,624,625,626,0,0,591,712,713,0,0,0,0,0,0,0,891,892,893,894,895,1022,0,0,0,0,0,0,0,0,0,0,0,0,0,0,0,0,0,0,0,0,0,0,0,0,0,0,0,0,0,0,0,0,0,0,0,0,0,0,0,0,0,0,0,0,0,0,0,0,0,0,0,0,0,0,0,0,0,0,0,0,0,0,0,0,0,0,0,0,0,0,0,0,0,0,0,0,0,0,0,0,0,0,0,0,0,0,0,0,0,0,0,0,0,0,0,0,0,0,0,0,0,0,0,0,0,0,0,0,0,0,0,0,0,0,0,0,0,0,0,0,0,0,0,0,5,0,0,0,0,0,0,0,0,0,0,0,0,0,0,0,0,0,0,0,0,0,0,0,0,0,0,0,0,0,5,0,0,0,0,0,0,0,0,0,0,0,0,0,0,0,0,0,0,0,0,0,0,0,0,0,0,0,0,0,5,0,0,0,0,0,0,0,0,0,0,0,0,0,0,0,0,0,0,0,0,0,0,0,0,0,0,0,0,0,5,0,0,0,0,0,0,0,0,0,0,0,0,0,0,0,0,0,0,0,0,0,0,0,0,0,0,0,0,0,5,0,0,0,0,0,0,0,0,0,0,0,0,0,0,0,0,0,0,0,0,0,0,0,0,0,0,0,0,0,5,0,0,0,0,0,0,0,0,0,0,0,0,0,0,0,0,0,0,0,0,0,0,0,0,0,0,0,0,7,1,0,0,0,0,0,0,0,0,0,0,0,0,0,0,0,0,0,0,0,0,0,0,0,0,0,0,0,7,1,0,0,0,0,0,0,0,0,0,0,0,0,0,0,0,0,0,0,0,0,0,0,0,0,0,0,0,3,1,0,0,0,0,0,0,0,0,0,0,0,0,0,0,0,0,0,0,0,0,0,0,0,0,0,0,0,0,0,0,0,0,0,0,0,0,0,0,0,0,0,0,0,0,0,0,0,0,0,0,0,0,0,0,0,0,0,0,0,0,0,0,0,0,0,0,0,0,0,0,0,0,0,0,0,0,0,0,0,0,0,0,0,0,0,0,0,0,0,0,0,0,0,0,0,0,0,0,0,0,0,0,0,0,0,0,0,0,0,0,0,0,0,0,0,0,0,0,0,0,0,0,0,0,0,0,0,0,0,0,0,0,0,0,0,0,0,0,0,0,0,0,0,0,0,0,0,0,0,0,0,0,0,0,0,0,0,0,0,0,0,0,0,0,0,0,0,0,0,0,0,0,0,0,0,0,0,0,0,0,0,0,0,0,0,0,0,0,0,0,0,0,0,0,0,0,0,0,0,0,0,0,0,0,0,0,0,0,0,0,0,0,0,0,0,0,0,0,0,0,0,0,0,0,0,0,0,0,0,0,0,0,0,0,0,0,0,0,0,0,0,0,0,0,0,0,0,0,0,0,0,0,0,0,0,0,0,0,0,0,0,0,0,0,0,0,0,0,0,0,0,0,0,0,0,0,0,0,0,0,0,0,0,0,0,0,0,0,0,0,0,0,0,0,0,0,0,0,0,0,0,0,0,0,0,0,0,0,0,0,0,0,0,0,0,0,0,0,0,0,0,0,0,0,0,0,0,0,0,0,0,0,0,0,0,0,0,0,0,0,0,0,0,0,0,0,0,0,0,0,0,0,0,0,0,0,0,0,0,0,0,0,0,0,0,0,0,0,0,0,0,0,0,0,0,0,0,0,0,0,0,0,0,0,0,0,0,0,0,0,0,0,0,0,0,0,0,0,0,0,0,0,0,0,0,0,0,0,0,0,0,0,0,0,0,0,0,0,0,0,0,0,0,0,0,0,0,0,0,0,0,0,0,0,0,0,0,0,0,0,0,0,0,0,0,0,0,0,0,0,0,0,0,0,0,0,0,0,0,0,0,0,0,0,0,0,0,0,0,0,0,0,0,0,0,0,0,0,0,0,0,0,0,0,0,0,0,0,0,0,0,0,0,0,0,0,0,0,0,0,0,0,0,0,0,0,0,0,0,0,0,0,0,0,0,0,0,0,0,0,0,0,0,0,0,0,0,0,0,0,0,0,0,0,0,0,0,0,0,0,0,0,0,0,0,0,0,0,0,0,0,0,0,0,0,0,0,0,0,0,0,0,0,0,0,0,0,0,0,0,0,0,0,0,0,0,0,0,0,0,0,0,0,0,0,0,0,0,0,0,0,0,0,0,0,0,0,0,0,0,0,0,0,0,0,0,0,0,0,0,0,0,0,0,0,0,0,0,0,0,0,0,0,0,0,0,0,0,0,0,0,0,0,0,0,0,0,0,0,0,0,0,0,0,0,0,0,0,0,0,0,0,0,0,0,0,0,0,0,0,0,0,0,0,0,0,0,0,0,0,0,0,0,0,0,0,0,0,0,0,0,0,0,0,0,0,0,0,0,0,0,0,0,0,0,0,0,0,0,0,0,0,0,0,0,0,0,0,0,0,0,0,0,0,0,0,0,0,0,0,0,0,0,0,0,0,0,0,0,0,0,0,0,0,0,0,0,0,0,0,0,0,0,0,0,0,0,0,0,0,0,0,0,0,0,0,0,0,0,0,0,0,0,0,0,0,0,0,0,0,0,0,0,0,0,0,0,0,0,0,0,0,0,0,0,0,0,0,0,0,0,0,0,0,0,0,0,0,0,0,0,0,0,0,0,0,0,0,0,0,0,0,0,0,0,0,0,0,0,0,0,0,0,0,0,0,0,0,0,10,10,0,0,0,0,0,0,0,0,0,0,0,0,0,0,0,0,0,0,0,0,0,0,0,0,0,0,0,0,0,0,0,0,0,0,0,0,0,0,0,0,0,0,0,0,0,0,0,0,0,10,10,0,0,0,0,0,0,0,0,0,0,0,0,0,0,0,0,0,0,0,0,0,0,0,0,0,0,0,0,0,0,0,0,0,0,0,0,0,0,0,0,0,0,0,0,0,0,0,0,0,0,0,10,10,0,0,0,0,0,0,0,0,0,0,0,0,0,0,0,0,0,0,0,0,0,0,0,0,0,0,0,0,0,10,10,0,0,0,0,0,0,0,0,0,0,0,0,0,0,0,0,0,0,0,0,0,0,0,0,0,0,0,0,0,0,0,0,0,0,0,0,0,0,0,0,0,0,0,0,0,0,0,0,0,0,0,0,0,0,0,0,0,0,0,0,0,0,0,0,0,0,0,0,0,0,0,0,0,0,0,0,0,0,0,0,0,0,0,0,0,0,0,0,10,10,0,0,0,0,0,0,0,0,0,0,0,0,0,0,0,0,0,0,0,0,0,0,0,0,0,0,0,0,0,0,0,0,0,0,0,0,0,0,0,0,0,10,10,0,0,0,0,0,0,0,0,0,0,0,0,0,0,0,0,0,0,0,0,0,0,0,0,0,0,0,0,0,0,0,0,0,0,0,0,0,0,0,0,0,0,0,0,0,10,10,0,0,0,0,0,0,0,0,0,0,0,0,0,0,0,0,0,0,0,0,0,0,0,0,0,0,0,0,0,0,0,0,0,0,0,0,0,0,0,0,0,0,0,0,0,0,0,0,0,0,0,0,0,0,0,0,0,10,10,0,0,0,0,0,0,0,0,0,0,0,0,0,0,0,0,0,0,0,0,0,0,0,0,0,0,0,0,0,0,0,0,0,0,0,0,0,0,0,0,10,10,0,0,0,0,0,0,0,0,0,0,0,0,0,0,10,10,0,0,0,0,0,0,0,0,0,10,10,0,0,0,0,0,0,0,0,0,0,0,0,0,0,0,0,0,0,0,0,0,0,0,0,0,0,0,0,0,10,10,0,0,0,0,0,0,0,0,0,0,0,0,0,0,0,0,0,0,0,0,0,0,0,0,10,10,0,0,0,0,0,0,0,0,0,0,0,0,0,0,0,0,0,0,0,0,0,0,10,10,0,0,0,0,0,0,0,0,0,0,0,0,0,0,0,0,0,0,0,0,0,0,0,0,0,0,0,0,0,0,0,0,0,0,0,0,0,0,0,0,0,0,0,0,0,0,0,0,0,0,0,0,0,0,0,0,0,0,0,0,0,0,0,0,0,0,0,0,0,0,0,0,0,0,0,0,0,0,0,0,0,0],
"events":[
null,
{"id":1,"name":"EV001","note":"","pages":[{"conditions":{"actorId":1,"actorValid":false,"itemId":1,"itemValid":false,"selfSwitchCh":"A","selfSwitchValid":false,"switch1Id":1,"switch1Valid":false,"switch2Id":1,"switch2Valid":false,"variableId":1,"variableValid":false,"variableValue":0},"directionFix":true,"image":{"tileId":0,"characterName":"!Other2","direction":2,"pattern":0,"characterIndex":0},"list":[{"code":0,"indent":0,"parameters":[]}],"moveFrequency":3,"moveRoute":{"list":[{"code":0,"parameters":[]}],"repeat":true,"skippable":false,"wait":false},"moveSpeed":3,"moveType":0,"priorityType":1,"stepAnime":true,"through":false,"trigger":0,"walkAnime":true}],"x":25,"y":10},
{"id":2,"name":"EV002","note":"","pages":[{"conditions":{"actorId":1,"actorValid":false,"itemId":1,"itemValid":false,"selfSwitchCh":"A","selfSwitchValid":false,"switch1Id":1,"switch1Valid":false,"switch2Id":1,"switch2Valid":false,"variableId":1,"variableValid":false,"variableValue":0},"directionFix":true,"image":{"tileId":0,"characterName":"!Other2","direction":2,"pattern":0,"characterIndex":0},"list":[{"code":0,"indent":0,"parameters":[]}],"moveFrequency":3,"moveRoute":{"list":[{"code":0,"parameters":[]}],"repeat":true,"skippable":false,"wait":false},"moveSpeed":3,"moveType":0,"priorityType":1,"stepAnime":true,"through":false,"trigger":0,"walkAnime":true}],"x":5,"y":4},
{"id":3,"name":"EV003","note":"","pages":[{"conditions":{"actorId":1,"actorValid":false,"itemId":1,"itemValid":false,"selfSwitchCh":"A","selfSwitchValid":false,"switch1Id":1,"switch1Valid":false,"switch2Id":1,"switch2Valid":false,"variableId":1,"variableValid":false,"variableValue":0},"directionFix":true,"image":{"tileId":0,"characterName":"!Other2","direction":8,"pattern":0,"characterIndex":0},"list":[{"code":0,"indent":0,"parameters":[]}],"moveFrequency":3,"moveRoute":{"list":[{"code":0,"parameters":[]}],"repeat":true,"skippable":false,"wait":false},"moveSpeed":3,"moveType":0,"priorityType":1,"stepAnime":true,"through":false,"trigger":0,"walkAnime":true}],"x":25,"y":8},
{"id":4,"name":"EV004","note":"","pages":[{"conditions":{"actorId":1,"actorValid":false,"itemId":1,"itemValid":false,"selfSwitchCh":"A","selfSwitchValid":false,"switch1Id":1,"switch1Valid":false,"switch2Id":1,"switch2Valid":false,"variableId":1,"variableValid":false,"variableValue":0},"directionFix":true,"image":{"tileId":0,"characterName":"!Other2","direction":8,"pattern":0,"characterIndex":0},"list":[{"code":0,"indent":0,"parameters":[]}],"moveFrequency":3,"moveRoute":{"list":[{"code":0,"parameters":[]}],"repeat":true,"skippable":false,"wait":false},"moveSpeed":3,"moveType":0,"priorityType":1,"stepAnime":true,"through":false,"trigger":0,"walkAnime":true}],"x":5,"y":2},
{"id":5,"name":"EV005","note":"","pages":[{"conditions":{"actorId":1,"actorValid":false,"itemId":1,"itemValid":false,"selfSwitchCh":"A","selfSwitchValid":false,"switch1Id":1,"switch1Valid":false,"switch2Id":1,"switch2Valid":false,"variableId":1,"variableValid":false,"variableValue":0},"directionFix":false,"image":{"characterIndex":0,"characterName":"","direction":2,"pattern":0,"tileId":0},"list":[{"code":201,"indent":0,"parameters":[0,27,20,60,0,0]},{"code":0,"indent":0,"parameters":[]}],"moveFrequency":3,"moveRoute":{"list":[{"code":0,"parameters":[]}],"repeat":true,"skippable":false,"wait":false},"moveSpeed":3,"moveType":0,"priorityType":0,"stepAnime":false,"through":false,"trigger":1,"walkAnime":true}],"x":13,"y":29},
{"id":6,"name":"EV006","note":"","pages":[{"conditions":{"actorId":1,"actorValid":false,"itemId":1,"itemValid":false,"selfSwitchCh":"A","selfSwitchValid":false,"switch1Id":1,"switch1Valid":false,"switch2Id":1,"switch2Valid":false,"variableId":1,"variableValid":false,"variableValue":0},"directionFix":false,"image":{"characterIndex":0,"characterName":"","direction":2,"pattern":0,"tileId":0},"list":[{"code":201,"indent":0,"parameters":[0,27,20,60,0,0]},{"code":0,"indent":0,"parameters":[]}],"moveFrequency":3,"moveRoute":{"list":[{"code":0,"parameters":[]}],"repeat":true,"skippable":false,"wait":false},"moveSpeed":3,"moveType":0,"priorityType":0,"stepAnime":false,"through":false,"trigger":1,"walkAnime":true}],"x":12,"y":29},
{"id":7,"name":"EV007","note":"","pages":[{"conditions":{"actorId":1,"actorValid":false,"itemId":1,"itemValid":false,"selfSwitchCh":"A","selfSwitchValid":false,"switch1Id":1,"switch1Valid":false,"switch2Id":1,"switch2Valid":false,"variableId":1,"variableValid":false,"variableValue":0},"directionFix":false,"image":{"characterIndex":0,"characterName":"","direction":2,"pattern":0,"tileId":0},"list":[{"code":201,"indent":0,"parameters":[0,27,20,60,0,0]},{"code":0,"indent":0,"parameters":[]}],"moveFrequency":3,"moveRoute":{"list":[{"code":0,"parameters":[]}],"repeat":true,"skippable":false,"wait":false},"moveSpeed":3,"moveType":0,"priorityType":0,"stepAnime":false,"through":false,"trigger":1,"walkAnime":true}],"x":14,"y":29},
{"id":8,"name":"EV008","note":"","pages":[{"conditions":{"actorId":1,"actorValid":false,"itemId":1,"itemValid":false,"selfSwitchCh":"A","selfSwitchValid":false,"switch1Id":1,"switch1Valid":false,"switch2Id":1,"switch2Valid":false,"variableId":1,"variableValid":false,"variableValue":0},"directionFix":false,"image":{"characterIndex":0,"characterName":"","direction":2,"pattern":0,"tileId":0},"list":[{"code":201,"indent":0,"parameters":[0,28,19,39,0,0]},{"code":0,"indent":0,"parameters":[]}],"moveFrequency":3,"moveRoute":{"list":[{"code":0,"parameters":[]}],"repeat":true,"skippable":false,"wait":false},"moveSpeed":3,"moveType":0,"priorityType":0,"stepAnime":false,"through":false,"trigger":1,"walkAnime":true}],"x":13,"y":0},
{"id":9,"name":"EV009","note":"","pages":[{"conditions":{"actorId":1,"actorValid":false,"itemId":1,"itemValid":false,"selfSwitchCh":"A","selfSwitchValid":false,"switch1Id":1,"switch1Valid":false,"switch2Id":1,"switch2Valid":false,"variableId":1,"variableValid":false,"variableValue":0},"directionFix":false,"image":{"characterIndex":0,"characterName":"","direction":2,"pattern":0,"tileId":0},"list":[{"code":201,"indent":0,"parameters":[0,28,19,39,0,0]},{"code":0,"indent":0,"parameters":[]}],"moveFrequency":3,"moveRoute":{"list":[{"code":0,"parameters":[]}],"repeat":true,"skippable":false,"wait":false},"moveSpeed":3,"moveType":0,"priorityType":0,"stepAnime":false,"through":false,"trigger":1,"walkAnime":true}],"x":12,"y":0},
{"id":10,"name":"EV010","note":"","pages":[{"conditions":{"actorId":1,"actorValid":false,"itemId":1,"itemValid":false,"selfSwitchCh":"A","selfSwitchValid":false,"switch1Id":1,"switch1Valid":false,"switch2Id":1,"switch2Valid":false,"variableId":1,"variableValid":false,"variableValue":0},"directionFix":false,"image":{"characterIndex":0,"characterName":"","direction":2,"pattern":0,"tileId":0},"list":[{"code":201,"indent":0,"parameters":[0,28,19,39,0,0]},{"code":0,"indent":0,"parameters":[]}],"moveFrequency":3,"moveRoute":{"list":[{"code":0,"parameters":[]}],"repeat":true,"skippable":false,"wait":false},"moveSpeed":3,"moveType":0,"priorityType":0,"stepAnime":false,"through":false,"trigger":1,"walkAnime":true}],"x":14,"y":0},
{"id":11,"name":"EV011","note":"","pages":[{"conditions":{"actorId":1,"actorValid":false,"itemId":1,"itemValid":false,"selfSwitchCh":"A","selfSwitchValid":false,"switch1Id":1,"switch1Valid":false,"switch2Id":1,"switch2Valid":false,"variableId":1,"variableValid":false,"variableValue":0},"directionFix":false,"image":{"characterIndex":0,"characterName":"","direction":2,"pattern":0,"tileId":0},"list":[{"code":111,"indent":0,"parameters":[4,2,0]},{"code":101,"indent":1,"parameters":["Chanel",3,0,2]},{"code":401,"indent":1,"parameters":["Essas árvores estão bem mais bonitas que o normal.\\. Por que que o jogo todo não é assim?"]},{"code":0,"indent":1,"parameters":[]},{"code":411,"indent":0,"parameters":[]},{"code":101,"indent":1,"parameters":["Hulk",1,0,2]},{"code":401,"indent":1,"parameters":["Esse mapa ficou bonito\\., hein Barbosinha?\\. Por que que você não fez tudo assim?"]},{"code":0,"indent":1,"parameters":[]},{"code":412,"indent":0,"parameters":[]},{"code":101,"indent":0,"parameters":["Barbosa_Faces",1,0,2]},{"code":401,"indent":0,"parameters":["Por que que vocês não aproveitam e vão tomar no cu então?"]},{"code":101,"indent":0,"parameters":["Hulk",2,0,2]},{"code":401,"indent":0,"parameters":["Ih\\., ah lá!\\| Todo estressadinho."]},{"code":101,"indent":0,"parameters":["Barbosa_Faces",0,0,2]},{"code":401,"indent":0,"parameters":["Vocês querem que o jogo fique bonito ou que saia em 2020?"]},{"code":123,"indent":0,"parameters":["A",0]},{"code":0,"indent":0,"parameters":[]}],"moveFrequency":3,"moveRoute":{"list":[{"code":0,"parameters":[]}],"repeat":true,"skippable":false,"wait":false},"moveSpeed":3,"moveType":0,"priorityType":0,"stepAnime":false,"through":false,"trigger":3,"walkAnime":true},{"conditions":{"actorId":1,"actorValid":false,"itemId":1,"itemValid":false,"selfSwitchCh":"A","selfSwitchValid":true,"switch1Id":1,"switch1Valid":false,"switch2Id":1,"switch2Valid":false,"variableId":1,"variableValid":false,"variableValue":0},"directionFix":false,"image":{"characterIndex":0,"characterName":"","direction":2,"pattern":0,"tileId":0},"list":[{"code":0,"indent":0,"parameters":[]}],"moveFrequency":3,"moveRoute":{"list":[{"code":0,"parameters":[]}],"repeat":true,"skippable":false,"wait":false},"moveSpeed":3,"moveType":0,"priorityType":0,"stepAnime":false,"through":false,"trigger":0,"walkAnime":true},{"conditions":{"actorId":1,"actorValid":false,"itemId":1,"itemValid":false,"selfSwitchCh":"A","selfSwitchValid":false,"switch1Id":541,"switch1Valid":true,"switch2Id":1,"switch2Valid":false,"variableId":1,"variableValid":false,"variableValue":0},"directionFix":false,"image":{"characterIndex":0,"characterName":"","direction":2,"pattern":0,"tileId":0},"list":[{"code":117,"indent":0,"parameters":[239]},{"code":123,"indent":0,"parameters":["B",0]},{"code":0,"indent":0,"parameters":[]}],"moveFrequency":3,"moveRoute":{"list":[{"code":0,"parameters":[]}],"repeat":true,"skippable":false,"wait":false},"moveSpeed":3,"moveType":0,"priorityType":0,"stepAnime":false,"through":false,"trigger":3,"walkAnime":true},{"conditions":{"actorId":1,"actorValid":false,"itemId":1,"itemValid":false,"selfSwitchCh":"B","selfSwitchValid":true,"switch1Id":1,"switch1Valid":false,"switch2Id":1,"switch2Valid":false,"variableId":1,"variableValid":false,"variableValue":0},"directionFix":false,"image":{"characterIndex":0,"characterName":"","direction":2,"pattern":0,"tileId":0},"list":[{"code":0,"indent":0,"parameters":[]}],"moveFrequency":3,"moveRoute":{"list":[{"code":0,"parameters":[]}],"repeat":true,"skippable":false,"wait":false},"moveSpeed":3,"moveType":0,"priorityType":0,"stepAnime":false,"through":false,"trigger":0,"walkAnime":true}],"x":0,"y":0},
{"id":12,"name":"EV012","note":"","pages":[{"conditions":{"actorId":1,"actorValid":false,"itemId":1,"itemValid":false,"selfSwitchCh":"A","selfSwitchValid":false,"switch1Id":1,"switch1Valid":false,"switch2Id":1,"switch2Valid":false,"variableId":1,"variableValid":false,"variableValue":0},"directionFix":false,"image":{"characterIndex":0,"characterName":"","direction":2,"pattern":0,"tileId":0},"list":[{"code":101,"indent":0,"parameters":["Cabide_Faces",3,0,2]},{"code":401,"indent":0,"parameters":["Por esse camihno é onde fciam as critauras mais exóticas da frloesta..."]},{"code":101,"indent":0,"parameters":["Barbosa_Faces",3,0,2]},{"code":401,"indent":0,"parameters":["Aacho que a gente não precisa ir pra lá por enquanto."]},{"code":101,"indent":0,"parameters":["Barbosa_Faces",1,0,2]},{"code":401,"indent":0,"parameters":["Mas quem sabe mais tarde.\\. Hein, hein?"]},{"code":0,"indent":0,"parameters":[]}],"moveFrequency":3,"moveRoute":{"list":[{"code":0,"parameters":[]}],"repeat":true,"skippable":false,"wait":false},"moveSpeed":3,"moveType":0,"priorityType":0,"stepAnime":false,"through":false,"trigger":1,"walkAnime":true},{"conditions":{"actorId":1,"actorValid":false,"itemId":1,"itemValid":false,"selfSwitchCh":"A","selfSwitchValid":false,"switch1Id":36,"switch1Valid":true,"switch2Id":1,"switch2Valid":false,"variableId":72,"variableValid":false,"variableValue":0},"directionFix":false,"image":{"characterIndex":0,"characterName":"","direction":2,"pattern":0,"tileId":0},"list":[{"code":101,"indent":0,"parameters":["Cabide_Faces",1,0,2]},{"code":401,"indent":0,"parameters":["Ei\\., Exemplo\\., tlavez a gente econntre algum dauqeles seus Porcos por aqui."]},{"code":101,"indent":0,"parameters":["Exemplo_Faces",1,0,2]},{"code":401,"indent":0,"parameters":["Opa\\., o que estamos esperando??"]},{"code":201,"indent":0,"parameters":[0,89,0,14,0,0]},{"code":123,"indent":0,"parameters":["A",0]},{"code":230,"indent":0,"parameters":[60]},{"code":101,"indent":0,"parameters":["Exemplo_Faces2",1,0,2]},{"code":401,"indent":0,"parameters":["Ahá!!!!\\. Eles existem\\., eles existem!!!"]},{"code":101,"indent":0,"parameters":["Bon Jovi_Faces",0,0,2]},{"code":401,"indent":0,"parameters":["Você tava em dúvida\\., seu filha da puta??"]},{"code":101,"indent":0,"parameters":["Exemplo_Faces",7,0,2]},{"code":401,"indent":0,"parameters":["\\| Não\\., claro que não.\\. Eu sabia que existiam."]},{"code":0,"indent":0,"parameters":[]}],"moveFrequency":3,"moveRoute":{"list":[{"code":0,"parameters":[]}],"repeat":true,"skippable":false,"wait":false},"moveSpeed":3,"moveType":0,"priorityType":0,"stepAnime":false,"through":false,"trigger":1,"walkAnime":true},{"conditions":{"actorId":1,"actorValid":false,"itemId":1,"itemValid":false,"selfSwitchCh":"A","selfSwitchValid":true,"switch1Id":1,"switch1Valid":false,"switch2Id":1,"switch2Valid":false,"variableId":1,"variableValid":false,"variableValue":0},"directionFix":false,"image":{"characterIndex":0,"characterName":"","direction":2,"pattern":0,"tileId":0},"list":[{"code":201,"indent":0,"parameters":[0,89,0,14,0,0]},{"code":0,"indent":0,"parameters":[]}],"moveFrequency":3,"moveRoute":{"list":[{"code":0,"parameters":[]}],"repeat":true,"skippable":false,"wait":false},"moveSpeed":3,"moveType":0,"priorityType":0,"stepAnime":false,"through":false,"trigger":1,"walkAnime":true}],"x":29,"y":17},
null
]
}