{
"autoplayBgm":false,"autoplayBgs":false,"battleback1Name":"","battleback2Name":"","bgm":{"name":"","pan":0,"pitch":100,"volume":90},"bgs":{"name":"","pan":0,"pitch":100,"volume":90},"disableDashing":false,"displayName":"Svenson's Ltda","encounterList":[],"encounterStep":30,"height":15,"note":"","parallaxLoopX":false,"parallaxLoopY":false,"parallaxName":"","parallaxShow":true,"parallaxSx":0,"parallaxSy":0,"scrollType":0,"specifyBattleback":false,"tilesetId":13,"width":22,
"data":[7428,7452,7452,7452,7452,7436,7452,7452,7452,7452,7452,7452,7452,7452,7436,7452,7452,7452,7452,7452,7452,7432,7448,7810,7810,7810,7810,7456,7810,7810,7810,7810,7810,7810,7810,7810,7456,7810,7810,7810,7810,7810,7810,7440,7448,7816,7816,7816,7816,7456,7816,7816,7816,7816,7816,7816,7816,7816,7456,7816,7816,7816,7816,7816,7816,7440,7448,3714,3700,3700,3716,7456,3714,3700,3700,3700,3700,3700,3700,3716,7456,3714,3700,3700,3700,3700,3716,7440,7448,3696,3684,3708,3718,7456,3696,3680,3680,3680,3680,3680,3680,3704,7456,3696,3680,3680,3680,3680,3704,7440,7448,3696,3704,7467,7457,7463,3696,3680,3680,3680,3680,3680,3680,3704,7468,3696,3680,3680,3680,3680,3704,7440,7448,3696,3704,7811,7810,7814,3696,3680,3680,3680,3680,3680,3680,3704,7815,3696,3680,3680,3680,3680,3704,7440,7448,3696,3704,7817,7816,7820,3696,3680,3680,3680,3680,3680,3680,3704,7821,3696,3680,3680,3680,3680,3704,7440,7448,3696,3682,3700,3700,3700,3681,3680,3680,3680,3680,3680,3680,3682,3700,3681,3680,3680,3680,3680,3704,7440,7448,3696,3680,3680,3680,3680,3680,3680,3680,3680,3680,3680,3680,3680,3680,3680,3680,3680,3680,3680,3704,7440,7448,3696,3680,3680,3680,3680,3680,3680,3680,3680,3680,3680,3680,3680,3680,3680,3680,3680,3680,3680,3704,7440,7448,3696,3680,3680,3680,3680,3680,3680,3680,3680,3680,3680,3680,3680,3680,3680,3680,3680,3680,3680,3704,7440,7448,3696,3680,3680,3680,3680,3680,3680,3680,3680,3680,3680,3680,3680,3680,3680,3680,3680,3680,3680,3704,7440,7448,3720,3708,3708,3708,3708,3708,3708,3708,3688,3684,3708,3708,3708,3708,3708,3708,3708,3708,3708,3718,7440,7426,7444,7444,7444,7444,7444,7444,7444,7460,3696,3704,7458,7444,7444,7444,7444,7444,7444,7444,7444,7444,7425,0,0,0,0,0,0,0,0,0,0,0,0,0,0,0,0,0,0,0,0,0,0,0,0,0,0,0,0,0,0,0,0,0,0,0,0,0,0,0,0,0,0,0,0,0,0,0,0,0,0,0,0,0,0,0,0,0,0,0,0,0,0,0,0,0,0,0,0,0,0,0,0,0,0,0,0,0,0,0,0,0,0,0,0,0,0,0,0,0,0,0,0,0,0,0,0,0,0,0,0,0,0,0,0,0,0,0,0,0,0,0,0,0,0,0,0,0,0,0,0,0,0,0,0,0,0,0,0,0,0,0,0,0,0,0,0,0,0,0,0,0,0,0,0,0,0,0,0,0,0,0,0,0,0,0,0,0,0,0,0,0,0,0,0,0,0,0,0,0,0,0,0,0,0,0,0,0,0,0,0,0,0,0,0,0,0,0,0,0,0,0,0,0,0,0,0,0,0,0,0,0,0,0,0,0,0,0,0,0,0,0,0,0,0,0,0,0,0,0,0,0,0,0,0,0,0,0,0,0,0,0,0,0,0,0,0,0,0,0,0,0,0,0,0,0,0,0,0,0,0,0,0,0,0,0,0,0,0,0,0,0,0,0,0,0,0,0,0,0,0,0,0,0,0,0,0,0,0,0,0,0,0,0,0,0,0,0,0,0,0,0,0,0,0,0,0,0,0,0,0,0,0,0,0,0,0,0,0,0,0,0,0,0,0,0,0,0,0,0,0,0,0,0,0,0,0,0,0,0,0,0,0,0,0,0,0,0,0,0,0,0,0,0,0,0,0,0,0,0,0,0,0,0,0,0,0,0,0,0,0,0,0,0,0,0,0,0,0,0,0,0,0,0,0,0,0,589,0,0,0,0,0,0,0,0,0,0,0,0,0,0,0,0,0,0,0,0,0,632,0,0,0,913,914,0,913,914,0,913,914,0,0,0,0,0,0,0,0,0,0,0,0,0,0,0,0,0,0,0,0,0,0,0,0,0,0,0,0,0,0,0,0,0,0,0,0,0,914,0,913,914,0,0,0,0,0,0,0,0,0,0,0,0,0,0,0,0,0,0,0,0,0,0,0,0,0,0,0,0,0,0,0,0,0,0,0,0,0,0,0,0,0,0,0,0,0,0,0,0,0,0,0,0,0,0,0,0,0,0,0,0,0,0,0,0,0,0,0,0,0,0,0,0,0,0,0,0,0,0,0,0,0,0,0,0,0,0,0,0,0,0,0,0,0,0,0,0,0,0,0,0,0,0,0,0,0,0,0,0,0,0,0,0,0,0,0,0,0,0,0,0,0,0,0,0,0,0,0,0,0,0,0,0,0,0,0,0,0,0,0,0,934,0,0,0,0,942,0,0,942,0,0,0,0,0,0,0,0,0,942,0,0,0,942,0,0,0,0,0,0,0,0,0,0,0,0,0,0,0,0,0,0,0,0,0,0,0,0,0,0,0,0,0,0,0,0,0,0,0,0,0,0,0,0,0,0,0,0,0,0,0,0,0,0,0,0,0,0,0,0,0,0,0,0,0,0,0,0,0,0,0,0,0,0,819,617,618,0,0,0,819,0,0,819,0,0,0,835,836,837,0,0,0,0,0,0,827,625,626,0,0,0,827,0,0,827,0,0,0,843,844,845,0,898,951,0,0,616,597,633,634,0,897,333,0,329,261,0,337,899,0,851,852,853,0,906,959,0,0,616,0,0,0,0,905,0,0,0,0,0,0,907,0,950,899,0,0,0,967,0,0,0,0,0,0,0,913,322,0,897,352,0,913,914,0,958,907,0,0,0,0,0,0,0,0,0,172,0,0,0,0,905,0,0,0,0,172,966,0,0,0,0,0,0,0,0,0,806,0,986,0,0,0,0,0,0,0,0,0,0,0,0,0,0,0,0,0,0,0,814,0,994,0,0,0,0,0,0,0,0,0,0,0,0,0,0,0,0,0,0,0,0,0,0,0,0,0,0,0,0,0,0,0,0,0,0,0,0,0,0,0,0,0,0,0,0,0,0,0,0,0,0,0,0,0,0,0,0,0,0,0,0,0,933,934,935,933,934,935,0,1014,0,0,1014,0,0,933,934,935,0,933,897,935,0,0,941,897,943,941,897,943,0,1022,0,0,1022,0,0,941,897,943,0,941,905,943,0,0,0,905,0,0,905,0,0,0,0,0,0,0,0,0,905,0,0,0,0,0,0,0,0,0,0,0,0,0,0,0,0,0,0,0,0,0,0,0,0,0,0,0,0,0,0,0,0,0,0,0,0,0,0,0,0,0,0,0,0,0,0,0,0,0,0,0,0,0,0,0,0,0,0,0,0,0,0,0,0,0,0,0,0,0,0,0,0,0,0,0,0,0,0,0,0,0,0,0,0,0,0,0,0,0,0,0,0,0,0,0,5,0,0,0,0,5,0,0,0,0,0,0,0,0,5,0,0,0,0,0,0,0,5,0,0,0,0,5,0,0,0,0,0,0,0,0,5,0,0,0,0,0,0,0,5,0,0,0,0,5,0,0,0,0,0,0,0,0,5,0,0,0,0,0,0,0,5,0,0,0,0,5,0,0,0,0,0,0,0,0,5,0,0,0,0,0,0,0,5,0,0,0,0,5,0,0,0,0,0,0,0,0,5,0,0,0,0,0,0,0,5,0,0,0,0,0,0,0,0,0,0,0,0,0,0,0,0,0,0,0,0,0,5,0,0,0,0,0,0,0,0,0,0,0,0,0,0,0,0,0,0,0,0,0,5,0,0,0,0,0,0,0,0,0,0,0,0,0,0,0,0,0,0,0,0,0,5,0,0,0,0,0,0,0,0,0,0,0,0,0,0,0,0,0,0,0,0,0,5,0,0,0,0,0,0,0,0,0,0,0,0,0,0,0,0,0,0,0,0,0,5,0,0,0,0,0,0,0,0,0,0,0,0,0,0,0,0,0,0,0,0,0,0,0,0,0,0,0,0,0,0,0,0,0,0,0,0,0,0,0,0,0,0,0,0,0,0,0,0,0,0,0,0,0,0,0,0,0,0,0,0,0,0,0,0,0,0,0,0,0,0,0,0,0,0,0,0,0,0,0,0,0,0,0,0,0,0,0,0,0,0,0,0,0,0,0,0,0,0,0,0,0,0,0,0,0,0,0,0,0,0,0,0,0,0,0,0,0,0,0,0,0,0,0,0,0,0,0,0,0,0,0,0,0,0,0,0,0,0,0,0,0,0,0,0,0,0,0,0,0,0,0,0,0,0,0,0,0,0,0,0,0,0,0,0,0,0,0,0,0,0,0,0,0,0,0,0,0,0,0,0,0,0,0,0,0,0,0,0,0,0,0,0,0,0,0,0,0,0,0,0,0,0,0,0,0,0,0,0,0,0,0,0,0,0,0,0,0,0,0,0,0,0,0,0,0,0,0,0,0,0,0,0,0,0,0,0,0,0,0,0,0,0,0,0,0,0,0,0,0,0,0,0,0,0,0,0,0,0,0,0,0,0,0,0,0,0,0,0,0,0,0,0,0,0,0,0,0,0,0,0,0,0,0,0,0,0,0,0,0,0,0,0,0,0,0,0,0,0,0,0,0,0,0,0,0,0,0,0,0,0,0,0,0,0,0,0,0,0,0,0,0,0,0,0,0,0,0,0,0,0,0,0,0,0,0,0,0,0,0,0,0,0,0,0,0,0,0,0,0,0,0,0,0,0,0,0,0,0,0,0,0,0,0,0,0,0,0,0,0,0,0,0],
"events":[
null,
{"id":1,"name":"EV001","note":"","pages":[{"conditions":{"actorId":1,"actorValid":false,"itemId":1,"itemValid":false,"selfSwitchCh":"A","selfSwitchValid":false,"switch1Id":1,"switch1Valid":false,"switch2Id":1,"switch2Valid":false,"variableId":1,"variableValid":false,"variableValue":0},"directionFix":false,"image":{"tileId":0,"characterName":"People4","direction":8,"pattern":1,"characterIndex":6},"list":[{"code":0,"indent":0,"parameters":[]}],"moveFrequency":3,"moveRoute":{"list":[{"code":0,"parameters":[]}],"repeat":true,"skippable":false,"wait":false},"moveSpeed":3,"moveType":0,"priorityType":1,"stepAnime":false,"through":false,"trigger":0,"walkAnime":true}],"x":2,"y":5},
{"id":2,"name":"EV002","note":"","pages":[{"conditions":{"actorId":1,"actorValid":false,"itemId":1,"itemValid":false,"selfSwitchCh":"A","selfSwitchValid":false,"switch1Id":1,"switch1Valid":false,"switch2Id":1,"switch2Valid":false,"variableId":1,"variableValid":false,"variableValue":0},"directionFix":false,"image":{"tileId":0,"characterName":"People4","direction":8,"pattern":1,"characterIndex":6},"list":[{"code":0,"indent":0,"parameters":[]}],"moveFrequency":5,"moveRoute":{"list":[{"code":0,"parameters":[]}],"repeat":true,"skippable":false,"wait":false},"moveSpeed":4,"moveType":1,"priorityType":1,"stepAnime":false,"through":false,"trigger":0,"walkAnime":true}],"x":3,"y":4},
{"id":3,"name":"EV003","note":"","pages":[{"conditions":{"actorId":1,"actorValid":false,"itemId":1,"itemValid":false,"selfSwitchCh":"A","selfSwitchValid":false,"switch1Id":1,"switch1Valid":false,"switch2Id":1,"switch2Valid":false,"variableId":1,"variableValid":false,"variableValue":0},"directionFix":false,"image":{"characterIndex":0,"characterName":"","direction":2,"pattern":0,"tileId":0},"list":[{"code":201,"indent":0,"parameters":[0,108,9,26,0,0]},{"code":0,"indent":0,"parameters":[]}],"moveFrequency":3,"moveRoute":{"list":[{"code":0,"parameters":[]}],"repeat":true,"skippable":false,"wait":false},"moveSpeed":3,"moveType":0,"priorityType":0,"stepAnime":false,"through":false,"trigger":1,"walkAnime":true}],"x":10,"y":14},
{"id":4,"name":"EV004","note":"","pages":[{"conditions":{"actorId":1,"actorValid":false,"itemId":1,"itemValid":false,"selfSwitchCh":"A","selfSwitchValid":false,"switch1Id":1,"switch1Valid":false,"switch2Id":1,"switch2Valid":false,"variableId":1,"variableValid":false,"variableValue":0},"directionFix":false,"image":{"characterIndex":0,"characterName":"","direction":2,"pattern":0,"tileId":0},"list":[{"code":201,"indent":0,"parameters":[0,108,9,26,0,0]},{"code":0,"indent":0,"parameters":[]}],"moveFrequency":3,"moveRoute":{"list":[{"code":0,"parameters":[]}],"repeat":true,"skippable":false,"wait":false},"moveSpeed":3,"moveType":0,"priorityType":0,"stepAnime":false,"through":false,"trigger":1,"walkAnime":true}],"x":9,"y":14},
{"id":5,"name":"EV005","note":"","pages":[{"conditions":{"actorId":1,"actorValid":false,"itemId":1,"itemValid":false,"selfSwitchCh":"A","selfSwitchValid":false,"switch1Id":1,"switch1Valid":false,"switch2Id":1,"switch2Valid":false,"variableId":1,"variableValid":false,"variableValue":0},"directionFix":false,"image":{"tileId":0,"characterName":"People4","direction":8,"pattern":1,"characterIndex":6},"list":[{"code":0,"indent":0,"parameters":[]}],"moveFrequency":3,"moveRoute":{"list":[{"code":0,"parameters":[]}],"repeat":true,"skippable":false,"wait":false},"moveSpeed":3,"moveType":0,"priorityType":1,"stepAnime":false,"through":false,"trigger":0,"walkAnime":true}],"x":6,"y":6},
{"id":6,"name":"EV006","note":"","pages":[{"conditions":{"actorId":1,"actorValid":false,"itemId":1,"itemValid":false,"selfSwitchCh":"A","selfSwitchValid":false,"switch1Id":1,"switch1Valid":false,"switch2Id":1,"switch2Valid":false,"variableId":1,"variableValid":false,"variableValue":0},"directionFix":false,"image":{"tileId":0,"characterName":"People4","direction":8,"pattern":1,"characterIndex":6},"list":[{"code":0,"indent":0,"parameters":[]}],"moveFrequency":3,"moveRoute":{"list":[{"code":0,"parameters":[]}],"repeat":true,"skippable":false,"wait":false},"moveSpeed":3,"moveType":0,"priorityType":1,"stepAnime":false,"through":false,"trigger":0,"walkAnime":true}],"x":9,"y":4},
{"id":7,"name":"Baú Ouro","note":"","pages":[{"conditions":{"actorId":1,"actorValid":false,"itemId":1,"itemValid":false,"selfSwitchCh":"A","selfSwitchValid":false,"switch1Id":1,"switch1Valid":false,"switch2Id":1,"switch2Valid":false,"variableId":1,"variableValid":false,"variableValue":0},"directionFix":false,"image":{"tileId":0,"characterName":"Chests","direction":2,"pattern":1,"characterIndex":4},"list":[{"code":125,"indent":0,"parameters":[0,0,500]},{"code":250,"indent":0,"parameters":[{"name":"Chest1","volume":90,"pitch":100,"pan":0}]},{"code":122,"indent":0,"parameters":[271,271,1,0,1]},{"code":356,"indent":0,"parameters":["GabText 500G"]},{"code":356,"indent":0,"parameters":["ShowGab"]},{"code":123,"indent":0,"parameters":["A",0]},{"code":0,"indent":0,"parameters":[]}],"moveFrequency":3,"moveRoute":{"list":[{"code":0,"parameters":[]}],"repeat":true,"skippable":false,"wait":false},"moveSpeed":3,"moveType":0,"priorityType":1,"stepAnime":false,"through":false,"trigger":0,"walkAnime":true},{"conditions":{"actorId":1,"actorValid":false,"itemId":1,"itemValid":false,"selfSwitchCh":"A","selfSwitchValid":true,"switch1Id":1,"switch1Valid":false,"switch2Id":1,"switch2Valid":false,"variableId":1,"variableValid":false,"variableValue":0},"directionFix":false,"image":{"tileId":0,"characterName":"Chests","direction":8,"pattern":1,"characterIndex":4},"list":[{"code":0,"indent":0,"parameters":[]}],"moveFrequency":3,"moveRoute":{"list":[{"code":0,"parameters":[]}],"repeat":true,"skippable":false,"wait":false},"moveSpeed":3,"moveType":0,"priorityType":1,"stepAnime":false,"through":false,"trigger":0,"walkAnime":true}],"x":14,"y":8},
{"id":8,"name":"EV008","note":"","pages":[{"conditions":{"actorId":1,"actorValid":false,"itemId":1,"itemValid":false,"selfSwitchCh":"A","selfSwitchValid":false,"switch1Id":1,"switch1Valid":false,"switch2Id":1,"switch2Valid":false,"variableId":1,"variableValid":false,"variableValue":0},"directionFix":false,"image":{"tileId":0,"characterName":"People4","direction":2,"pattern":1,"characterIndex":6},"list":[{"code":0,"indent":0,"parameters":[]}],"moveFrequency":5,"moveRoute":{"list":[{"code":0,"parameters":[]}],"repeat":true,"skippable":false,"wait":false},"moveSpeed":4,"moveType":1,"priorityType":1,"stepAnime":false,"through":false,"trigger":0,"walkAnime":true}],"x":5,"y":9},
{"id":9,"name":"EV009","note":"","pages":[{"conditions":{"actorId":1,"actorValid":false,"itemId":1,"itemValid":false,"selfSwitchCh":"A","selfSwitchValid":false,"switch1Id":1,"switch1Valid":false,"switch2Id":1,"switch2Valid":false,"variableId":1,"variableValid":false,"variableValue":0},"directionFix":false,"image":{"tileId":0,"characterName":"People4","direction":2,"pattern":1,"characterIndex":6},"list":[{"code":0,"indent":0,"parameters":[]}],"moveFrequency":5,"moveRoute":{"list":[{"code":0,"parameters":[]}],"repeat":true,"skippable":false,"wait":false},"moveSpeed":4,"moveType":1,"priorityType":1,"stepAnime":false,"through":false,"trigger":0,"walkAnime":true}],"x":16,"y":10},
{"id":10,"name":"EV010","note":"","pages":[{"conditions":{"actorId":1,"actorValid":false,"itemId":1,"itemValid":false,"selfSwitchCh":"A","selfSwitchValid":false,"switch1Id":1,"switch1Valid":false,"switch2Id":1,"switch2Valid":false,"variableId":1,"variableValid":false,"variableValue":0},"directionFix":false,"image":{"tileId":0,"characterName":"People4","direction":2,"pattern":1,"characterIndex":6},"list":[{"code":0,"indent":0,"parameters":[]}],"moveFrequency":5,"moveRoute":{"list":[{"code":0,"parameters":[]}],"repeat":true,"skippable":false,"wait":false},"moveSpeed":4,"moveType":1,"priorityType":1,"stepAnime":false,"through":false,"trigger":0,"walkAnime":true}],"x":12,"y":8},
{"id":11,"name":"EV011","note":"","pages":[{"conditions":{"actorId":1,"actorValid":false,"itemId":1,"itemValid":false,"selfSwitchCh":"A","selfSwitchValid":false,"switch1Id":1,"switch1Valid":false,"switch2Id":1,"switch2Valid":false,"variableId":1,"variableValid":false,"variableValue":0},"directionFix":false,"image":{"tileId":0,"characterName":"Vilões Secundários2","direction":4,"pattern":1,"characterIndex":5},"list":[{"code":108,"indent":0,"parameters":["<Mini Label: Rafael>"]},{"code":101,"indent":0,"parameters":["Leandro_Faces",5,0,2]},{"code":401,"indent":0,"parameters":["\\n<Rafael>"]},{"code":117,"indent":0,"parameters":[388]},{"code":123,"indent":0,"parameters":["A",0]},{"code":0,"indent":0,"parameters":[]}],"moveFrequency":5,"moveRoute":{"list":[{"code":0,"parameters":[]}],"repeat":true,"skippable":false,"wait":false},"moveSpeed":4,"moveType":1,"priorityType":1,"stepAnime":false,"through":false,"trigger":0,"walkAnime":true},{"conditions":{"actorId":1,"actorValid":false,"itemId":1,"itemValid":false,"selfSwitchCh":"A","selfSwitchValid":true,"switch1Id":1,"switch1Valid":false,"switch2Id":1,"switch2Valid":false,"variableId":1,"variableValid":false,"variableValue":0},"directionFix":false,"image":{"tileId":0,"characterName":"Vilões Secundários2","direction":4,"pattern":1,"characterIndex":5},"list":[{"code":108,"indent":0,"parameters":["<Mini Label: Rafael>"]},{"code":101,"indent":0,"parameters":["Leandro_Faces",5,0,2]},{"code":401,"indent":0,"parameters":["\\n<Rafael>"]},{"code":0,"indent":0,"parameters":[]}],"moveFrequency":5,"moveRoute":{"list":[{"code":0,"parameters":[]}],"repeat":true,"skippable":false,"wait":false},"moveSpeed":4,"moveType":1,"priorityType":1,"stepAnime":false,"through":false,"trigger":0,"walkAnime":true}],"x":16,"y":5},
{"id":12,"name":"EV012","note":"","pages":[{"conditions":{"actorId":1,"actorValid":false,"itemId":1,"itemValid":false,"selfSwitchCh":"A","selfSwitchValid":false,"switch1Id":1,"switch1Valid":false,"switch2Id":1,"switch2Valid":false,"variableId":1,"variableValid":false,"variableValue":0},"directionFix":false,"image":{"tileId":0,"characterName":"People4","direction":8,"pattern":1,"characterIndex":6},"list":[{"code":0,"indent":0,"parameters":[]}],"moveFrequency":3,"moveRoute":{"list":[{"code":0,"parameters":[]}],"repeat":true,"skippable":false,"wait":false},"moveSpeed":3,"moveType":0,"priorityType":1,"stepAnime":false,"through":false,"trigger":0,"walkAnime":true}],"x":2,"y":12},
{"id":13,"name":"EV013","note":"","pages":[{"conditions":{"actorId":1,"actorValid":false,"itemId":1,"itemValid":false,"selfSwitchCh":"A","selfSwitchValid":false,"switch1Id":1,"switch1Valid":false,"switch2Id":1,"switch2Valid":false,"variableId":1,"variableValid":false,"variableValue":0},"directionFix":false,"image":{"tileId":0,"characterName":"People4","direction":8,"pattern":1,"characterIndex":6},"list":[{"code":0,"indent":0,"parameters":[]}],"moveFrequency":3,"moveRoute":{"list":[{"code":0,"parameters":[]}],"repeat":true,"skippable":false,"wait":false},"moveSpeed":3,"moveType":0,"priorityType":1,"stepAnime":false,"through":false,"trigger":0,"walkAnime":true}],"x":5,"y":12},
{"id":14,"name":"EV014","note":"","pages":[{"conditions":{"actorId":1,"actorValid":false,"itemId":1,"itemValid":false,"selfSwitchCh":"A","selfSwitchValid":false,"switch1Id":1,"switch1Valid":false,"switch2Id":1,"switch2Valid":false,"variableId":1,"variableValid":false,"variableValue":0},"directionFix":false,"image":{"tileId":0,"characterName":"People4","direction":8,"pattern":1,"characterIndex":6},"list":[{"code":0,"indent":0,"parameters":[]}],"moveFrequency":3,"moveRoute":{"list":[{"code":0,"parameters":[]}],"repeat":true,"skippable":false,"wait":false},"moveSpeed":3,"moveType":0,"priorityType":1,"stepAnime":false,"through":false,"trigger":0,"walkAnime":true}],"x":15,"y":12},
{"id":15,"name":"EV015","note":"","pages":[{"conditions":{"actorId":1,"actorValid":false,"itemId":1,"itemValid":false,"selfSwitchCh":"A","selfSwitchValid":false,"switch1Id":1,"switch1Valid":false,"switch2Id":1,"switch2Valid":false,"variableId":1,"variableValid":false,"variableValue":0},"directionFix":false,"image":{"tileId":0,"characterName":"Vilões Secundários2","direction":6,"pattern":1,"characterIndex":4},"list":[{"code":230,"indent":0,"parameters":[60]},{"code":117,"indent":0,"parameters":[388]},{"code":101,"indent":0,"parameters":["Leandro_Faces",1,0,2]},{"code":401,"indent":0,"parameters":["\\n<Leandro>Quanto o nosso lucro aumentou depois da última recontagem??"]},{"code":101,"indent":0,"parameters":["People4",6,0,2]},{"code":401,"indent":0,"parameters":["\\n<Svenson>3 moedas."]},{"code":101,"indent":0,"parameters":["Leandro_Faces",1,0,2]},{"code":401,"indent":0,"parameters":["\\n<Leandro>\\|Conta de novo.\\. Deve dar pra aumentar mais alguns centavos."]},{"code":123,"indent":0,"parameters":["A",0]},{"code":0,"indent":0,"parameters":[]}],"moveFrequency":3,"moveRoute":{"list":[{"code":0,"parameters":[]}],"repeat":true,"skippable":false,"wait":false},"moveSpeed":3,"moveType":0,"priorityType":1,"stepAnime":false,"through":false,"trigger":3,"walkAnime":true},{"conditions":{"actorId":1,"actorValid":false,"itemId":1,"itemValid":false,"selfSwitchCh":"A","selfSwitchValid":true,"switch1Id":1,"switch1Valid":false,"switch2Id":1,"switch2Valid":false,"variableId":1,"variableValid":false,"variableValue":0},"directionFix":false,"image":{"tileId":0,"characterName":"Vilões Secundários2","direction":6,"pattern":1,"characterIndex":4},"list":[{"code":108,"indent":0,"parameters":["<Mini Label: Leandro>"]},{"code":101,"indent":0,"parameters":["Leandro_Faces",0,0,2]},{"code":401,"indent":0,"parameters":["\\n<Leandro>Fala ae\\., galera\\., beleza?"]},{"code":101,"indent":0,"parameters":["Hulk",4,0,2]},{"code":401,"indent":0,"parameters":["Coé\\., lek\\., te perguntar aqui.\\. Diz pra mim\\., qual é a desses Svensons??"]},{"code":101,"indent":0,"parameters":["Leandro_Faces",3,0,2]},{"code":401,"indent":0,"parameters":["Que que tem eles?"]},{"code":101,"indent":0,"parameters":["Carry_Faces",2,0,2]},{"code":401,"indent":0,"parameters":["Tipo\\. o fato deles serem todos iguais?"]},{"code":101,"indent":0,"parameters":["Leandro_Faces",4,0,2]},{"code":401,"indent":0,"parameters":["Há\\., claro que não\\., cara!\\. Eles não são iguais."]},{"code":101,"indent":0,"parameters":["Bon Jovi_Faces2",1,0,2]},{"code":401,"indent":0,"parameters":["\\.São sim\\., muleke."]},{"code":101,"indent":0,"parameters":["Leandro_Faces",4,0,2]},{"code":401,"indent":0,"parameters":["São nada.\\. Mas e ae\\., querem comprar alguma coisa?"]},{"code":101,"indent":0,"parameters":["Leandro_Faces",2,0,2]},{"code":401,"indent":0,"parameters":["Eu tenho certeza que a gente vai acabar indo à falência nas próximas avaliações.\\. Não tem como\\., fudeu\\., já era. "]},{"code":101,"indent":0,"parameters":["Exemplo_Faces",7,0,2]},{"code":401,"indent":0,"parameters":[""]},{"code":101,"indent":0,"parameters":["Leandro_Faces",4,0,2]},{"code":401,"indent":0,"parameters":["Vai lá\\., vê se alguma coisa ae interessa!"]},{"code":117,"indent":0,"parameters":[59]},{"code":111,"indent":0,"parameters":[4,7,0]},{"code":101,"indent":1,"parameters":["Leandro_Faces",0,0,2]},{"code":401,"indent":1,"parameters":["Ae\\., Daniel\\., eu tenho uma parada pra você. "]},{"code":128,"indent":1,"parameters":[73,0,0,1,false]},{"code":122,"indent":1,"parameters":[270,270,1,0,1]},{"code":117,"indent":1,"parameters":[384]},{"code":250,"indent":1,"parameters":[{"name":"Item1","volume":90,"pitch":100,"pan":0}]},{"code":356,"indent":1,"parameters":["GabText Bracelete das Três Marias adicionado."]},{"code":356,"indent":1,"parameters":["ShowGab"]},{"code":123,"indent":1,"parameters":["C",0]},{"code":0,"indent":1,"parameters":[]},{"code":411,"indent":0,"parameters":[]},{"code":101,"indent":1,"parameters":["Leandro_Faces",0,0,2]},{"code":401,"indent":1,"parameters":["Inclusive\\., vocês viram o Daniel por ae?\\. Se virem\\., avisa que eu tenho uma parada pra entregar pra ele."]},{"code":123,"indent":1,"parameters":["B",0]},{"code":0,"indent":1,"parameters":[]},{"code":412,"indent":0,"parameters":[]},{"code":0,"indent":0,"parameters":[]}],"moveFrequency":3,"moveRoute":{"list":[{"code":0,"parameters":[]}],"repeat":true,"skippable":false,"wait":false},"moveSpeed":3,"moveType":0,"priorityType":1,"stepAnime":false,"through":false,"trigger":0,"walkAnime":true},{"conditions":{"actorId":1,"actorValid":false,"itemId":1,"itemValid":false,"selfSwitchCh":"A","selfSwitchValid":true,"switch1Id":265,"switch1Valid":true,"switch2Id":1,"switch2Valid":false,"variableId":1,"variableValid":false,"variableValue":0},"directionFix":false,"image":{"tileId":0,"characterName":"Vilões Secundários2","direction":6,"pattern":1,"characterIndex":4},"list":[{"code":108,"indent":0,"parameters":["<Mini Label: Leandro>"]},{"code":101,"indent":0,"parameters":["Leandro_Faces",0,0,2]},{"code":401,"indent":0,"parameters":["\\n<Leandro>Fala ae\\., galera\\., beleza?"]},{"code":101,"indent":0,"parameters":["Hulk",4,0,2]},{"code":401,"indent":0,"parameters":["Coé\\., lek\\., te perguntar aqui.\\. Diz pra mim\\., qual é a desses Svensons??"]},{"code":101,"indent":0,"parameters":["Leandro_Faces",3,0,2]},{"code":401,"indent":0,"parameters":["Que que tem eles?"]},{"code":101,"indent":0,"parameters":["Carry_Faces",2,0,2]},{"code":401,"indent":0,"parameters":["Tipo\\. o fato deles serem todos iguais?"]},{"code":101,"indent":0,"parameters":["Leandro_Faces",4,0,2]},{"code":401,"indent":0,"parameters":["Há\\., claro que não\\., cara!\\. Eles não são iguais."]},{"code":101,"indent":0,"parameters":["Bon Jovi_Faces2",1,0,2]},{"code":401,"indent":0,"parameters":["\\.São sim\\., muleke."]},{"code":101,"indent":0,"parameters":["Leandro_Faces",4,0,2]},{"code":401,"indent":0,"parameters":["São nada.\\. Mas e ae\\., querem comprar alguma coisa?"]},{"code":101,"indent":0,"parameters":["Leandro_Faces",2,0,2]},{"code":401,"indent":0,"parameters":["Eu tenho certeza que a gente vai acabar indo à falência nas próximas avaliações.\\. Não tem como\\., fudeu\\., já era. "]},{"code":101,"indent":0,"parameters":["Exemplo_Faces",7,0,2]},{"code":401,"indent":0,"parameters":[""]},{"code":101,"indent":0,"parameters":["Leandro_Faces",4,0,2]},{"code":401,"indent":0,"parameters":["Vai lá\\., vê se alguma coisa ae interessa!"]},{"code":117,"indent":0,"parameters":[59]},{"code":101,"indent":0,"parameters":["Hulk",7,0,2]},{"code":401,"indent":0,"parameters":["Aproveitando\\., o Japa tá lá fora\\., e não tão querendo deixar ele sair só porque ele tá meio chapado..."]},{"code":101,"indent":0,"parameters":["Leandro_Faces",0,0,2]},{"code":401,"indent":0,"parameters":["Ah\\., eu resolvo isso.\\. Pode voltar lá que os guardas já vão ter ido embora."]},{"code":121,"indent":0,"parameters":[476,476,0]},{"code":111,"indent":0,"parameters":[4,7,0]},{"code":101,"indent":1,"parameters":["Leandro_Faces",0,0,2]},{"code":401,"indent":1,"parameters":["Ae\\., Daniel\\., eu tenho uma parada pra você. "]},{"code":122,"indent":1,"parameters":[270,270,1,0,1]},{"code":128,"indent":1,"parameters":[73,0,0,1,false]},{"code":117,"indent":1,"parameters":[384]},{"code":250,"indent":1,"parameters":[{"name":"Item1","volume":90,"pitch":100,"pan":0}]},{"code":356,"indent":1,"parameters":["GabText Bracelete das Três Marias adicionado."]},{"code":356,"indent":1,"parameters":["ShowGab"]},{"code":123,"indent":1,"parameters":["C",0]},{"code":0,"indent":1,"parameters":[]},{"code":411,"indent":0,"parameters":[]},{"code":101,"indent":1,"parameters":["Leandro_Faces",0,0,2]},{"code":401,"indent":1,"parameters":["Inclusive\\., vocês viram o Daniel por ae?\\. Se virem\\., avisa que eu tenho uma parada pra entregar pra ele."]},{"code":123,"indent":1,"parameters":["B",0]},{"code":0,"indent":1,"parameters":[]},{"code":412,"indent":0,"parameters":[]},{"code":0,"indent":0,"parameters":[]}],"moveFrequency":3,"moveRoute":{"list":[{"code":0,"parameters":[]}],"repeat":true,"skippable":false,"wait":false},"moveSpeed":3,"moveType":0,"priorityType":1,"stepAnime":false,"through":false,"trigger":0,"walkAnime":true},{"conditions":{"actorId":1,"actorValid":false,"itemId":1,"itemValid":false,"selfSwitchCh":"B","selfSwitchValid":true,"switch1Id":1,"switch1Valid":false,"switch2Id":1,"switch2Valid":false,"variableId":1,"variableValid":false,"variableValue":0},"directionFix":false,"image":{"tileId":0,"characterName":"Vilões Secundários2","direction":6,"pattern":1,"characterIndex":4},"list":[{"code":117,"indent":0,"parameters":[59]},{"code":101,"indent":0,"parameters":["Hulk",7,0,2]},{"code":401,"indent":0,"parameters":["Aproveitando\\., o Japa tá lá fora\\., e não tão querendo deixar ele sair só porque ele tá meio chapado..."]},{"code":101,"indent":0,"parameters":["Leandro_Faces",0,0,2]},{"code":401,"indent":0,"parameters":["Ah\\., eu resolvo isso.\\. Pode voltar lá que os guardas já vão ter ido embora."]},{"code":121,"indent":0,"parameters":[476,476,0]},{"code":111,"indent":0,"parameters":[4,7,0]},{"code":101,"indent":1,"parameters":["Leandro_Faces",0,0,2]},{"code":401,"indent":1,"parameters":["Ae\\., Daniel\\., eu tenho uma parada pra você. "]},{"code":122,"indent":1,"parameters":[270,270,1,0,1]},{"code":128,"indent":1,"parameters":[73,0,0,1,false]},{"code":117,"indent":1,"parameters":[384]},{"code":250,"indent":1,"parameters":[{"name":"Item1","volume":90,"pitch":100,"pan":0}]},{"code":356,"indent":1,"parameters":["GabText Bracelete das Três Marias adicionado."]},{"code":356,"indent":1,"parameters":["ShowGab"]},{"code":123,"indent":1,"parameters":["C",0]},{"code":0,"indent":1,"parameters":[]},{"code":411,"indent":0,"parameters":[]},{"code":101,"indent":1,"parameters":["Leandro_Faces",0,0,2]},{"code":401,"indent":1,"parameters":["Inclusive\\., vocês viram o Daniel por ae?\\. Se virem\\., avisa que eu tenho uma parada pra entregar pra ele."]},{"code":0,"indent":1,"parameters":[]},{"code":412,"indent":0,"parameters":[]},{"code":0,"indent":0,"parameters":[]}],"moveFrequency":3,"moveRoute":{"list":[{"code":0,"parameters":[]}],"repeat":true,"skippable":false,"wait":false},"moveSpeed":3,"moveType":0,"priorityType":1,"stepAnime":false,"through":false,"trigger":0,"walkAnime":true},{"conditions":{"actorId":1,"actorValid":false,"itemId":1,"itemValid":false,"selfSwitchCh":"B","selfSwitchValid":true,"switch1Id":476,"switch1Valid":true,"switch2Id":1,"switch2Valid":false,"variableId":1,"variableValid":false,"variableValue":0},"directionFix":false,"image":{"tileId":0,"characterName":"Vilões Secundários2","direction":6,"pattern":1,"characterIndex":4},"list":[{"code":117,"indent":0,"parameters":[59]},{"code":111,"indent":0,"parameters":[4,7,0]},{"code":101,"indent":1,"parameters":["Leandro_Faces",0,0,2]},{"code":401,"indent":1,"parameters":["Ae\\., Daniel\\., eu tenho uma parada pra você. "]},{"code":117,"indent":1,"parameters":[384]},{"code":250,"indent":1,"parameters":[{"name":"Item1","volume":90,"pitch":100,"pan":0}]},{"code":122,"indent":1,"parameters":[270,270,1,0,1]},{"code":128,"indent":1,"parameters":[73,0,0,1,false]},{"code":356,"indent":1,"parameters":["GabText Bracelete das Três Marias adicionado."]},{"code":356,"indent":1,"parameters":["ShowGab"]},{"code":123,"indent":1,"parameters":["C",0]},{"code":0,"indent":1,"parameters":[]},{"code":411,"indent":0,"parameters":[]},{"code":101,"indent":1,"parameters":["Leandro_Faces",0,0,2]},{"code":401,"indent":1,"parameters":["Inclusive\\., vocês viram o Daniel por ae?\\. Se virem\\., avisa que eu tenho uma parada pra entregar pra ele."]},{"code":0,"indent":1,"parameters":[]},{"code":412,"indent":0,"parameters":[]},{"code":0,"indent":0,"parameters":[]}],"moveFrequency":3,"moveRoute":{"list":[{"code":0,"parameters":[]}],"repeat":true,"skippable":false,"wait":false},"moveSpeed":3,"moveType":0,"priorityType":1,"stepAnime":false,"through":false,"trigger":0,"walkAnime":true},{"conditions":{"actorId":1,"actorValid":false,"itemId":1,"itemValid":false,"selfSwitchCh":"C","selfSwitchValid":true,"switch1Id":1,"switch1Valid":false,"switch2Id":1,"switch2Valid":false,"variableId":1,"variableValid":false,"variableValue":0},"directionFix":false,"image":{"tileId":0,"characterName":"Vilões Secundários2","direction":6,"pattern":1,"characterIndex":4},"list":[{"code":117,"indent":0,"parameters":[59]},{"code":101,"indent":0,"parameters":["Hulk",7,0,2]},{"code":401,"indent":0,"parameters":["Aproveitando\\., o Japa tá lá fora\\., e não tão querendo deixar ele sair só porque ele tá meio chapado..."]},{"code":101,"indent":0,"parameters":["Leandro_Faces",0,0,2]},{"code":401,"indent":0,"parameters":["Ah\\., eu resolvo isso.\\. Pode voltar lá que os guardas já vão ter ido embora."]},{"code":121,"indent":0,"parameters":[476,476,0]},{"code":0,"indent":0,"parameters":[]}],"moveFrequency":3,"moveRoute":{"list":[{"code":0,"parameters":[]}],"repeat":true,"skippable":false,"wait":false},"moveSpeed":3,"moveType":0,"priorityType":1,"stepAnime":false,"through":false,"trigger":0,"walkAnime":true},{"conditions":{"actorId":1,"actorValid":false,"itemId":1,"itemValid":false,"selfSwitchCh":"C","selfSwitchValid":true,"switch1Id":476,"switch1Valid":true,"switch2Id":1,"switch2Valid":false,"variableId":1,"variableValid":false,"variableValue":0},"directionFix":false,"image":{"tileId":0,"characterName":"Vilões Secundários2","direction":6,"pattern":1,"characterIndex":4},"list":[{"code":117,"indent":0,"parameters":[59]},{"code":0,"indent":0,"parameters":[]}],"moveFrequency":3,"moveRoute":{"list":[{"code":0,"parameters":[]}],"repeat":true,"skippable":false,"wait":false},"moveSpeed":3,"moveType":0,"priorityType":1,"stepAnime":false,"through":false,"trigger":0,"walkAnime":true}],"x":19,"y":3},
{"id":16,"name":"EV016","note":"","pages":[{"conditions":{"actorId":1,"actorValid":false,"itemId":1,"itemValid":false,"selfSwitchCh":"A","selfSwitchValid":false,"switch1Id":1,"switch1Valid":false,"switch2Id":1,"switch2Valid":false,"variableId":1,"variableValid":false,"variableValue":0},"directionFix":false,"image":{"characterIndex":0,"characterName":"","direction":2,"pattern":0,"tileId":0},"list":[{"code":0,"indent":0,"parameters":[]}],"moveFrequency":3,"moveRoute":{"list":[{"code":0,"parameters":[]}],"repeat":true,"skippable":false,"wait":false},"moveSpeed":3,"moveType":0,"priorityType":0,"stepAnime":false,"through":false,"trigger":0,"walkAnime":true}],"x":13,"y":5},
{"id":17,"name":"Funko","note":"","pages":[{"conditions":{"actorId":1,"actorValid":false,"itemId":1,"itemValid":false,"selfSwitchCh":"A","selfSwitchValid":false,"switch1Id":1,"switch1Valid":false,"switch2Id":1,"switch2Valid":false,"variableId":51,"variableValid":false,"variableValue":0},"directionFix":true,"image":{"tileId":0,"characterName":"ECA_Item","direction":2,"pattern":0,"characterIndex":0},"list":[{"code":126,"indent":0,"parameters":[155,0,0,1]},{"code":249,"indent":0,"parameters":[{"name":"Fanfare2","volume":90,"pitch":100,"pan":0}]},{"code":231,"indent":0,"parameters":[1,"Funko_Denso_Monge",0,0,300,50,75,75,255,0]},{"code":101,"indent":0,"parameters":["",0,0,2]},{"code":401,"indent":0,"parameters":["Você encontrou um Funko!<br>"]},{"code":401,"indent":0,"parameters":["\"Denso - Monge\""]},{"code":235,"indent":0,"parameters":[1]},{"code":111,"indent":0,"parameters":[12,"!$gameParty.hasQuest(1)"]},{"code":356,"indent":1,"parameters":["Quest Add 1"]},{"code":356,"indent":1,"parameters":["GabText Missão adicionada: Gotta Catch Em All!"]},{"code":356,"indent":1,"parameters":["ShowGab"]},{"code":0,"indent":1,"parameters":[]},{"code":412,"indent":0,"parameters":[]},{"code":122,"indent":0,"parameters":[270,270,1,0,1]},{"code":122,"indent":0,"parameters":[150,150,1,0,1]},{"code":117,"indent":0,"parameters":[165]},{"code":123,"indent":0,"parameters":["A",0]},{"code":0,"indent":0,"parameters":[]}],"moveFrequency":3,"moveRoute":{"list":[{"code":0,"parameters":[]}],"repeat":true,"skippable":false,"wait":false},"moveSpeed":3,"moveType":0,"priorityType":1,"stepAnime":false,"through":false,"trigger":0,"walkAnime":true},{"conditions":{"actorId":1,"actorValid":false,"itemId":1,"itemValid":false,"selfSwitchCh":"A","selfSwitchValid":true,"switch1Id":150,"switch1Valid":false,"switch2Id":1,"switch2Valid":false,"variableId":1,"variableValid":false,"variableValue":0},"directionFix":false,"image":{"characterIndex":0,"characterName":"","direction":2,"pattern":0,"tileId":0},"list":[{"code":0,"indent":0,"parameters":[]}],"moveFrequency":3,"moveRoute":{"list":[{"code":0,"parameters":[]}],"repeat":true,"skippable":false,"wait":false},"moveSpeed":3,"moveType":0,"priorityType":0,"stepAnime":false,"through":false,"trigger":0,"walkAnime":true}],"x":11,"y":3}
]
}