{
"autoplayBgm":true,"autoplayBgs":true,"battleback1Name":"","battleback2Name":"","bgm":{"name":"","pan":0,"pitch":100,"volume":90},"bgs":{"name":"Wind1","pan":0,"pitch":100,"volume":90},"disableDashing":false,"displayName":"","encounterList":[],"encounterStep":30,"height":13,"note":"","parallaxLoopX":false,"parallaxLoopY":false,"parallaxName":"","parallaxShow":true,"parallaxSx":0,"parallaxSy":0,"scrollType":0,"specifyBattleback":false,"tilesetId":35,"width":40,
"data":[6036,6060,6060,6060,6060,6060,6060,6060,6060,6060,6060,6060,6060,6060,6060,6060,6060,6060,6060,6060,6060,6060,6060,6060,6040,6032,6032,6032,6032,6032,6032,6032,6032,6032,6032,6032,6032,6032,6032,6032,6056,6418,6422,6426,6426,6426,6419,6418,6418,6418,6418,6418,6418,6418,6418,6418,6418,6418,6418,6418,6418,6418,6418,6418,6048,6032,6032,6032,6032,6032,6032,6032,6032,6032,6032,6032,6032,6032,6032,6032,6056,6424,6428,1536,1536,1536,6425,6424,6424,6424,6424,6424,6424,6424,6424,6424,6424,6424,6424,6424,6424,6424,6424,6424,6048,6032,6032,6032,6032,6032,6032,6032,6032,6032,6032,6032,6032,6032,6032,6032,6056,3762,3748,3748,3748,3748,3748,3748,3748,3748,3748,3748,3748,3748,3748,3748,3748,3748,3748,3748,3748,3748,3748,3764,6048,6032,6032,6032,6032,6032,6032,6032,6032,6032,6032,6032,6032,6032,6032,6032,6056,3744,3728,3728,3728,3728,3728,3728,3728,3728,3728,3728,3728,3728,3728,3728,3728,3728,3728,3728,3728,3728,3728,3752,6048,6032,6032,6032,6032,6032,6032,6032,6032,6032,6032,6032,6032,6032,6032,6032,6056,3744,3728,3728,3728,3728,3728,3728,3728,3728,3728,3728,3728,3728,3728,3728,3728,3728,3728,3728,3728,3728,3728,3752,6048,6032,6032,6032,6032,6032,6032,6032,6032,6032,6032,6032,6032,6032,6032,6032,6056,3744,3728,3728,3728,3728,3728,3728,3728,3728,3728,3728,3728,3732,3756,3756,3756,3756,3756,3756,3756,3756,3756,3766,6048,6032,6032,6032,6032,6032,6032,6032,6032,6032,6032,6032,6032,6032,6032,6032,6056,3744,3728,3728,3728,3728,3728,3728,3728,3728,3728,3728,3728,3752,6075,6065,6065,6065,6065,6065,6065,6065,6065,6065,6061,6060,6060,6060,6060,6060,6060,6060,6060,6060,6060,6060,6060,6060,6060,6060,6056,3744,3728,3728,3728,3728,3728,3728,3728,3728,3728,3728,3728,3752,6419,6418,6418,6418,6418,6418,6418,6418,6418,6418,6418,6418,6418,6418,6418,6418,6418,6418,6418,6418,6418,6418,6418,6418,6418,6422,6056,3744,3728,3728,3728,3728,3728,3728,3728,3728,3728,3728,3728,3752,6425,6424,6424,6424,6424,6424,6424,6424,6424,6424,6424,6424,6424,6424,6424,6424,6424,6424,6424,6424,6424,6424,6424,6424,6424,6428,6056,3744,3728,3728,3728,3728,3728,3728,3728,3728,3728,3728,3728,3730,3748,3748,3748,3748,3748,3748,3748,3748,3748,3748,3748,3748,3748,3748,3748,3748,3748,3748,3748,3748,3748,3748,3748,3748,3748,3748,6056,3768,3756,3756,3756,3756,3756,3756,3756,3756,3756,3756,3756,3756,3756,3756,3756,3756,3756,3756,3756,3756,3756,3756,3756,3756,3756,3756,3756,3756,3756,3756,3756,3756,3756,3756,3756,3756,3756,3756,6034,6052,6052,6052,6052,6052,6052,6052,6052,6052,6052,6052,6052,6052,6052,6052,6052,6052,6052,6052,6052,6052,6052,6052,6052,6052,6052,6052,6052,6052,6052,6052,6052,6052,6052,6052,6052,6052,6052,6052,0,0,0,0,0,0,0,0,0,0,0,0,0,0,0,0,0,0,0,0,0,0,0,0,0,0,0,0,0,0,0,0,0,0,0,0,0,0,0,0,0,0,3582,0,0,0,3578,0,0,0,3579,3573,0,0,0,0,0,0,0,0,0,0,0,0,0,0,0,0,0,0,0,0,0,0,0,0,0,0,0,0,0,0,0,0,0,0,3580,0,0,0,0,3577,3569,3581,0,0,0,0,0,0,0,0,0,0,0,0,0,0,0,0,0,0,0,0,0,0,0,0,0,0,0,0,0,3578,0,0,0,0,0,0,0,0,0,0,0,0,0,0,0,0,0,0,0,0,0,0,0,0,0,0,0,0,0,0,0,0,0,0,0,0,0,3579,3558,3562,0,0,0,0,0,0,0,0,0,0,0,0,0,0,0,0,0,0,0,0,0,0,0,0,0,0,0,0,0,0,0,0,0,0,0,0,0,0,3552,3560,0,0,0,0,0,0,0,0,0,0,0,0,0,0,0,0,0,0,0,0,0,0,0,0,0,0,0,0,0,0,0,0,0,0,0,0,0,0,3576,3566,3558,3556,3557,3581,0,0,0,0,0,0,0,0,0,0,0,0,0,0,0,0,0,0,0,0,0,0,0,0,0,0,0,0,0,0,0,0,0,0,0,0,3576,3564,3574,0,0,0,0,0,0,0,0,0,0,0,0,0,0,0,0,0,0,0,0,0,0,0,0,0,0,0,0,0,0,0,0,0,0,0,0,0,0,0,0,0,0,0,0,0,0,0,0,0,0,0,0,0,0,0,0,0,0,0,0,0,0,0,0,0,0,0,0,0,0,0,0,0,0,0,0,0,0,0,0,0,0,0,0,0,0,0,0,0,0,0,0,0,0,0,0,0,0,0,0,0,0,0,0,0,0,0,0,0,0,0,0,0,0,0,0,0,0,0,0,0,0,0,0,0,0,0,0,0,0,0,0,0,0,0,0,0,0,0,0,0,0,0,0,0,0,0,0,0,0,0,0,0,0,0,0,0,0,0,0,0,0,0,0,0,0,0,0,0,0,0,0,0,0,0,0,0,0,0,0,0,0,0,0,0,0,0,0,0,0,0,0,0,0,0,0,0,0,0,0,0,0,0,0,0,0,0,0,0,0,0,0,0,0,0,0,0,0,0,0,0,0,0,0,0,0,0,0,0,0,0,0,0,0,0,0,0,0,0,0,0,0,0,0,0,0,0,0,0,0,0,0,0,0,0,0,0,0,0,0,0,0,0,0,0,0,0,0,0,0,0,0,0,0,0,0,0,0,0,0,0,0,0,0,0,0,0,0,0,0,0,0,0,0,0,0,0,0,0,0,0,0,0,0,0,0,0,0,0,0,0,0,0,0,0,0,0,0,0,0,0,0,0,0,0,0,0,0,0,0,0,0,69,0,0,0,0,0,0,0,0,0,0,0,0,0,0,0,0,0,0,0,0,0,0,0,0,0,0,0,0,0,0,0,0,0,0,0,0,0,0,0,0,0,0,0,0,0,0,0,0,0,0,0,0,0,0,0,0,0,0,0,0,0,0,0,0,0,0,0,0,0,0,0,0,0,0,0,0,0,0,0,0,0,0,0,0,0,0,0,0,0,0,0,0,0,0,0,0,0,0,0,0,0,0,0,0,0,0,0,0,0,0,0,0,0,0,0,0,0,0,0,0,0,0,0,0,0,0,0,0,0,0,0,0,0,0,0,0,0,0,0,0,0,0,0,0,0,0,0,0,0,0,0,0,0,0,0,0,0,0,0,0,0,0,0,0,0,0,0,0,0,0,0,0,0,0,0,0,0,0,0,0,0,0,0,0,0,0,0,0,0,0,0,0,0,0,0,0,0,0,0,0,0,0,0,0,0,0,0,0,0,0,0,0,0,0,0,0,0,0,0,0,0,0,0,0,0,0,0,0,0,0,0,0,0,0,0,0,0,0,0,0,0,0,0,0,0,0,0,0,0,0,0,0,0,0,0,0,0,0,0,0,0,0,0,0,0,0,0,0,0,0,0,0,0,0,0,0,0,0,0,0,0,0,0,0,0,0,0,0,0,0,0,0,0,0,0,0,0,0,0,0,0,0,0,0,0,0,0,0,0,0,0,0,0,0,0,0,0,0,0,0,0,0,0,0,0,0,0,0,0,0,0,0,0,0,0,0,0,0,0,0,0,0,0,0,0,0,0,0,0,0,0,0,0,0,0,0,0,0,0,0,0,0,0,0,0,0,0,0,0,0,0,0,0,0,0,0,0,0,0,0,0,0,0,0,0,0,0,0,0,0,0,0,0,0,0,0,0,0,0,0,0,0,0,0,0,0,0,0,0,0,0,0,0,0,0,0,0,0,0,0,0,0,0,0,0,0,0,0,0,0,0,0,0,0,0,0,0,0,0,0,0,0,0,0,0,0,0,0,0,0,0,0,0,0,0,0,0,0,0,0,0,0,0,69,69,69,0,897,898,0,0,0,0,0,0,0,897,898,0,69,69,69,0,0,0,0,0,0,0,0,0,0,0,0,0,0,0,0,0,0,0,996,997,67,68,68,0,905,906,0,0,0,0,0,0,0,905,906,0,67,68,68,0,0,0,0,0,0,0,0,0,0,0,0,0,0,0,0,0,0,0,1004,1005,880,880,894,874,874,874,874,874,874,874,874,874,874,874,874,874,893,880,880,0,0,0,0,0,0,0,0,0,0,0,0,0,0,0,0,0,0,0,0,0,880,894,874,874,874,874,874,874,874,874,874,874,874,874,874,874,874,893,880,0,0,0,0,0,0,0,0,0,0,0,0,0,0,0,0,0,0,0,116,0,892,874,874,874,874,874,874,874,874,874,874,874,874,874,874,874,874,874,893,0,0,0,0,0,0,0,0,0,0,0,0,0,0,0,0,0,0,0,124,0,0,0,0,0,0,0,0,0,0,0,0,0,0,0,0,0,0,0,0,0,0,0,0,0,0,0,0,0,0,0,0,0,0,0,0,0,0,0,0,0,0,0,0,0,0,0,0,0,0,0,0,0,0,0,0,0,0,0,0,0,0,0,0,0,0,0,0,0,0,0,0,0,0,0,0,0,0,0,0,0,0,0,0,0,0,0,0,0,0,0,0,0,0,0,0,0,0,0,0,0,0,0,0,0,0,0,0,0,0,0,0,0,0,0,0,0,0,0,0,0,0,0,0,0,0,0,0,0,0,0,0,0,0,0,0,0,0,0,0,0,0,0,0,0,0,0,0,0,0,0,0,0,0,0,0,0,0,0,0,0,0,0,0,0,0,0,0,0,0,0,0,0,0,0,0,0,0,0,0,0,0,0,0,0,0,0,0,0,0,0,0,0,0,0,0,0,0,0,0,0,0,0,0,0,0,0,0,0,0,0,0,0,0,0,0,0,0,0,0,0,0,0,0,0,0,0,0,0,0,0,0,0,0,0,0,0,0,0,0,0,0,0,0,0,0,0,0,0,0,0,0,0,0,0,0,0,0,0,0,0,0,0,0,0,0,0,0,0,0,0,0,0,0,0,0,0,0,0,0,0,0,0,0,0,0,0,0,0,0,0,0,0,0,0,0,0,0,0,0,0,0,0,0,0,0,0,0,0,0,0,0,0,0,0,0,0,0,0,0,0,0,0,0,0,0,0,0,0,0,0,0,0,0,0,0,0,0,0,0,0,0,0,0,0,0,0,0,0,0,0,0,0,0,0,0,0,0,0,0,0,5,0,0,0,0,0,0,0,0,0,0,0,0,0,0,0,0,0,0,0,0,0,0,0,0,0,0,0,0,0,0,0,0,0,0,0,0,0,5,0,0,0,0,0,0,0,0,0,0,0,0,0,0,0,0,0,0,0,0,0,0,0,0,0,0,0,0,0,0,0,0,0,0,0,0,0,0,0,5,0,0,0,0,0,0,0,0,0,0,0,0,0,0,0,0,0,0,0,0,0,0,0,0,0,0,0,0,0,0,0,0,0,0,0,0,0,0,0,5,0,0,0,0,0,0,0,0,0,0,0,0,0,0,0,0,0,0,0,0,0,0,0,0,0,0,0,0,0,0,0,0,0,0,0,0,0,0,0,5,0,0,0,0,0,0,0,0,0,0,0,0,0,0,0,0,0,0,0,0,0,0,0,0,0,0,0,0,0,0,0,0,0,0,0,0,0,0,0,5,0,0,0,0,0,0,0,0,0,0,0,0,0,0,0,0,0,0,0,0,0,0,0,0,0,0,0,0,0,0,0,0,0,0,0,0,0,0,0,5,0,0,0,0,0,0,0,0,0,0,0,0,0,0,0,0,0,0,0,0,0,0,0,0,0,0,0,0,0,0,0,0,0,0,0,0,0,0,0,5,0,0,0,0,0,0,0,0,0,0,0,0,0,0,0,0,0,0,0,0,0,0,0,0,0,0,0,0,0,0,0,0,0,0,0,0,0,0,0,5,0,0,0,0,0,0,0,0,0,0,0,0,0,0,0,0,0,0,0,0,0,0,0,0,0,0,0,0,0,0,0,0,0,0,0,0,0,0,0,5,0,0,0,0,0,0,0,0,0,0,0,0,0,0,0,0,0,0,0,0,0,0,0,0,0,0,0,0,0,0,0,0,0,0,0,0,0,0,0,0,0,0,0,0,0,0,0,0,0,0,0,0,0,0,0,0,0,0,0,0,0,0,0,0,0,0,0,0,0,0,0,0,0,0,0,0,0,0,10,10,10,10,10,10,10,10,10,10,10,10,10,10,10,10,10,10,10,10,10,10,10,10,10,10,10,10,10,10,10,10,10,10,10,10,10,10,10,10,10,0,0,0,0,0,0,0,0,0,0,0,0,0,0,0,0,0,0,0,0,0,0,0,10,10,10,10,10,10,10,10,10,10,10,10,10,10,10,10,10,0,0,0,0,0,0,0,0,0,0,0,0,0,0,0,0,0,0,0,0,0,0,0,10,10,10,10,10,10,10,10,10,10,10,10,10,10,10,10,10,0,0,0,0,0,0,0,0,0,0,0,0,0,0,0,0,0,0,0,0,0,0,0,10,10,10,10,10,10,10,10,10,10,10,10,10,10,10,10,10,0,0,0,0,0,0,0,0,0,0,0,0,0,0,0,0,0,0,0,0,0,0,0,10,10,10,10,10,10,10,10,10,10,10,10,10,10,10,10,10,0,0,0,0,0,0,0,0,0,0,0,0,0,0,0,0,0,0,0,0,0,0,0,10,10,10,10,10,10,10,10,10,10,10,10,10,10,10,10,10,0,0,0,0,0,0,0,0,0,0,0,0,0,0,0,0,0,0,0,0,0,0,0,10,10,10,10,10,10,10,10,10,10,10,10,10,10,10,10,10,0,0,0,0,0,0,0,0,0,0,0,0,0,10,10,10,10,10,10,10,10,10,10,10,10,10,10,10,10,10,10,10,10,10,10,10,10,10,10,10,0,0,0,0,0,0,0,0,0,0,0,0,0,0,0,0,0,0,0,0,0,0,0,0,0,0,0,0,0,0,0,0,0,0,0,0,0,0,0,10,0,0,0,0,0,0,0,0,0,0,0,0,0,0,0,0,0,0,0,0,0,0,0,0,0,0,0,0,0,0,0,0,0,0,0,0,0,0,0,10,0,0,0,0,0,0,0,0,0,0,0,0,0,10,10,0,0,0,0,0,0,0,0,0,0,0,0,0,0,0,0,0,0,0,0,0,0,0,0,10,0,0,0,0,0,0,0,0,0,0,0,0,0,10,10,0,0,0,0,0,0,0,0,10,0,0,0,0,0,0,0,0,0,0,0,0,0,0,0,10,10,10,10,10,10,10,10,10,10,10,10,10,10,10,10,10,10,10,10,10,10,10,10,10,10,10,10,10,10,10,10,10,10,10,10,10,10,10,10],
"events":[
null,
{"id":1,"name":"Save","note":"","pages":[{"conditions":{"actorId":1,"actorValid":false,"itemId":1,"itemValid":false,"selfSwitchCh":"A","selfSwitchValid":false,"switch1Id":1,"switch1Valid":false,"switch2Id":1,"switch2Valid":false,"variableId":1,"variableValid":false,"variableValue":0},"directionFix":true,"image":{"tileId":0,"characterName":"!Crystal","direction":2,"pattern":1,"characterIndex":3},"list":[{"code":352,"indent":0,"parameters":[]},{"code":0,"indent":0,"parameters":[]}],"moveFrequency":3,"moveRoute":{"list":[{"code":0,"parameters":[]}],"repeat":true,"skippable":false,"wait":false},"moveSpeed":3,"moveType":0,"priorityType":1,"stepAnime":true,"through":false,"trigger":0,"walkAnime":false}],"x":36,"y":10},
{"id":2,"name":"EV002","note":"","pages":[{"conditions":{"actorId":1,"actorValid":false,"itemId":1,"itemValid":false,"selfSwitchCh":"A","selfSwitchValid":false,"switch1Id":1,"switch1Valid":false,"switch2Id":1,"switch2Valid":false,"variableId":1,"variableValid":false,"variableValue":0},"directionFix":false,"image":{"characterIndex":0,"characterName":"","direction":2,"pattern":0,"tileId":0},"list":[{"code":230,"indent":0,"parameters":[30]},{"code":250,"indent":0,"parameters":[{"name":"Earth9","volume":90,"pitch":100,"pan":0}]},{"code":225,"indent":0,"parameters":[5,5,180,true]},{"code":123,"indent":0,"parameters":["A",0]},{"code":0,"indent":0,"parameters":[]}],"moveFrequency":3,"moveRoute":{"list":[{"code":0,"parameters":[]}],"repeat":true,"skippable":false,"wait":false},"moveSpeed":3,"moveType":0,"priorityType":0,"stepAnime":false,"through":false,"trigger":3,"walkAnime":true},{"conditions":{"actorId":1,"actorValid":false,"itemId":1,"itemValid":false,"selfSwitchCh":"A","selfSwitchValid":true,"switch1Id":1,"switch1Valid":false,"switch2Id":1,"switch2Valid":false,"variableId":1,"variableValid":false,"variableValue":0},"directionFix":false,"image":{"characterIndex":0,"characterName":"","direction":2,"pattern":0,"tileId":0},"list":[{"code":0,"indent":0,"parameters":[]}],"moveFrequency":3,"moveRoute":{"list":[{"code":0,"parameters":[]}],"repeat":true,"skippable":false,"wait":false},"moveSpeed":3,"moveType":0,"priorityType":0,"stepAnime":false,"through":false,"trigger":0,"walkAnime":true}],"x":0,"y":0},
{"id":3,"name":"EV003","note":"","pages":[{"conditions":{"actorId":1,"actorValid":false,"itemId":1,"itemValid":false,"selfSwitchCh":"A","selfSwitchValid":false,"switch1Id":1,"switch1Valid":false,"switch2Id":1,"switch2Valid":false,"variableId":1,"variableValid":false,"variableValue":0},"directionFix":false,"image":{"characterIndex":0,"characterName":"","direction":2,"pattern":0,"tileId":0},"list":[{"code":204,"indent":0,"parameters":[4,10,4]},{"code":205,"indent":0,"parameters":[-1,{"list":[{"code":2,"indent":null},{"code":2,"indent":null},{"code":2,"indent":null},{"code":2,"indent":null},{"code":2,"indent":null},{"code":19,"indent":null},{"code":0}],"repeat":false,"skippable":false,"wait":true}]},{"code":505,"indent":0,"parameters":[{"code":2,"indent":null}]},{"code":505,"indent":0,"parameters":[{"code":2,"indent":null}]},{"code":505,"indent":0,"parameters":[{"code":2,"indent":null}]},{"code":505,"indent":0,"parameters":[{"code":2,"indent":null}]},{"code":505,"indent":0,"parameters":[{"code":2,"indent":null}]},{"code":505,"indent":0,"parameters":[{"code":19,"indent":null}]},{"code":217,"indent":0,"parameters":[]},{"code":230,"indent":0,"parameters":[30]},{"code":101,"indent":0,"parameters":["Afelson_Faces",3,0,2]},{"code":401,"indent":0,"parameters":["\\n<Dorf, o Bárbaro>Há!\\. Vocês chegaram \\c[18]tarde\\c[0]!\\. \\c[18]Vocês\\c[0] chegaram tarde!"]},{"code":101,"indent":0,"parameters":["Vilões",2,0,2]},{"code":401,"indent":0,"parameters":["\\n<Elgerd, o Clérigo>A essa hora\\., o projeto já deve estar no oceano a caminho do CT."]},{"code":101,"indent":0,"parameters":["Cabide_Faces",3,0,2]},{"code":401,"indent":0,"parameters":["Aproveitnado que voêcs tocraam no asusnto\\., o qeu exatamente tá idno pra lá?"]},{"code":101,"indent":0,"parameters":["Vilões",7,0,2]},{"code":401,"indent":0,"parameters":["Uê\\., bôcês nâo sâbem??\\. Êntâo o quê bôcês êstâo fâzêndo aquî?"]},{"code":101,"indent":0,"parameters":["Cabide_Faces",4,0,2]},{"code":401,"indent":0,"parameters":["Nada\\, a gtnee taav só pasasndo."]},{"code":101,"indent":0,"parameters":["Hulk2",0,0,2]},{"code":401,"indent":0,"parameters":["\\}\\}Mermão\\., eu não to entendendo nada que eles tão dizendo\\., ahahahahha."]},{"code":101,"indent":0,"parameters":["Afelson_Faces",0,0,2]},{"code":401,"indent":0,"parameters":["Quem diria\\., \\c[4]quem\\c[0] diria.\\. Bem\\., já que estamos aqui\\., vamos acabar com eles de qualquer jeito\\., pra não perder a viagem."]},{"code":101,"indent":0,"parameters":["Vilões",7,0,2]},{"code":401,"indent":0,"parameters":["Êspêre\\., eu quêria têstar nôsso nôbo autômato."]},{"code":101,"indent":0,"parameters":["Afelson_Faces",4,0,2]},{"code":401,"indent":0,"parameters":["De novo?\\| Errrr\\., tá bom\\., tá \\c[4]bom\\c[0].\\| Truxal\\., trás a nova geringonça dele e tira a gente daqui."]},{"code":212,"indent":0,"parameters":[3,119,false]},{"code":230,"indent":0,"parameters":[60]},{"code":121,"indent":0,"parameters":[325,325,0]},{"code":230,"indent":0,"parameters":[60]},{"code":101,"indent":0,"parameters":["Vilões",7,0,2]},{"code":401,"indent":0,"parameters":["Dêssa bêz ele vâi funcionâr pêrfeitamênte."]},{"code":301,"indent":0,"parameters":[0,153,false,false]},{"code":122,"indent":0,"parameters":[78,78,1,0,1]},{"code":122,"indent":0,"parameters":[147,147,0,0,1]},{"code":121,"indent":0,"parameters":[343,343,0]},{"code":230,"indent":0,"parameters":[60]},{"code":356,"indent":0,"parameters":["ClearGab"]},{"code":356,"indent":0,"parameters":["Quest Complete 38"]},{"code":356,"indent":0,"parameters":["GabText Missão completada: Sandy Claws"]},{"code":117,"indent":0,"parameters":[398]},{"code":250,"indent":0,"parameters":[{"name":"Glorious","volume":45,"pitch":100,"pan":0}]},{"code":356,"indent":0,"parameters":["ShowGab"]},{"code":230,"indent":0,"parameters":[60]},{"code":101,"indent":0,"parameters":["Drogado_Faces",0,0,2]},{"code":401,"indent":0,"parameters":["E agora?"]},{"code":101,"indent":0,"parameters":["Bon Jovi_Faces",0,0,2]},{"code":401,"indent":0,"parameters":["Vamo sair desse caralho desse lugar quente dos infernos."]},{"code":201,"indent":0,"parameters":[0,27,72,56,0,0]},{"code":0,"indent":0,"parameters":[]}],"moveFrequency":3,"moveRoute":{"list":[{"code":0,"parameters":[]}],"repeat":true,"skippable":false,"wait":false},"moveSpeed":3,"moveType":0,"priorityType":0,"stepAnime":false,"through":false,"trigger":1,"walkAnime":true}],"x":14,"y":11},
{"id":4,"name":"EV004","note":"","pages":[{"conditions":{"actorId":1,"actorValid":false,"itemId":1,"itemValid":false,"selfSwitchCh":"A","selfSwitchValid":false,"switch1Id":1,"switch1Valid":false,"switch2Id":1,"switch2Valid":false,"variableId":1,"variableValid":false,"variableValue":0},"directionFix":false,"image":{"tileId":0,"characterName":"Vilões","direction":2,"pattern":1,"characterIndex":0},"list":[{"code":0,"indent":0,"parameters":[]}],"moveFrequency":3,"moveRoute":{"list":[{"code":0,"parameters":[]}],"repeat":true,"skippable":false,"wait":false},"moveSpeed":3,"moveType":0,"priorityType":1,"stepAnime":false,"through":false,"trigger":0,"walkAnime":true},{"conditions":{"actorId":1,"actorValid":false,"itemId":1,"itemValid":false,"selfSwitchCh":"A","selfSwitchValid":false,"switch1Id":325,"switch1Valid":true,"switch2Id":1,"switch2Valid":false,"variableId":1,"variableValid":false,"variableValue":0},"directionFix":false,"image":{"characterIndex":0,"characterName":"","direction":2,"pattern":0,"tileId":0},"list":[{"code":0,"indent":0,"parameters":[]}],"moveFrequency":3,"moveRoute":{"list":[{"code":0,"parameters":[]}],"repeat":true,"skippable":false,"wait":false},"moveSpeed":3,"moveType":0,"priorityType":0,"stepAnime":false,"through":false,"trigger":0,"walkAnime":true}],"x":9,"y":8},
{"id":5,"name":"EV005","note":"","pages":[{"conditions":{"actorId":1,"actorValid":false,"itemId":1,"itemValid":false,"selfSwitchCh":"A","selfSwitchValid":false,"switch1Id":1,"switch1Valid":false,"switch2Id":1,"switch2Valid":false,"variableId":1,"variableValid":false,"variableValue":0},"directionFix":false,"image":{"tileId":0,"characterName":"Vilões","direction":2,"pattern":1,"characterIndex":2},"list":[{"code":0,"indent":0,"parameters":[]}],"moveFrequency":3,"moveRoute":{"list":[{"code":0,"parameters":[]}],"repeat":true,"skippable":false,"wait":false},"moveSpeed":3,"moveType":0,"priorityType":1,"stepAnime":false,"through":false,"trigger":0,"walkAnime":true},{"conditions":{"actorId":1,"actorValid":false,"itemId":1,"itemValid":false,"selfSwitchCh":"A","selfSwitchValid":false,"switch1Id":325,"switch1Valid":true,"switch2Id":1,"switch2Valid":false,"variableId":1,"variableValid":false,"variableValue":0},"directionFix":false,"image":{"characterIndex":0,"characterName":"","direction":2,"pattern":0,"tileId":0},"list":[{"code":0,"indent":0,"parameters":[]}],"moveFrequency":3,"moveRoute":{"list":[{"code":0,"parameters":[]}],"repeat":true,"skippable":false,"wait":false},"moveSpeed":3,"moveType":0,"priorityType":0,"stepAnime":false,"through":false,"trigger":0,"walkAnime":true}],"x":8,"y":6},
{"id":6,"name":"EV006","note":"","pages":[{"conditions":{"actorId":1,"actorValid":false,"itemId":1,"itemValid":false,"selfSwitchCh":"A","selfSwitchValid":false,"switch1Id":1,"switch1Valid":false,"switch2Id":1,"switch2Valid":false,"variableId":1,"variableValid":false,"variableValue":0},"directionFix":false,"image":{"tileId":0,"characterName":"Vilões","direction":2,"pattern":1,"characterIndex":3},"list":[{"code":0,"indent":0,"parameters":[]}],"moveFrequency":3,"moveRoute":{"list":[{"code":0,"parameters":[]}],"repeat":true,"skippable":false,"wait":false},"moveSpeed":3,"moveType":0,"priorityType":1,"stepAnime":false,"through":false,"trigger":0,"walkAnime":true},{"conditions":{"actorId":1,"actorValid":false,"itemId":1,"itemValid":false,"selfSwitchCh":"A","selfSwitchValid":false,"switch1Id":325,"switch1Valid":true,"switch2Id":1,"switch2Valid":false,"variableId":1,"variableValid":false,"variableValue":0},"directionFix":false,"image":{"tileId":0,"characterName":"$BigMonster19","direction":8,"pattern":1,"characterIndex":0},"list":[{"code":0,"indent":0,"parameters":[]}],"moveFrequency":5,"moveRoute":{"list":[{"code":0,"parameters":[]}],"repeat":true,"skippable":false,"wait":false},"moveSpeed":3,"moveType":0,"priorityType":1,"stepAnime":true,"through":false,"trigger":0,"walkAnime":false},{"conditions":{"actorId":1,"actorValid":false,"itemId":1,"itemValid":false,"selfSwitchCh":"A","selfSwitchValid":false,"switch1Id":1,"switch1Valid":false,"switch2Id":1,"switch2Valid":false,"variableId":147,"variableValid":true,"variableValue":1},"directionFix":false,"image":{"characterIndex":0,"characterName":"","direction":2,"pattern":0,"tileId":0},"list":[{"code":0,"indent":0,"parameters":[]}],"moveFrequency":3,"moveRoute":{"list":[{"code":0,"parameters":[]}],"repeat":true,"skippable":false,"wait":false},"moveSpeed":3,"moveType":0,"priorityType":0,"stepAnime":false,"through":false,"trigger":0,"walkAnime":true}],"x":9,"y":6},
{"id":7,"name":"EV007","note":"","pages":[{"conditions":{"actorId":1,"actorValid":false,"itemId":1,"itemValid":false,"selfSwitchCh":"A","selfSwitchValid":false,"switch1Id":1,"switch1Valid":false,"switch2Id":1,"switch2Valid":false,"variableId":1,"variableValid":false,"variableValue":0},"directionFix":false,"image":{"tileId":0,"characterName":"Vilões","direction":2,"pattern":1,"characterIndex":1},"list":[{"code":0,"indent":0,"parameters":[]}],"moveFrequency":3,"moveRoute":{"list":[{"code":0,"parameters":[]}],"repeat":true,"skippable":false,"wait":false},"moveSpeed":3,"moveType":0,"priorityType":1,"stepAnime":false,"through":false,"trigger":0,"walkAnime":true},{"conditions":{"actorId":1,"actorValid":false,"itemId":1,"itemValid":false,"selfSwitchCh":"A","selfSwitchValid":false,"switch1Id":325,"switch1Valid":true,"switch2Id":1,"switch2Valid":false,"variableId":1,"variableValid":false,"variableValue":0},"directionFix":false,"image":{"characterIndex":0,"characterName":"","direction":2,"pattern":0,"tileId":0},"list":[{"code":0,"indent":0,"parameters":[]}],"moveFrequency":3,"moveRoute":{"list":[{"code":0,"parameters":[]}],"repeat":true,"skippable":false,"wait":false},"moveSpeed":3,"moveType":0,"priorityType":0,"stepAnime":false,"through":false,"trigger":0,"walkAnime":true}],"x":10,"y":6},
{"id":8,"name":"EV008","note":"","pages":[{"conditions":{"actorId":1,"actorValid":false,"itemId":1,"itemValid":false,"selfSwitchCh":"A","selfSwitchValid":false,"switch1Id":1,"switch1Valid":false,"switch2Id":1,"switch2Valid":false,"variableId":1,"variableValid":false,"variableValue":0},"directionFix":false,"image":{"tileId":0,"characterName":"Vilões2","direction":2,"pattern":1,"characterIndex":0},"list":[{"code":0,"indent":0,"parameters":[]}],"moveFrequency":3,"moveRoute":{"list":[{"code":0,"parameters":[]}],"repeat":true,"skippable":false,"wait":false},"moveSpeed":3,"moveType":0,"priorityType":1,"stepAnime":false,"through":false,"trigger":0,"walkAnime":true},{"conditions":{"actorId":1,"actorValid":false,"itemId":1,"itemValid":false,"selfSwitchCh":"A","selfSwitchValid":false,"switch1Id":1,"switch1Valid":false,"switch2Id":1,"switch2Valid":false,"variableId":147,"variableValid":true,"variableValue":1},"directionFix":false,"image":{"characterIndex":0,"characterName":"","direction":2,"pattern":0,"tileId":0},"list":[{"code":0,"indent":0,"parameters":[]}],"moveFrequency":3,"moveRoute":{"list":[{"code":0,"parameters":[]}],"repeat":true,"skippable":false,"wait":false},"moveSpeed":3,"moveType":0,"priorityType":0,"stepAnime":false,"through":false,"trigger":0,"walkAnime":true}],"x":10,"y":8},
{"id":9,"name":"EV009","note":"","pages":[{"conditions":{"actorId":1,"actorValid":false,"itemId":1,"itemValid":false,"selfSwitchCh":"A","selfSwitchValid":false,"switch1Id":1,"switch1Valid":false,"switch2Id":1,"switch2Valid":false,"variableId":1,"variableValid":false,"variableValue":0},"directionFix":false,"image":{"characterIndex":0,"characterName":"","direction":2,"pattern":0,"tileId":0},"list":[{"code":204,"indent":0,"parameters":[4,10,4]},{"code":205,"indent":0,"parameters":[-1,{"list":[{"code":2,"indent":null},{"code":2,"indent":null},{"code":2,"indent":null},{"code":2,"indent":null},{"code":2,"indent":null},{"code":19,"indent":null},{"code":0}],"repeat":false,"skippable":false,"wait":true}]},{"code":505,"indent":0,"parameters":[{"code":2,"indent":null}]},{"code":505,"indent":0,"parameters":[{"code":2,"indent":null}]},{"code":505,"indent":0,"parameters":[{"code":2,"indent":null}]},{"code":505,"indent":0,"parameters":[{"code":2,"indent":null}]},{"code":505,"indent":0,"parameters":[{"code":2,"indent":null}]},{"code":505,"indent":0,"parameters":[{"code":19,"indent":null}]},{"code":217,"indent":0,"parameters":[]},{"code":230,"indent":0,"parameters":[30]},{"code":101,"indent":0,"parameters":["Afelson_Faces",3,0,2]},{"code":401,"indent":0,"parameters":["\\n<Dorf, o Bárbaro>Há!\\. Vocês chegaram \\c[18]tarde\\c[0]!\\. \\c[18]Vocês\\c[0] chegaram tarde!"]},{"code":101,"indent":0,"parameters":["Vilões",2,0,2]},{"code":401,"indent":0,"parameters":["\\n<Elgerd, o Clérigo>A essa hora\\., o projeto já deve estar no oceano a caminho do CT."]},{"code":101,"indent":0,"parameters":["Cabide_Faces",3,0,2]},{"code":401,"indent":0,"parameters":["Aproveitnado que voêcs tocraam no asusnto\\., o qeu exatamente tá idno pra lá?"]},{"code":101,"indent":0,"parameters":["Vilões",7,0,2]},{"code":401,"indent":0,"parameters":["Uê\\., bôcês nâo sâbem??\\. Êntâo o quê bôcês êstâo fâzêndo aquî?"]},{"code":101,"indent":0,"parameters":["Cabide_Faces",4,0,2]},{"code":401,"indent":0,"parameters":["Nada\\, a gtnee taav só pasasndo."]},{"code":101,"indent":0,"parameters":["Hulk2",0,0,2]},{"code":401,"indent":0,"parameters":["\\}\\}Mermão\\., eu não to entendendo nada que eles tão dizendo\\., ahahahahha."]},{"code":101,"indent":0,"parameters":["Afelson_Faces",0,0,2]},{"code":401,"indent":0,"parameters":["Quem diria\\., \\c[4]quem\\c[0] diria.\\. Bem\\., já que estamos aqui\\., vamos acabar com eles de qualquer jeito\\., pra não perder a viagem."]},{"code":101,"indent":0,"parameters":["Vilões",7,0,2]},{"code":401,"indent":0,"parameters":["Êspêre\\., eu quêria têstar nôsso nôbo autômato."]},{"code":101,"indent":0,"parameters":["Afelson_Faces",4,0,2]},{"code":401,"indent":0,"parameters":["De novo?\\| Errrr\\., tá bom\\., tá \\c[4]bom\\c[0].\\| Truxal\\., trás a nova geringonça dele e tira a gente daqui."]},{"code":212,"indent":0,"parameters":[3,119,false]},{"code":230,"indent":0,"parameters":[60]},{"code":121,"indent":0,"parameters":[325,325,0]},{"code":230,"indent":0,"parameters":[60]},{"code":101,"indent":0,"parameters":["Vilões",7,0,2]},{"code":401,"indent":0,"parameters":["Dêssa bêz ele vâi funcionâr pêrfeitamênte."]},{"code":301,"indent":0,"parameters":[0,153,false,false]},{"code":122,"indent":0,"parameters":[78,78,1,0,1]},{"code":122,"indent":0,"parameters":[147,147,0,0,1]},{"code":121,"indent":0,"parameters":[343,343,0]},{"code":230,"indent":0,"parameters":[60]},{"code":356,"indent":0,"parameters":["ClearGab"]},{"code":356,"indent":0,"parameters":["Quest Complete 38"]},{"code":356,"indent":0,"parameters":["GabText Missão completada: Sandy Claws"]},{"code":117,"indent":0,"parameters":[398]},{"code":250,"indent":0,"parameters":[{"name":"Glorious","volume":45,"pitch":100,"pan":0}]},{"code":356,"indent":0,"parameters":["ShowGab"]},{"code":230,"indent":0,"parameters":[60]},{"code":101,"indent":0,"parameters":["Drogado_Faces",0,0,2]},{"code":401,"indent":0,"parameters":["E agora?"]},{"code":101,"indent":0,"parameters":["Bon Jovi_Faces",0,0,2]},{"code":401,"indent":0,"parameters":["Vamo sair desse caralho desse lugar quente dos infernos."]},{"code":201,"indent":0,"parameters":[0,27,72,56,0,0]},{"code":0,"indent":0,"parameters":[]}],"moveFrequency":3,"moveRoute":{"list":[{"code":0,"parameters":[]}],"repeat":true,"skippable":false,"wait":false},"moveSpeed":3,"moveType":0,"priorityType":0,"stepAnime":false,"through":false,"trigger":1,"walkAnime":true}],"x":14,"y":10}
]
}