{
"autoplayBgm":true,"autoplayBgs":true,"battleback1Name":"FaceTile","battleback2Name":"Room3","bgm":{"name":"","pan":0,"pitch":100,"volume":90},"bgs":{"name":"Sea","pan":0,"pitch":100,"volume":15},"disableDashing":false,"displayName":"Casa","encounterList":[],"encounterStep":30,"height":13,"note":"","parallaxLoopX":false,"parallaxLoopY":false,"parallaxName":"","parallaxShow":true,"parallaxSx":0,"parallaxSy":0,"scrollType":0,"specifyBattleback":true,"tilesetId":3,"width":18,
"data":[7524,7548,7548,7548,7548,7548,7532,7548,7548,7548,7548,7548,7548,7532,7548,7548,7548,7528,7544,7906,7906,7906,7906,7906,7552,7906,7906,7906,7906,7906,7906,7552,7906,7906,7906,7536,7544,7912,7912,7912,7912,7912,7552,7912,7912,7912,7912,7912,7912,7552,7912,7912,7912,7536,7544,4050,4036,4036,4036,4052,7552,4050,4036,4036,4036,4036,4052,7552,4050,4036,4052,7536,7544,4032,4016,4016,4016,4040,7552,4032,4016,4016,4016,4016,4040,7552,4032,4016,4040,7536,7544,4032,4020,4044,4044,4054,7552,4032,4016,4016,4016,4016,4040,7552,4032,4016,4040,7536,7544,4032,4040,7563,7553,7553,7559,4032,4016,4016,4016,4016,4040,7552,4032,4016,4040,7536,7544,4032,4040,7907,7906,7906,7910,4032,4016,4016,4016,4016,4040,7552,4032,4016,4040,7536,7544,4032,4040,7913,7912,7912,7916,4032,4016,4016,4016,4016,4040,7564,4032,4016,4040,7536,7544,4032,4018,4036,4036,4036,4036,4017,4016,4016,4016,4016,4040,7911,4032,4016,4040,7536,7544,4032,4016,4016,4016,4016,4016,4016,4016,4016,4016,4016,4040,7917,4032,4016,4040,7536,7544,4056,4044,4044,4044,4044,4044,4044,4024,4020,4044,4044,4046,4049,4045,4044,4054,7536,7522,7540,7540,7540,7540,7540,7540,7556,4032,4040,7554,7540,7540,7540,7540,7540,7540,7521,0,0,0,0,0,0,0,0,0,0,0,0,0,0,0,0,0,0,0,0,0,0,0,0,0,0,0,0,0,0,0,0,0,0,0,0,0,0,0,0,0,0,0,0,0,0,0,0,0,0,0,0,0,0,0,0,0,0,0,0,0,0,0,0,0,0,0,0,0,0,0,0,0,0,0,0,0,0,0,0,0,0,0,0,0,0,3530,0,0,0,0,0,0,3531,3521,3533,0,0,0,0,0,0,0,0,3532,0,0,0,0,0,0,0,0,0,0,0,0,0,0,0,0,0,0,0,0,0,0,0,0,0,0,0,0,0,0,0,0,0,0,0,0,0,0,0,0,0,0,0,0,0,0,0,0,0,0,0,0,0,0,0,0,0,0,0,0,0,0,0,0,0,0,0,0,0,0,0,0,0,0,0,0,0,0,0,0,3523,3521,3533,0,0,0,0,0,0,0,0,0,0,0,0,0,3531,3521,3527,0,0,0,0,0,0,0,0,0,0,0,0,0,0,0,0,0,0,0,0,0,0,0,0,0,0,0,0,0,0,0,0,0,0,0,0,0,0,0,0,0,0,0,0,0,0,0,0,0,0,0,0,0,0,0,0,0,0,0,0,0,0,0,0,0,0,0,0,0,0,0,0,0,0,873,873,878,879,874,0,0,0,0,0,0,0,0,0,0,0,0,0,881,881,881,887,882,0,0,0,0,0,0,0,93,0,0,0,0,281,0,0,0,526,526,0,0,0,0,0,0,0,0,0,0,0,0,281,0,0,0,0,0,0,0,0,0,0,0,0,0,0,0,0,0,281,0,0,0,0,0,0,0,0,0,0,0,0,0,0,0,0,0,0,0,0,0,0,0,0,0,93,0,0,0,0,0,0,0,0,0,0,0,0,0,0,0,0,0,0,0,0,0,0,0,0,0,635,0,0,0,0,0,0,0,0,0,0,0,0,0,0,0,0,0,0,0,0,0,0,0,0,0,0,0,0,0,0,0,0,0,0,0,0,0,0,0,0,0,0,0,0,0,0,0,0,0,0,0,0,0,0,0,0,0,0,0,0,0,0,0,0,0,0,0,0,0,0,0,0,0,0,0,0,0,0,0,0,0,0,0,0,0,0,660,661,0,0,0,0,0,0,912,913,914,0,0,660,661,0,0,0,668,669,0,0,0,872,876,877,920,921,922,0,51,668,669,0,0,84,85,86,85,84,0,880,884,885,886,518,518,0,59,81,82,0,0,92,336,94,93,92,0,283,281,0,0,529,530,0,284,89,90,0,0,559,0,0,0,622,0,283,281,0,0,537,538,0,0,0,303,0,0,0,0,0,0,0,0,283,281,282,282,0,535,0,86,85,86,0,0,0,0,0,0,120,0,0,0,282,0,0,543,0,94,693,94,0,0,0,0,565,626,627,628,0,0,282,282,0,0,0,0,0,0,0,0,0,0,573,634,284,636,0,0,0,281,281,281,0,0,0,84,0,0,0,0,0,0,0,0,0,0,0,281,281,281,0,0,0,92,0,0,0,0,0,0,100,0,0,284,0,281,0,281,0,0,0,0,0,0,0,0,0,0,0,0,0,0,0,0,0,0,0,0,0,0,0,0,0,0,0,0,0,0,0,0,0,0,0,0,0,0,0,0,0,0,0,0,0,0,0,0,0,0,0,0,0,0,0,0,0,0,0,0,0,0,0,0,0,0,0,0,0,0,0,0,0,0,0,0,0,0,5,0,0,0,0,0,5,0,0,0,0,0,0,5,0,0,0,0,5,0,0,0,0,0,5,0,0,0,0,0,0,5,0,0,0,0,5,0,0,0,0,0,5,0,0,0,0,0,0,5,0,0,0,0,5,0,0,0,0,0,5,0,0,0,0,0,0,5,0,0,0,0,5,0,0,0,0,0,5,0,0,0,0,0,0,5,0,0,0,0,5,0,0,0,0,0,5,0,0,0,0,0,0,5,0,0,0,0,5,0,0,0,0,0,0,0,0,0,0,0,0,5,0,0,0,0,5,0,0,0,0,0,0,0,0,0,0,0,0,5,0,0,0,0,5,0,0,0,0,0,0,0,0,0,0,0,0,0,0,0,0,0,0,0,0,0,0,0,0,0,0,0,0,0,0,0,0,0,0,10,10,10,10,10,10,10,10,10,10,10,10,10,10,10,10,10,10,10,0,0,0,0,0,10,0,0,0,0,0,0,10,0,0,0,10,10,0,0,0,0,0,10,0,0,0,0,0,0,10,0,0,0,10,10,0,0,0,0,0,10,0,0,0,0,0,0,10,0,0,0,10,10,0,0,0,0,0,10,0,0,0,0,0,0,10,0,0,0,10,10,0,0,0,0,0,10,0,0,0,0,0,0,10,0,0,0,10,10,0,0,10,10,10,10,0,0,0,0,0,0,10,0,0,0,10,10,0,0,0,0,0,0,0,0,0,0,0,0,10,0,0,0,10,10,0,0,0,0,0,0,0,0,0,0,0,0,10,0,0,0,10,10,0,0,0,0,0,0,0,0,0,0,0,0,10,0,0,0,10,10,0,0,0,0,0,0,0,0,0,0,0,0,10,0,0,0,10,10,0,0,0,0,0,0,0,0,0,0,0,0,0,0,0,0,10,10,10,10,10,10,10,10,10,0,0,10,10,10,10,10,10,10,10],
"events":[
null,
{"id":1,"name":"EV001","note":"","pages":[{"conditions":{"actorId":1,"actorValid":false,"itemId":1,"itemValid":false,"selfSwitchCh":"A","selfSwitchValid":false,"switch1Id":1,"switch1Valid":false,"switch2Id":1,"switch2Valid":false,"variableId":1,"variableValid":false,"variableValue":0},"directionFix":false,"image":{"characterIndex":0,"characterName":"","direction":2,"pattern":0,"tileId":0},"list":[{"code":223,"indent":0,"parameters":[[0,0,0,0],1,false]},{"code":201,"indent":0,"parameters":[0,158,6,7,0,0]},{"code":0,"indent":0,"parameters":[]}],"moveFrequency":3,"moveRoute":{"list":[{"code":0,"parameters":[]}],"repeat":true,"skippable":false,"wait":false},"moveSpeed":3,"moveType":0,"priorityType":0,"stepAnime":false,"through":false,"trigger":1,"walkAnime":true}],"x":8,"y":12},
{"id":2,"name":"EV002","note":"","pages":[{"conditions":{"actorId":1,"actorValid":false,"itemId":1,"itemValid":false,"selfSwitchCh":"A","selfSwitchValid":false,"switch1Id":1,"switch1Valid":false,"switch2Id":1,"switch2Valid":false,"variableId":1,"variableValid":false,"variableValue":0},"directionFix":false,"image":{"characterIndex":0,"characterName":"","direction":2,"pattern":0,"tileId":0},"list":[{"code":223,"indent":0,"parameters":[[0,0,0,0],1,false]},{"code":201,"indent":0,"parameters":[0,158,6,7,0,0]},{"code":0,"indent":0,"parameters":[]}],"moveFrequency":3,"moveRoute":{"list":[{"code":0,"parameters":[]}],"repeat":true,"skippable":false,"wait":false},"moveSpeed":3,"moveType":0,"priorityType":0,"stepAnime":false,"through":false,"trigger":1,"walkAnime":true}],"x":9,"y":12},
{"id":3,"name":"Relíquia","note":"","pages":[{"conditions":{"actorId":1,"actorValid":false,"itemId":1,"itemValid":false,"selfSwitchCh":"A","selfSwitchValid":false,"switch1Id":1,"switch1Valid":false,"switch2Id":1,"switch2Valid":false,"variableId":1,"variableValid":false,"variableValue":0},"directionFix":false,"image":{"tileId":0,"characterName":"!Chest","direction":2,"pattern":1,"characterIndex":1},"list":[{"code":128,"indent":0,"parameters":[127,0,0,1,false]},{"code":122,"indent":0,"parameters":[306,306,1,0,1]},{"code":250,"indent":0,"parameters":[{"name":"Chest1","volume":90,"pitch":100,"pan":0}]},{"code":356,"indent":0,"parameters":["ClearGab"]},{"code":356,"indent":0,"parameters":["GabText Você ficou com o Anel do Endo!"]},{"code":356,"indent":0,"parameters":["ShowGab"]},{"code":101,"indent":0,"parameters":["Hulk",1,0,2]},{"code":401,"indent":0,"parameters":["Coé\\., Léo\\., deixaram o seu Anel do Endo aqui?!"]},{"code":117,"indent":0,"parameters":[109]},{"code":117,"indent":0,"parameters":[384]},{"code":123,"indent":0,"parameters":["A",0]},{"code":0,"indent":0,"parameters":[]}],"moveFrequency":3,"moveRoute":{"list":[{"code":0,"parameters":[]}],"repeat":true,"skippable":false,"wait":false},"moveSpeed":3,"moveType":0,"priorityType":1,"stepAnime":false,"through":false,"trigger":0,"walkAnime":true},{"conditions":{"actorId":1,"actorValid":false,"itemId":1,"itemValid":false,"selfSwitchCh":"A","selfSwitchValid":true,"switch1Id":1,"switch1Valid":false,"switch2Id":1,"switch2Valid":false,"variableId":1,"variableValid":false,"variableValue":0},"directionFix":false,"image":{"tileId":0,"characterName":"!Chest","direction":8,"pattern":1,"characterIndex":1},"list":[{"code":0,"indent":0,"parameters":[]}],"moveFrequency":3,"moveRoute":{"list":[{"code":0,"parameters":[]}],"repeat":true,"skippable":false,"wait":false},"moveSpeed":3,"moveType":0,"priorityType":1,"stepAnime":false,"through":false,"trigger":0,"walkAnime":true}],"x":10,"y":4},
{"id":4,"name":"EV004","note":"","pages":[{"conditions":{"actorId":1,"actorValid":false,"itemId":1,"itemValid":false,"selfSwitchCh":"A","selfSwitchValid":false,"switch1Id":1,"switch1Valid":false,"switch2Id":1,"switch2Valid":false,"variableId":119,"variableValid":false,"variableValue":0},"directionFix":false,"image":{"characterIndex":0,"characterName":"","direction":2,"pattern":0,"tileId":0},"list":[{"code":230,"indent":0,"parameters":[60]},{"code":101,"indent":0,"parameters":["Chanel",0,0,2]},{"code":401,"indent":0,"parameters":["Eu já to até me sentindo mais descansado aqui."]},{"code":101,"indent":0,"parameters":["Barbosa_Faces",3,0,2]},{"code":401,"indent":0,"parameters":["Esses deuses antigos não eram lá muito organizados não né?"]},{"code":101,"indent":0,"parameters":["Barbosa_Faces",1,0,2]},{"code":401,"indent":0,"parameters":["Bem\\., legal.\\| Partiu ir embora?"]},{"code":101,"indent":0,"parameters":["Hulk",0,0,2]},{"code":401,"indent":0,"parameters":["Fica queitinho ae no teu canto\\., Barbosinha."]},{"code":101,"indent":0,"parameters":["Magali_Faces",0,0,2]},{"code":401,"indent":0,"parameters":["Caralho\\., Barbie\\., a gente nem chegou.\\. Bora dar uma relaxada antes de voltar."]},{"code":122,"indent":0,"parameters":[119,119,0,0,1]},{"code":356,"indent":0,"parameters":["Quest NextStep 34"]},{"code":356,"indent":0,"parameters":["GabText Missão atualizada: FENECA"]},{"code":356,"indent":0,"parameters":["ShowGab"]},{"code":123,"indent":0,"parameters":["A",0]},{"code":0,"indent":0,"parameters":[]}],"moveFrequency":3,"moveRoute":{"list":[{"code":0,"parameters":[]}],"repeat":true,"skippable":false,"wait":false},"moveSpeed":3,"moveType":0,"priorityType":0,"stepAnime":false,"through":false,"trigger":3,"walkAnime":true},{"conditions":{"actorId":1,"actorValid":false,"itemId":1,"itemValid":false,"selfSwitchCh":"A","selfSwitchValid":true,"switch1Id":1,"switch1Valid":false,"switch2Id":1,"switch2Valid":false,"variableId":1,"variableValid":false,"variableValue":0},"directionFix":false,"image":{"characterIndex":0,"characterName":"","direction":2,"pattern":0,"tileId":0},"list":[{"code":0,"indent":0,"parameters":[]}],"moveFrequency":3,"moveRoute":{"list":[{"code":0,"parameters":[]}],"repeat":true,"skippable":false,"wait":false},"moveSpeed":3,"moveType":0,"priorityType":0,"stepAnime":false,"through":false,"trigger":0,"walkAnime":true},{"conditions":{"actorId":1,"actorValid":false,"itemId":1,"itemValid":false,"selfSwitchCh":"A","selfSwitchValid":false,"switch1Id":339,"switch1Valid":true,"switch2Id":1,"switch2Valid":false,"variableId":1,"variableValid":false,"variableValue":0},"directionFix":false,"image":{"characterIndex":0,"characterName":"","direction":2,"pattern":0,"tileId":0},"list":[{"code":223,"indent":0,"parameters":[[34,-34,-68,170],1,false]},{"code":230,"indent":0,"parameters":[60]},{"code":101,"indent":0,"parameters":["Barbosa_Faces",3,0,2]},{"code":401,"indent":0,"parameters":["Ei\\., tem alguma coisa estranha aqui.\\. Melhor eu acordar eles rápido."]},{"code":123,"indent":0,"parameters":["B",0]},{"code":0,"indent":0,"parameters":[]}],"moveFrequency":3,"moveRoute":{"list":[{"code":0,"parameters":[]}],"repeat":true,"skippable":false,"wait":false},"moveSpeed":3,"moveType":0,"priorityType":0,"stepAnime":false,"through":false,"trigger":3,"walkAnime":true},{"conditions":{"actorId":1,"actorValid":false,"itemId":1,"itemValid":false,"selfSwitchCh":"B","selfSwitchValid":true,"switch1Id":1,"switch1Valid":false,"switch2Id":1,"switch2Valid":false,"variableId":1,"variableValid":false,"variableValue":0},"directionFix":false,"image":{"characterIndex":0,"characterName":"","direction":2,"pattern":0,"tileId":0},"list":[{"code":223,"indent":0,"parameters":[[34,-34,-68,170],1,false]},{"code":118,"indent":0,"parameters":["Voltou"]},{"code":111,"indent":0,"parameters":[1,157,0,3,0]},{"code":230,"indent":1,"parameters":[60]},{"code":101,"indent":1,"parameters":["",0,0,2]},{"code":401,"indent":1,"parameters":["\\c[2]PARE DE ACORDAR ELES!\\c[0]"]},{"code":101,"indent":1,"parameters":["Barbosa_Faces",2,0,2]},{"code":401,"indent":1,"parameters":["Eta porra\\., que que foi isso?"]},{"code":101,"indent":1,"parameters":["",0,0,2]},{"code":401,"indent":1,"parameters":["\\c[2]EU ESPEREI ANOS ATÉ ALGUÉM APARECER AQUI!! VOCÊ VAI TIRÁ-LOS DE MIM!"]},{"code":313,"indent":1,"parameters":[0,0,0,109]},{"code":313,"indent":1,"parameters":[0,8,1,109]},{"code":301,"indent":1,"parameters":[0,119,false,false]},{"code":230,"indent":1,"parameters":[60]},{"code":221,"indent":1,"parameters":[]},{"code":117,"indent":1,"parameters":[4]},{"code":313,"indent":1,"parameters":[0,0,1,109]},{"code":122,"indent":1,"parameters":[324,324,0,0,1]},{"code":223,"indent":1,"parameters":[[0,0,0,0],1,false]},{"code":201,"indent":1,"parameters":[0,158,7,7,0,0]},{"code":0,"indent":1,"parameters":[]},{"code":411,"indent":0,"parameters":[]},{"code":119,"indent":1,"parameters":["Voltou"]},{"code":0,"indent":1,"parameters":[]},{"code":412,"indent":0,"parameters":[]},{"code":0,"indent":0,"parameters":[]}],"moveFrequency":3,"moveRoute":{"list":[{"code":0,"parameters":[]}],"repeat":true,"skippable":false,"wait":false},"moveSpeed":3,"moveType":0,"priorityType":0,"stepAnime":false,"through":false,"trigger":4,"walkAnime":true},{"conditions":{"actorId":1,"actorValid":false,"itemId":1,"itemValid":false,"selfSwitchCh":"A","selfSwitchValid":false,"switch1Id":1,"switch1Valid":false,"switch2Id":1,"switch2Valid":false,"variableId":324,"variableValid":true,"variableValue":1},"directionFix":false,"image":{"characterIndex":0,"characterName":"","direction":2,"pattern":0,"tileId":0},"list":[{"code":0,"indent":0,"parameters":[]}],"moveFrequency":3,"moveRoute":{"list":[{"code":0,"parameters":[]}],"repeat":true,"skippable":false,"wait":false},"moveSpeed":3,"moveType":0,"priorityType":0,"stepAnime":false,"through":false,"trigger":0,"walkAnime":true}],"x":0,"y":0},
{"id":5,"name":"EV005","note":"","pages":[{"conditions":{"actorId":1,"actorValid":false,"itemId":1,"itemValid":false,"selfSwitchCh":"A","selfSwitchValid":false,"switch1Id":1,"switch1Valid":false,"switch2Id":1,"switch2Valid":false,"variableId":1,"variableValid":false,"variableValue":0},"directionFix":false,"image":{"characterIndex":0,"characterName":"","direction":2,"pattern":0,"tileId":0},"list":[{"code":101,"indent":0,"parameters":["Drogado_Faces",1,0,2]},{"code":401,"indent":0,"parameters":["Bora dormir antes um pouco?"]},{"code":101,"indent":0,"parameters":["Barbosa_Faces",6,0,2]},{"code":401,"indent":0,"parameters":["Porra\\. bora embora!"]},{"code":101,"indent":0,"parameters":["Bon Jovi_Faces",2,0,2]},{"code":401,"indent":0,"parameters":["Sossega\\., muleke!\\. A gente tá exausto."]},{"code":101,"indent":0,"parameters":["Barbosa_Faces",0,0,2]},{"code":401,"indent":0,"parameters":["Eu vou esperar vovov\\|\\.vocês lá fora então."]},{"code":221,"indent":0,"parameters":[]},{"code":313,"indent":0,"parameters":[0,0,0,109]},{"code":117,"indent":0,"parameters":[21]},{"code":129,"indent":0,"parameters":[8,0,false]},{"code":313,"indent":0,"parameters":[0,8,1,109]},{"code":201,"indent":0,"parameters":[0,158,6,9,0,0]},{"code":121,"indent":0,"parameters":[339,339,0]},{"code":0,"indent":0,"parameters":[]}],"moveFrequency":3,"moveRoute":{"list":[{"code":0,"parameters":[]}],"repeat":true,"skippable":false,"wait":false},"moveSpeed":3,"moveType":0,"priorityType":1,"stepAnime":false,"through":false,"trigger":0,"walkAnime":true},{"conditions":{"actorId":1,"actorValid":false,"itemId":1,"itemValid":false,"selfSwitchCh":"A","selfSwitchValid":false,"switch1Id":339,"switch1Valid":true,"switch2Id":1,"switch2Valid":false,"variableId":1,"variableValid":false,"variableValue":0},"directionFix":false,"image":{"characterIndex":0,"characterName":"","direction":2,"pattern":0,"tileId":0},"list":[{"code":0,"indent":0,"parameters":[]}],"moveFrequency":3,"moveRoute":{"list":[{"code":0,"parameters":[]}],"repeat":true,"skippable":false,"wait":false},"moveSpeed":3,"moveType":0,"priorityType":0,"stepAnime":false,"through":false,"trigger":0,"walkAnime":true}],"x":1,"y":4},
{"id":6,"name":"EV006","note":"","pages":[{"conditions":{"actorId":1,"actorValid":false,"itemId":1,"itemValid":false,"selfSwitchCh":"A","selfSwitchValid":false,"switch1Id":1,"switch1Valid":false,"switch2Id":1,"switch2Valid":false,"variableId":1,"variableValid":false,"variableValue":0},"directionFix":false,"image":{"characterIndex":0,"characterName":"","direction":2,"pattern":0,"tileId":0},"list":[{"code":101,"indent":0,"parameters":["Drogado_Faces",1,0,2]},{"code":401,"indent":0,"parameters":["Bora dormir antes um pouco?"]},{"code":101,"indent":0,"parameters":["Barbosa_Faces",6,0,2]},{"code":401,"indent":0,"parameters":["Porra\\. bora embora!"]},{"code":101,"indent":0,"parameters":["Bon Jovi_Faces",2,0,2]},{"code":401,"indent":0,"parameters":["Sossega\\., muleke!\\. A gente tá exausto."]},{"code":101,"indent":0,"parameters":["Barbosa_Faces",0,0,2]},{"code":401,"indent":0,"parameters":["Eu vou esperar vovov\\|\\.vocês lá fora então."]},{"code":221,"indent":0,"parameters":[]},{"code":313,"indent":0,"parameters":[0,0,0,109]},{"code":117,"indent":0,"parameters":[21]},{"code":129,"indent":0,"parameters":[8,0,false]},{"code":313,"indent":0,"parameters":[0,8,1,109]},{"code":201,"indent":0,"parameters":[0,158,6,9,0,0]},{"code":121,"indent":0,"parameters":[339,339,0]},{"code":0,"indent":0,"parameters":[]}],"moveFrequency":3,"moveRoute":{"list":[{"code":0,"parameters":[]}],"repeat":true,"skippable":false,"wait":false},"moveSpeed":3,"moveType":0,"priorityType":1,"stepAnime":false,"through":false,"trigger":0,"walkAnime":true},{"conditions":{"actorId":1,"actorValid":false,"itemId":1,"itemValid":false,"selfSwitchCh":"A","selfSwitchValid":false,"switch1Id":339,"switch1Valid":true,"switch2Id":1,"switch2Valid":false,"variableId":1,"variableValid":false,"variableValue":0},"directionFix":false,"image":{"characterIndex":0,"characterName":"","direction":2,"pattern":0,"tileId":0},"list":[{"code":0,"indent":0,"parameters":[]}],"moveFrequency":3,"moveRoute":{"list":[{"code":0,"parameters":[]}],"repeat":true,"skippable":false,"wait":false},"moveSpeed":3,"moveType":0,"priorityType":0,"stepAnime":false,"through":false,"trigger":0,"walkAnime":true}],"x":1,"y":3},
{"id":7,"name":"EV007","note":"","pages":[{"conditions":{"actorId":1,"actorValid":false,"itemId":1,"itemValid":false,"selfSwitchCh":"A","selfSwitchValid":false,"switch1Id":1,"switch1Valid":false,"switch2Id":1,"switch2Valid":false,"variableId":1,"variableValid":false,"variableValue":0},"directionFix":false,"image":{"characterIndex":0,"characterName":"","direction":2,"pattern":0,"tileId":0},"list":[{"code":101,"indent":0,"parameters":["Drogado_Faces",1,0,2]},{"code":401,"indent":0,"parameters":["Bora dormir antes um pouco?"]},{"code":101,"indent":0,"parameters":["Barbosa_Faces",6,0,2]},{"code":401,"indent":0,"parameters":["Porra\\. bora embora!"]},{"code":101,"indent":0,"parameters":["Bon Jovi_Faces",2,0,2]},{"code":401,"indent":0,"parameters":["Sossega\\., muleke!\\. A gente tá exausto."]},{"code":101,"indent":0,"parameters":["Barbosa_Faces",0,0,2]},{"code":401,"indent":0,"parameters":["Eu vou esperar vovov\\|\\.vocês lá fora então."]},{"code":221,"indent":0,"parameters":[]},{"code":313,"indent":0,"parameters":[0,0,0,109]},{"code":117,"indent":0,"parameters":[21]},{"code":129,"indent":0,"parameters":[8,0,false]},{"code":313,"indent":0,"parameters":[0,8,1,109]},{"code":201,"indent":0,"parameters":[0,158,6,9,0,0]},{"code":121,"indent":0,"parameters":[339,339,0]},{"code":0,"indent":0,"parameters":[]}],"moveFrequency":3,"moveRoute":{"list":[{"code":0,"parameters":[]}],"repeat":true,"skippable":false,"wait":false},"moveSpeed":3,"moveType":0,"priorityType":1,"stepAnime":false,"through":false,"trigger":0,"walkAnime":true},{"conditions":{"actorId":1,"actorValid":false,"itemId":1,"itemValid":false,"selfSwitchCh":"A","selfSwitchValid":false,"switch1Id":339,"switch1Valid":true,"switch2Id":1,"switch2Valid":false,"variableId":1,"variableValid":false,"variableValue":0},"directionFix":false,"image":{"characterIndex":0,"characterName":"","direction":2,"pattern":0,"tileId":0},"list":[{"code":0,"indent":0,"parameters":[]}],"moveFrequency":3,"moveRoute":{"list":[{"code":0,"parameters":[]}],"repeat":true,"skippable":false,"wait":false},"moveSpeed":3,"moveType":0,"priorityType":0,"stepAnime":false,"through":false,"trigger":0,"walkAnime":true}],"x":2,"y":3},
{"id":8,"name":"EV008","note":"","pages":[{"conditions":{"actorId":1,"actorValid":false,"itemId":1,"itemValid":false,"selfSwitchCh":"A","selfSwitchValid":false,"switch1Id":1,"switch1Valid":false,"switch2Id":1,"switch2Valid":false,"variableId":1,"variableValid":false,"variableValue":0},"directionFix":false,"image":{"characterIndex":0,"characterName":"","direction":2,"pattern":0,"tileId":0},"list":[{"code":101,"indent":0,"parameters":["Drogado_Faces",1,0,2]},{"code":401,"indent":0,"parameters":["Bora dormir antes um pouco?"]},{"code":101,"indent":0,"parameters":["Barbosa_Faces",6,0,2]},{"code":401,"indent":0,"parameters":["Porra\\. bora embora!"]},{"code":101,"indent":0,"parameters":["Bon Jovi_Faces",2,0,2]},{"code":401,"indent":0,"parameters":["Sossega\\., muleke!\\. A gente tá exausto."]},{"code":101,"indent":0,"parameters":["Barbosa_Faces",0,0,2]},{"code":401,"indent":0,"parameters":["Eu vou esperar vovov\\|\\.vocês lá fora então."]},{"code":221,"indent":0,"parameters":[]},{"code":313,"indent":0,"parameters":[0,0,0,109]},{"code":117,"indent":0,"parameters":[21]},{"code":129,"indent":0,"parameters":[8,0,false]},{"code":313,"indent":0,"parameters":[0,8,1,109]},{"code":201,"indent":0,"parameters":[0,158,6,9,0,0]},{"code":121,"indent":0,"parameters":[339,339,0]},{"code":0,"indent":0,"parameters":[]}],"moveFrequency":3,"moveRoute":{"list":[{"code":0,"parameters":[]}],"repeat":true,"skippable":false,"wait":false},"moveSpeed":3,"moveType":0,"priorityType":1,"stepAnime":false,"through":false,"trigger":0,"walkAnime":true},{"conditions":{"actorId":1,"actorValid":false,"itemId":1,"itemValid":false,"selfSwitchCh":"A","selfSwitchValid":false,"switch1Id":339,"switch1Valid":true,"switch2Id":1,"switch2Valid":false,"variableId":1,"variableValid":false,"variableValue":0},"directionFix":true,"image":{"tileId":0,"characterName":"ECA-Damage","direction":6,"pattern":1,"characterIndex":1},"list":[{"code":101,"indent":0,"parameters":["Japones_Faces",2,0,2]},{"code":401,"indent":0,"parameters":["Argh\\., desenharam na minha testa de novo?"]},{"code":123,"indent":0,"parameters":["A",0]},{"code":129,"indent":0,"parameters":[3,0,false]},{"code":122,"indent":0,"parameters":[157,157,1,0,1]},{"code":0,"indent":0,"parameters":[]}],"moveFrequency":3,"moveRoute":{"list":[{"code":0,"parameters":[]}],"repeat":true,"skippable":false,"wait":false},"moveSpeed":3,"moveType":0,"priorityType":1,"stepAnime":false,"through":false,"trigger":0,"walkAnime":false},{"conditions":{"actorId":1,"actorValid":false,"itemId":1,"itemValid":false,"selfSwitchCh":"A","selfSwitchValid":true,"switch1Id":1,"switch1Valid":false,"switch2Id":1,"switch2Valid":false,"variableId":1,"variableValid":false,"variableValue":0},"directionFix":false,"image":{"characterIndex":0,"characterName":"","direction":2,"pattern":0,"tileId":0},"list":[{"code":0,"indent":0,"parameters":[]}],"moveFrequency":3,"moveRoute":{"list":[{"code":0,"parameters":[]}],"repeat":true,"skippable":false,"wait":false},"moveSpeed":3,"moveType":0,"priorityType":0,"stepAnime":false,"through":false,"trigger":0,"walkAnime":true},{"conditions":{"actorId":1,"actorValid":false,"itemId":1,"itemValid":false,"selfSwitchCh":"A","selfSwitchValid":false,"switch1Id":1,"switch1Valid":false,"switch2Id":1,"switch2Valid":false,"variableId":324,"variableValid":true,"variableValue":1},"directionFix":false,"image":{"characterIndex":0,"characterName":"","direction":2,"pattern":0,"tileId":0},"list":[{"code":0,"indent":0,"parameters":[]}],"moveFrequency":3,"moveRoute":{"list":[{"code":0,"parameters":[]}],"repeat":true,"skippable":false,"wait":false},"moveSpeed":3,"moveType":0,"priorityType":0,"stepAnime":false,"through":false,"trigger":0,"walkAnime":true}],"x":2,"y":4},
{"id":9,"name":"EV009","note":"","pages":[{"conditions":{"actorId":1,"actorValid":false,"itemId":1,"itemValid":false,"selfSwitchCh":"A","selfSwitchValid":false,"switch1Id":1,"switch1Valid":false,"switch2Id":1,"switch2Valid":false,"variableId":1,"variableValid":false,"variableValue":0},"directionFix":false,"image":{"characterIndex":0,"characterName":"","direction":2,"pattern":0,"tileId":0},"list":[{"code":101,"indent":0,"parameters":["Drogado_Faces",1,0,2]},{"code":401,"indent":0,"parameters":["Bora dormir antes um pouco?"]},{"code":101,"indent":0,"parameters":["Barbosa_Faces",6,0,2]},{"code":401,"indent":0,"parameters":["Porra\\. bora embora!"]},{"code":101,"indent":0,"parameters":["Bon Jovi_Faces",2,0,2]},{"code":401,"indent":0,"parameters":["Sossega\\., muleke!\\. A gente tá exausto."]},{"code":101,"indent":0,"parameters":["Barbosa_Faces",0,0,2]},{"code":401,"indent":0,"parameters":["Eu vou esperar vovov\\|\\.vocês lá fora então."]},{"code":221,"indent":0,"parameters":[]},{"code":313,"indent":0,"parameters":[0,0,0,109]},{"code":117,"indent":0,"parameters":[21]},{"code":129,"indent":0,"parameters":[8,0,false]},{"code":313,"indent":0,"parameters":[0,8,1,109]},{"code":201,"indent":0,"parameters":[0,158,6,9,0,0]},{"code":121,"indent":0,"parameters":[339,339,0]},{"code":0,"indent":0,"parameters":[]}],"moveFrequency":3,"moveRoute":{"list":[{"code":0,"parameters":[]}],"repeat":true,"skippable":false,"wait":false},"moveSpeed":3,"moveType":0,"priorityType":1,"stepAnime":false,"through":false,"trigger":0,"walkAnime":true},{"conditions":{"actorId":1,"actorValid":false,"itemId":1,"itemValid":false,"selfSwitchCh":"A","selfSwitchValid":false,"switch1Id":339,"switch1Valid":true,"switch2Id":1,"switch2Valid":false,"variableId":1,"variableValid":false,"variableValue":0},"directionFix":false,"image":{"characterIndex":0,"characterName":"","direction":2,"pattern":0,"tileId":0},"list":[{"code":0,"indent":0,"parameters":[]}],"moveFrequency":3,"moveRoute":{"list":[{"code":0,"parameters":[]}],"repeat":true,"skippable":false,"wait":false},"moveSpeed":3,"moveType":0,"priorityType":0,"stepAnime":false,"through":false,"trigger":0,"walkAnime":true}],"x":3,"y":4},
{"id":10,"name":"EV010","note":"","pages":[{"conditions":{"actorId":1,"actorValid":false,"itemId":1,"itemValid":false,"selfSwitchCh":"A","selfSwitchValid":false,"switch1Id":1,"switch1Valid":false,"switch2Id":1,"switch2Valid":false,"variableId":1,"variableValid":false,"variableValue":0},"directionFix":false,"image":{"characterIndex":0,"characterName":"","direction":2,"pattern":0,"tileId":0},"list":[{"code":101,"indent":0,"parameters":["Drogado_Faces",1,0,2]},{"code":401,"indent":0,"parameters":["Bora dormir antes um pouco?"]},{"code":101,"indent":0,"parameters":["Barbosa_Faces",6,0,2]},{"code":401,"indent":0,"parameters":["Porra\\. bora embora!"]},{"code":101,"indent":0,"parameters":["Bon Jovi_Faces",2,0,2]},{"code":401,"indent":0,"parameters":["Sossega\\., muleke!\\. A gente tá exausto."]},{"code":101,"indent":0,"parameters":["Barbosa_Faces",0,0,2]},{"code":401,"indent":0,"parameters":["Eu vou esperar vovov\\|\\.vocês lá fora então."]},{"code":221,"indent":0,"parameters":[]},{"code":313,"indent":0,"parameters":[0,0,0,109]},{"code":117,"indent":0,"parameters":[21]},{"code":129,"indent":0,"parameters":[8,0,false]},{"code":313,"indent":0,"parameters":[0,8,1,109]},{"code":201,"indent":0,"parameters":[0,158,6,9,0,0]},{"code":121,"indent":0,"parameters":[339,339,0]},{"code":0,"indent":0,"parameters":[]}],"moveFrequency":3,"moveRoute":{"list":[{"code":0,"parameters":[]}],"repeat":true,"skippable":false,"wait":false},"moveSpeed":3,"moveType":0,"priorityType":1,"stepAnime":false,"through":false,"trigger":0,"walkAnime":true},{"conditions":{"actorId":1,"actorValid":false,"itemId":1,"itemValid":false,"selfSwitchCh":"A","selfSwitchValid":false,"switch1Id":339,"switch1Valid":true,"switch2Id":1,"switch2Valid":false,"variableId":1,"variableValid":false,"variableValue":0},"directionFix":false,"image":{"characterIndex":0,"characterName":"","direction":2,"pattern":0,"tileId":0},"list":[{"code":0,"indent":0,"parameters":[]}],"moveFrequency":3,"moveRoute":{"list":[{"code":0,"parameters":[]}],"repeat":true,"skippable":false,"wait":false},"moveSpeed":3,"moveType":0,"priorityType":0,"stepAnime":false,"through":false,"trigger":0,"walkAnime":true}],"x":3,"y":3},
{"id":11,"name":"EV011","note":"","pages":[{"conditions":{"actorId":1,"actorValid":false,"itemId":1,"itemValid":false,"selfSwitchCh":"A","selfSwitchValid":false,"switch1Id":1,"switch1Valid":false,"switch2Id":1,"switch2Valid":false,"variableId":1,"variableValid":false,"variableValue":0},"directionFix":false,"image":{"characterIndex":0,"characterName":"","direction":2,"pattern":0,"tileId":0},"list":[{"code":101,"indent":0,"parameters":["Drogado_Faces",1,0,2]},{"code":401,"indent":0,"parameters":["Bora dormir antes um pouco?"]},{"code":101,"indent":0,"parameters":["Barbosa_Faces",6,0,2]},{"code":401,"indent":0,"parameters":["Porra\\. bora embora!"]},{"code":101,"indent":0,"parameters":["Bon Jovi_Faces",2,0,2]},{"code":401,"indent":0,"parameters":["Sossega\\., muleke!\\. A gente tá exausto."]},{"code":101,"indent":0,"parameters":["Barbosa_Faces",0,0,2]},{"code":401,"indent":0,"parameters":["Eu vou esperar vovov\\|\\.vocês lá fora então."]},{"code":221,"indent":0,"parameters":[]},{"code":313,"indent":0,"parameters":[0,0,0,109]},{"code":117,"indent":0,"parameters":[21]},{"code":129,"indent":0,"parameters":[8,0,false]},{"code":313,"indent":0,"parameters":[0,8,1,109]},{"code":201,"indent":0,"parameters":[0,158,6,9,0,0]},{"code":121,"indent":0,"parameters":[339,339,0]},{"code":0,"indent":0,"parameters":[]}],"moveFrequency":3,"moveRoute":{"list":[{"code":0,"parameters":[]}],"repeat":true,"skippable":false,"wait":false},"moveSpeed":3,"moveType":0,"priorityType":1,"stepAnime":false,"through":false,"trigger":0,"walkAnime":true},{"conditions":{"actorId":1,"actorValid":false,"itemId":1,"itemValid":false,"selfSwitchCh":"A","selfSwitchValid":false,"switch1Id":339,"switch1Valid":true,"switch2Id":1,"switch2Valid":false,"variableId":1,"variableValid":false,"variableValue":0},"directionFix":false,"image":{"characterIndex":0,"characterName":"","direction":2,"pattern":0,"tileId":0},"list":[{"code":0,"indent":0,"parameters":[]}],"moveFrequency":3,"moveRoute":{"list":[{"code":0,"parameters":[]}],"repeat":true,"skippable":false,"wait":false},"moveSpeed":3,"moveType":0,"priorityType":0,"stepAnime":false,"through":false,"trigger":0,"walkAnime":true}],"x":4,"y":3},
{"id":12,"name":"EV012","note":"","pages":[{"conditions":{"actorId":1,"actorValid":false,"itemId":1,"itemValid":false,"selfSwitchCh":"A","selfSwitchValid":false,"switch1Id":1,"switch1Valid":false,"switch2Id":1,"switch2Valid":false,"variableId":1,"variableValid":false,"variableValue":0},"directionFix":false,"image":{"characterIndex":0,"characterName":"","direction":2,"pattern":0,"tileId":0},"list":[{"code":101,"indent":0,"parameters":["Drogado_Faces",1,0,2]},{"code":401,"indent":0,"parameters":["Bora dormir antes um pouco?"]},{"code":101,"indent":0,"parameters":["Barbosa_Faces",6,0,2]},{"code":401,"indent":0,"parameters":["Porra\\. bora embora!"]},{"code":101,"indent":0,"parameters":["Bon Jovi_Faces",2,0,2]},{"code":401,"indent":0,"parameters":["Sossega\\., muleke!\\. A gente tá exausto."]},{"code":101,"indent":0,"parameters":["Barbosa_Faces",0,0,2]},{"code":401,"indent":0,"parameters":["Eu vou esperar vovov\\|\\.vocês lá fora então."]},{"code":221,"indent":0,"parameters":[]},{"code":313,"indent":0,"parameters":[0,0,0,109]},{"code":117,"indent":0,"parameters":[21]},{"code":129,"indent":0,"parameters":[8,0,false]},{"code":313,"indent":0,"parameters":[0,8,1,109]},{"code":201,"indent":0,"parameters":[0,158,6,9,0,0]},{"code":121,"indent":0,"parameters":[339,339,0]},{"code":0,"indent":0,"parameters":[]}],"moveFrequency":3,"moveRoute":{"list":[{"code":0,"parameters":[]}],"repeat":true,"skippable":false,"wait":false},"moveSpeed":3,"moveType":0,"priorityType":1,"stepAnime":false,"through":false,"trigger":0,"walkAnime":true},{"conditions":{"actorId":1,"actorValid":false,"itemId":1,"itemValid":false,"selfSwitchCh":"A","selfSwitchValid":false,"switch1Id":339,"switch1Valid":true,"switch2Id":1,"switch2Valid":false,"variableId":1,"variableValid":false,"variableValue":0},"directionFix":false,"image":{"characterIndex":0,"characterName":"","direction":2,"pattern":0,"tileId":0},"list":[{"code":0,"indent":0,"parameters":[]}],"moveFrequency":3,"moveRoute":{"list":[{"code":0,"parameters":[]}],"repeat":true,"skippable":false,"wait":false},"moveSpeed":3,"moveType":0,"priorityType":0,"stepAnime":false,"through":false,"trigger":0,"walkAnime":true}],"x":4,"y":4},
{"id":13,"name":"EV013","note":"","pages":[{"conditions":{"actorId":1,"actorValid":false,"itemId":1,"itemValid":false,"selfSwitchCh":"A","selfSwitchValid":false,"switch1Id":1,"switch1Valid":false,"switch2Id":1,"switch2Valid":false,"variableId":1,"variableValid":false,"variableValue":0},"directionFix":false,"image":{"characterIndex":0,"characterName":"","direction":2,"pattern":0,"tileId":0},"list":[{"code":101,"indent":0,"parameters":["Drogado_Faces",1,0,2]},{"code":401,"indent":0,"parameters":["Bora dormir antes um pouco?"]},{"code":101,"indent":0,"parameters":["Barbosa_Faces",6,0,2]},{"code":401,"indent":0,"parameters":["Porra\\. bora embora!"]},{"code":101,"indent":0,"parameters":["Bon Jovi_Faces",2,0,2]},{"code":401,"indent":0,"parameters":["Sossega\\., muleke!\\. A gente tá exausto."]},{"code":101,"indent":0,"parameters":["Barbosa_Faces",0,0,2]},{"code":401,"indent":0,"parameters":["Eu vou esperar vovov\\|\\.vocês lá fora então."]},{"code":221,"indent":0,"parameters":[]},{"code":313,"indent":0,"parameters":[0,0,0,109]},{"code":117,"indent":0,"parameters":[21]},{"code":129,"indent":0,"parameters":[8,0,false]},{"code":313,"indent":0,"parameters":[0,8,1,109]},{"code":201,"indent":0,"parameters":[0,158,6,9,0,0]},{"code":121,"indent":0,"parameters":[339,339,0]},{"code":0,"indent":0,"parameters":[]}],"moveFrequency":3,"moveRoute":{"list":[{"code":0,"parameters":[]}],"repeat":true,"skippable":false,"wait":false},"moveSpeed":3,"moveType":0,"priorityType":1,"stepAnime":false,"through":false,"trigger":0,"walkAnime":true},{"conditions":{"actorId":1,"actorValid":false,"itemId":1,"itemValid":false,"selfSwitchCh":"A","selfSwitchValid":false,"switch1Id":339,"switch1Valid":true,"switch2Id":1,"switch2Valid":false,"variableId":1,"variableValid":false,"variableValue":0},"directionFix":false,"image":{"characterIndex":0,"characterName":"","direction":2,"pattern":0,"tileId":0},"list":[{"code":0,"indent":0,"parameters":[]}],"moveFrequency":3,"moveRoute":{"list":[{"code":0,"parameters":[]}],"repeat":true,"skippable":false,"wait":false},"moveSpeed":3,"moveType":0,"priorityType":0,"stepAnime":false,"through":false,"trigger":0,"walkAnime":true}],"x":5,"y":4},
{"id":14,"name":"EV014","note":"","pages":[{"conditions":{"actorId":1,"actorValid":false,"itemId":1,"itemValid":false,"selfSwitchCh":"A","selfSwitchValid":false,"switch1Id":1,"switch1Valid":false,"switch2Id":1,"switch2Valid":false,"variableId":1,"variableValid":false,"variableValue":0},"directionFix":false,"image":{"characterIndex":0,"characterName":"","direction":2,"pattern":0,"tileId":0},"list":[{"code":101,"indent":0,"parameters":["Drogado_Faces",1,0,2]},{"code":401,"indent":0,"parameters":["Bora dormir antes um pouco?"]},{"code":101,"indent":0,"parameters":["Barbosa_Faces",6,0,2]},{"code":401,"indent":0,"parameters":["Porra\\. bora embora!"]},{"code":101,"indent":0,"parameters":["Bon Jovi_Faces",2,0,2]},{"code":401,"indent":0,"parameters":["Sossega\\., muleke!\\. A gente tá exausto."]},{"code":101,"indent":0,"parameters":["Barbosa_Faces",0,0,2]},{"code":401,"indent":0,"parameters":["Eu vou esperar vovov\\|\\.vocês lá fora então."]},{"code":221,"indent":0,"parameters":[]},{"code":313,"indent":0,"parameters":[0,0,0,109]},{"code":117,"indent":0,"parameters":[21]},{"code":129,"indent":0,"parameters":[8,0,false]},{"code":313,"indent":0,"parameters":[0,8,1,109]},{"code":201,"indent":0,"parameters":[0,158,6,9,0,0]},{"code":121,"indent":0,"parameters":[339,339,0]},{"code":0,"indent":0,"parameters":[]}],"moveFrequency":3,"moveRoute":{"list":[{"code":0,"parameters":[]}],"repeat":true,"skippable":false,"wait":false},"moveSpeed":3,"moveType":0,"priorityType":1,"stepAnime":false,"through":false,"trigger":0,"walkAnime":true},{"conditions":{"actorId":1,"actorValid":false,"itemId":1,"itemValid":false,"selfSwitchCh":"A","selfSwitchValid":false,"switch1Id":339,"switch1Valid":true,"switch2Id":1,"switch2Valid":false,"variableId":1,"variableValid":false,"variableValue":0},"directionFix":false,"image":{"characterIndex":0,"characterName":"","direction":2,"pattern":0,"tileId":0},"list":[{"code":0,"indent":0,"parameters":[]}],"moveFrequency":3,"moveRoute":{"list":[{"code":0,"parameters":[]}],"repeat":true,"skippable":false,"wait":false},"moveSpeed":3,"moveType":0,"priorityType":0,"stepAnime":false,"through":false,"trigger":0,"walkAnime":true}],"x":5,"y":3},
{"id":15,"name":"EV015","note":"","pages":[{"conditions":{"actorId":1,"actorValid":false,"itemId":1,"itemValid":false,"selfSwitchCh":"A","selfSwitchValid":false,"switch1Id":339,"switch1Valid":true,"switch2Id":1,"switch2Valid":false,"variableId":1,"variableValid":false,"variableValue":0},"directionFix":true,"image":{"tileId":0,"characterName":"ECA-Damage","direction":2,"pattern":1,"characterIndex":0},"list":[{"code":101,"indent":0,"parameters":["Bon Jovi_Faces",5,0,2]},{"code":401,"indent":0,"parameters":["Muleke\\|\\., muleke."]},{"code":123,"indent":0,"parameters":["A",0]},{"code":129,"indent":0,"parameters":[6,0,false]},{"code":122,"indent":0,"parameters":[157,157,1,0,1]},{"code":0,"indent":0,"parameters":[]}],"moveFrequency":3,"moveRoute":{"list":[{"code":0,"parameters":[]}],"repeat":true,"skippable":false,"wait":false},"moveSpeed":3,"moveType":0,"priorityType":1,"stepAnime":false,"through":false,"trigger":0,"walkAnime":false},{"conditions":{"actorId":1,"actorValid":false,"itemId":1,"itemValid":false,"selfSwitchCh":"A","selfSwitchValid":true,"switch1Id":1,"switch1Valid":false,"switch2Id":1,"switch2Valid":false,"variableId":1,"variableValid":false,"variableValue":0},"directionFix":false,"image":{"characterIndex":0,"characterName":"","direction":2,"pattern":0,"tileId":0},"list":[{"code":0,"indent":0,"parameters":[]}],"moveFrequency":3,"moveRoute":{"list":[{"code":0,"parameters":[]}],"repeat":true,"skippable":false,"wait":false},"moveSpeed":3,"moveType":0,"priorityType":0,"stepAnime":false,"through":false,"trigger":0,"walkAnime":true},{"conditions":{"actorId":1,"actorValid":false,"itemId":1,"itemValid":false,"selfSwitchCh":"A","selfSwitchValid":false,"switch1Id":1,"switch1Valid":false,"switch2Id":1,"switch2Valid":false,"variableId":324,"variableValid":true,"variableValue":1},"directionFix":false,"image":{"characterIndex":0,"characterName":"","direction":2,"pattern":0,"tileId":0},"list":[{"code":0,"indent":0,"parameters":[]}],"moveFrequency":3,"moveRoute":{"list":[{"code":0,"parameters":[]}],"repeat":true,"skippable":false,"wait":false},"moveSpeed":3,"moveType":0,"priorityType":0,"stepAnime":false,"through":false,"trigger":0,"walkAnime":true}],"x":4,"y":9},
{"id":16,"name":"EV016","note":"","pages":[{"conditions":{"actorId":1,"actorValid":false,"itemId":1,"itemValid":false,"selfSwitchCh":"A","selfSwitchValid":false,"switch1Id":339,"switch1Valid":true,"switch2Id":1,"switch2Valid":false,"variableId":1,"variableValid":false,"variableValue":0},"directionFix":true,"image":{"tileId":0,"characterName":"ECA-Damage","direction":6,"pattern":1,"characterIndex":0},"list":[{"code":101,"indent":0,"parameters":["Chanel2",0,0,2]},{"code":401,"indent":0,"parameters":["Porra\\., Barbosa\\., por que que você me acordou?"]},{"code":101,"indent":0,"parameters":["Barbosa_Faces",0,0,2]},{"code":401,"indent":0,"parameters":["Vocês tão dormindo a mais de um dia."]},{"code":101,"indent":0,"parameters":["Chanel2",0,0,2]},{"code":401,"indent":0,"parameters":["\\|E dai?"]},{"code":123,"indent":0,"parameters":["A",0]},{"code":129,"indent":0,"parameters":[2,0,false]},{"code":122,"indent":0,"parameters":[157,157,1,0,1]},{"code":0,"indent":0,"parameters":[]}],"moveFrequency":3,"moveRoute":{"list":[{"code":0,"parameters":[]}],"repeat":true,"skippable":false,"wait":false},"moveSpeed":3,"moveType":0,"priorityType":1,"stepAnime":false,"through":false,"trigger":0,"walkAnime":false},{"conditions":{"actorId":1,"actorValid":false,"itemId":1,"itemValid":false,"selfSwitchCh":"A","selfSwitchValid":true,"switch1Id":1,"switch1Valid":false,"switch2Id":1,"switch2Valid":false,"variableId":1,"variableValid":false,"variableValue":0},"directionFix":false,"image":{"characterIndex":0,"characterName":"","direction":2,"pattern":0,"tileId":0},"list":[{"code":0,"indent":0,"parameters":[]}],"moveFrequency":3,"moveRoute":{"list":[{"code":0,"parameters":[]}],"repeat":true,"skippable":false,"wait":false},"moveSpeed":3,"moveType":0,"priorityType":0,"stepAnime":false,"through":false,"trigger":0,"walkAnime":true},{"conditions":{"actorId":1,"actorValid":false,"itemId":1,"itemValid":false,"selfSwitchCh":"A","selfSwitchValid":false,"switch1Id":1,"switch1Valid":false,"switch2Id":1,"switch2Valid":false,"variableId":324,"variableValid":true,"variableValue":1},"directionFix":false,"image":{"characterIndex":0,"characterName":"","direction":2,"pattern":0,"tileId":0},"list":[{"code":0,"indent":0,"parameters":[]}],"moveFrequency":3,"moveRoute":{"list":[{"code":0,"parameters":[]}],"repeat":true,"skippable":false,"wait":false},"moveSpeed":3,"moveType":0,"priorityType":0,"stepAnime":false,"through":false,"trigger":0,"walkAnime":true}],"x":7,"y":7},
{"id":17,"name":"EV017","note":"","pages":[{"conditions":{"actorId":1,"actorValid":false,"itemId":1,"itemValid":false,"selfSwitchCh":"A","selfSwitchValid":false,"switch1Id":1,"switch1Valid":false,"switch2Id":1,"switch2Valid":false,"variableId":1,"variableValid":false,"variableValue":0},"directionFix":false,"image":{"characterIndex":0,"characterName":"","direction":2,"pattern":0,"tileId":0},"list":[{"code":101,"indent":0,"parameters":["Drogado_Faces",1,0,2]},{"code":401,"indent":0,"parameters":["Bora dormir antes um pouco?"]},{"code":101,"indent":0,"parameters":["Barbosa_Faces",6,0,2]},{"code":401,"indent":0,"parameters":["Porra\\. bora embora!"]},{"code":101,"indent":0,"parameters":["Bon Jovi_Faces",2,0,2]},{"code":401,"indent":0,"parameters":["Sossega\\., muleke!\\. A gente tá exausto."]},{"code":101,"indent":0,"parameters":["Barbosa_Faces",0,0,2]},{"code":401,"indent":0,"parameters":["Eu vou esperar vovov\\|\\.vocês lá fora então."]},{"code":221,"indent":0,"parameters":[]},{"code":313,"indent":0,"parameters":[0,0,0,109]},{"code":117,"indent":0,"parameters":[21]},{"code":129,"indent":0,"parameters":[8,0,false]},{"code":313,"indent":0,"parameters":[0,8,1,109]},{"code":201,"indent":0,"parameters":[0,158,6,9,0,0]},{"code":121,"indent":0,"parameters":[339,339,0]},{"code":0,"indent":0,"parameters":[]}],"moveFrequency":3,"moveRoute":{"list":[{"code":0,"parameters":[]}],"repeat":true,"skippable":false,"wait":false},"moveSpeed":3,"moveType":0,"priorityType":1,"stepAnime":false,"through":false,"trigger":0,"walkAnime":true},{"conditions":{"actorId":1,"actorValid":false,"itemId":1,"itemValid":false,"selfSwitchCh":"A","selfSwitchValid":false,"switch1Id":339,"switch1Valid":true,"switch2Id":1,"switch2Valid":false,"variableId":1,"variableValid":false,"variableValue":0},"directionFix":false,"image":{"characterIndex":0,"characterName":"","direction":2,"pattern":0,"tileId":0},"list":[{"code":0,"indent":0,"parameters":[]}],"moveFrequency":3,"moveRoute":{"list":[{"code":0,"parameters":[]}],"repeat":true,"skippable":false,"wait":false},"moveSpeed":3,"moveType":0,"priorityType":0,"stepAnime":false,"through":false,"trigger":0,"walkAnime":true}],"x":15,"y":4},
{"id":18,"name":"EV018","note":"","pages":[{"conditions":{"actorId":1,"actorValid":false,"itemId":1,"itemValid":false,"selfSwitchCh":"A","selfSwitchValid":false,"switch1Id":1,"switch1Valid":false,"switch2Id":1,"switch2Valid":false,"variableId":1,"variableValid":false,"variableValue":0},"directionFix":false,"image":{"characterIndex":0,"characterName":"","direction":2,"pattern":0,"tileId":0},"list":[{"code":101,"indent":0,"parameters":["Drogado_Faces",1,0,2]},{"code":401,"indent":0,"parameters":["Bora dormir antes um pouco?"]},{"code":101,"indent":0,"parameters":["Barbosa_Faces",6,0,2]},{"code":401,"indent":0,"parameters":["Porra\\. bora embora!"]},{"code":101,"indent":0,"parameters":["Bon Jovi_Faces",2,0,2]},{"code":401,"indent":0,"parameters":["Sossega\\., muleke!\\. A gente tá exausto."]},{"code":101,"indent":0,"parameters":["Barbosa_Faces",0,0,2]},{"code":401,"indent":0,"parameters":["Eu vou esperar vovov\\|\\.vocês lá fora então."]},{"code":221,"indent":0,"parameters":[]},{"code":313,"indent":0,"parameters":[0,0,0,109]},{"code":117,"indent":0,"parameters":[21]},{"code":129,"indent":0,"parameters":[8,0,false]},{"code":313,"indent":0,"parameters":[0,8,1,109]},{"code":201,"indent":0,"parameters":[0,158,6,9,0,0]},{"code":121,"indent":0,"parameters":[339,339,0]},{"code":0,"indent":0,"parameters":[]}],"moveFrequency":3,"moveRoute":{"list":[{"code":0,"parameters":[]}],"repeat":true,"skippable":false,"wait":false},"moveSpeed":3,"moveType":0,"priorityType":1,"stepAnime":false,"through":false,"trigger":0,"walkAnime":true},{"conditions":{"actorId":1,"actorValid":false,"itemId":1,"itemValid":false,"selfSwitchCh":"A","selfSwitchValid":false,"switch1Id":339,"switch1Valid":true,"switch2Id":1,"switch2Valid":false,"variableId":1,"variableValid":false,"variableValue":0},"directionFix":false,"image":{"characterIndex":0,"characterName":"","direction":2,"pattern":0,"tileId":0},"list":[{"code":0,"indent":0,"parameters":[]}],"moveFrequency":3,"moveRoute":{"list":[{"code":0,"parameters":[]}],"repeat":true,"skippable":false,"wait":false},"moveSpeed":3,"moveType":0,"priorityType":0,"stepAnime":false,"through":false,"trigger":0,"walkAnime":true}],"x":16,"y":4},
{"id":19,"name":"EV019","note":"","pages":[{"conditions":{"actorId":1,"actorValid":false,"itemId":1,"itemValid":false,"selfSwitchCh":"A","selfSwitchValid":false,"switch1Id":1,"switch1Valid":false,"switch2Id":1,"switch2Valid":false,"variableId":1,"variableValid":false,"variableValue":0},"directionFix":false,"image":{"characterIndex":0,"characterName":"","direction":2,"pattern":0,"tileId":0},"list":[{"code":101,"indent":0,"parameters":["Drogado_Faces",1,0,2]},{"code":401,"indent":0,"parameters":["Bora dormir antes um pouco?"]},{"code":101,"indent":0,"parameters":["Barbosa_Faces",6,0,2]},{"code":401,"indent":0,"parameters":["Porra\\. bora embora!"]},{"code":101,"indent":0,"parameters":["Bon Jovi_Faces",2,0,2]},{"code":401,"indent":0,"parameters":["Sossega\\., muleke!\\. A gente tá exausto."]},{"code":101,"indent":0,"parameters":["Barbosa_Faces",0,0,2]},{"code":401,"indent":0,"parameters":["Eu vou esperar vovov\\|\\.vocês lá fora então."]},{"code":221,"indent":0,"parameters":[]},{"code":313,"indent":0,"parameters":[0,0,0,109]},{"code":117,"indent":0,"parameters":[21]},{"code":129,"indent":0,"parameters":[8,0,false]},{"code":313,"indent":0,"parameters":[0,8,1,109]},{"code":201,"indent":0,"parameters":[0,158,6,9,0,0]},{"code":121,"indent":0,"parameters":[339,339,0]},{"code":0,"indent":0,"parameters":[]}],"moveFrequency":3,"moveRoute":{"list":[{"code":0,"parameters":[]}],"repeat":true,"skippable":false,"wait":false},"moveSpeed":3,"moveType":0,"priorityType":1,"stepAnime":false,"through":false,"trigger":0,"walkAnime":true},{"conditions":{"actorId":1,"actorValid":false,"itemId":1,"itemValid":false,"selfSwitchCh":"A","selfSwitchValid":false,"switch1Id":339,"switch1Valid":true,"switch2Id":1,"switch2Valid":false,"variableId":1,"variableValid":false,"variableValue":0},"directionFix":false,"image":{"characterIndex":0,"characterName":"","direction":2,"pattern":0,"tileId":0},"list":[{"code":0,"indent":0,"parameters":[]}],"moveFrequency":3,"moveRoute":{"list":[{"code":0,"parameters":[]}],"repeat":true,"skippable":false,"wait":false},"moveSpeed":3,"moveType":0,"priorityType":0,"stepAnime":false,"through":false,"trigger":0,"walkAnime":true}],"x":14,"y":6},
{"id":20,"name":"EV020","note":"","pages":[{"conditions":{"actorId":1,"actorValid":false,"itemId":1,"itemValid":false,"selfSwitchCh":"A","selfSwitchValid":false,"switch1Id":1,"switch1Valid":false,"switch2Id":1,"switch2Valid":false,"variableId":1,"variableValid":false,"variableValue":0},"directionFix":false,"image":{"characterIndex":0,"characterName":"","direction":2,"pattern":0,"tileId":0},"list":[{"code":101,"indent":0,"parameters":["Drogado_Faces",1,0,2]},{"code":401,"indent":0,"parameters":["Bora dormir antes um pouco?"]},{"code":101,"indent":0,"parameters":["Barbosa_Faces",6,0,2]},{"code":401,"indent":0,"parameters":["Porra\\. bora embora!"]},{"code":101,"indent":0,"parameters":["Bon Jovi_Faces",2,0,2]},{"code":401,"indent":0,"parameters":["Sossega\\., muleke!\\. A gente tá exausto."]},{"code":101,"indent":0,"parameters":["Barbosa_Faces",0,0,2]},{"code":401,"indent":0,"parameters":["Eu vou esperar vovov\\|\\.vocês lá fora então."]},{"code":221,"indent":0,"parameters":[]},{"code":313,"indent":0,"parameters":[0,0,0,109]},{"code":117,"indent":0,"parameters":[21]},{"code":129,"indent":0,"parameters":[8,0,false]},{"code":313,"indent":0,"parameters":[0,8,1,109]},{"code":201,"indent":0,"parameters":[0,158,6,9,0,0]},{"code":121,"indent":0,"parameters":[339,339,0]},{"code":0,"indent":0,"parameters":[]}],"moveFrequency":3,"moveRoute":{"list":[{"code":0,"parameters":[]}],"repeat":true,"skippable":false,"wait":false},"moveSpeed":3,"moveType":0,"priorityType":1,"stepAnime":false,"through":false,"trigger":0,"walkAnime":true},{"conditions":{"actorId":1,"actorValid":false,"itemId":1,"itemValid":false,"selfSwitchCh":"A","selfSwitchValid":false,"switch1Id":339,"switch1Valid":true,"switch2Id":1,"switch2Valid":false,"variableId":1,"variableValid":false,"variableValue":0},"directionFix":false,"image":{"characterIndex":0,"characterName":"","direction":2,"pattern":0,"tileId":0},"list":[{"code":0,"indent":0,"parameters":[]}],"moveFrequency":3,"moveRoute":{"list":[{"code":0,"parameters":[]}],"repeat":true,"skippable":false,"wait":false},"moveSpeed":3,"moveType":0,"priorityType":0,"stepAnime":false,"through":false,"trigger":0,"walkAnime":true}],"x":14,"y":7},
{"id":21,"name":"EV021","note":"","pages":[{"conditions":{"actorId":1,"actorValid":false,"itemId":1,"itemValid":false,"selfSwitchCh":"A","selfSwitchValid":false,"switch1Id":1,"switch1Valid":false,"switch2Id":1,"switch2Valid":false,"variableId":1,"variableValid":false,"variableValue":0},"directionFix":false,"image":{"characterIndex":0,"characterName":"","direction":2,"pattern":0,"tileId":0},"list":[{"code":101,"indent":0,"parameters":["Drogado_Faces",1,0,2]},{"code":401,"indent":0,"parameters":["Bora dormir antes um pouco?"]},{"code":101,"indent":0,"parameters":["Barbosa_Faces",6,0,2]},{"code":401,"indent":0,"parameters":["Porra\\. bora embora!"]},{"code":101,"indent":0,"parameters":["Bon Jovi_Faces",2,0,2]},{"code":401,"indent":0,"parameters":["Sossega\\., muleke!\\. A gente tá exausto."]},{"code":101,"indent":0,"parameters":["Barbosa_Faces",0,0,2]},{"code":401,"indent":0,"parameters":["Eu vou esperar vovov\\|\\.vocês lá fora então."]},{"code":221,"indent":0,"parameters":[]},{"code":313,"indent":0,"parameters":[0,0,0,109]},{"code":117,"indent":0,"parameters":[21]},{"code":129,"indent":0,"parameters":[8,0,false]},{"code":313,"indent":0,"parameters":[0,8,1,109]},{"code":201,"indent":0,"parameters":[0,158,6,9,0,0]},{"code":121,"indent":0,"parameters":[339,339,0]},{"code":0,"indent":0,"parameters":[]}],"moveFrequency":3,"moveRoute":{"list":[{"code":0,"parameters":[]}],"repeat":true,"skippable":false,"wait":false},"moveSpeed":3,"moveType":0,"priorityType":1,"stepAnime":false,"through":false,"trigger":0,"walkAnime":true},{"conditions":{"actorId":1,"actorValid":false,"itemId":1,"itemValid":false,"selfSwitchCh":"A","selfSwitchValid":false,"switch1Id":339,"switch1Valid":true,"switch2Id":1,"switch2Valid":false,"variableId":1,"variableValid":false,"variableValue":0},"directionFix":false,"image":{"characterIndex":0,"characterName":"","direction":2,"pattern":0,"tileId":0},"list":[{"code":0,"indent":0,"parameters":[]}],"moveFrequency":3,"moveRoute":{"list":[{"code":0,"parameters":[]}],"repeat":true,"skippable":false,"wait":false},"moveSpeed":3,"moveType":0,"priorityType":0,"stepAnime":false,"through":false,"trigger":0,"walkAnime":true}],"x":15,"y":7},
{"id":22,"name":"EV022","note":"","pages":[{"conditions":{"actorId":1,"actorValid":false,"itemId":1,"itemValid":false,"selfSwitchCh":"A","selfSwitchValid":false,"switch1Id":1,"switch1Valid":false,"switch2Id":1,"switch2Valid":false,"variableId":1,"variableValid":false,"variableValue":0},"directionFix":false,"image":{"characterIndex":0,"characterName":"","direction":2,"pattern":0,"tileId":0},"list":[{"code":101,"indent":0,"parameters":["Drogado_Faces",1,0,2]},{"code":401,"indent":0,"parameters":["Bora dormir antes um pouco?"]},{"code":101,"indent":0,"parameters":["Barbosa_Faces",6,0,2]},{"code":401,"indent":0,"parameters":["Porra\\. bora embora!"]},{"code":101,"indent":0,"parameters":["Bon Jovi_Faces",2,0,2]},{"code":401,"indent":0,"parameters":["Sossega\\., muleke!\\. A gente tá exausto."]},{"code":101,"indent":0,"parameters":["Barbosa_Faces",0,0,2]},{"code":401,"indent":0,"parameters":["Eu vou esperar vovov\\|\\.vocês lá fora então."]},{"code":221,"indent":0,"parameters":[]},{"code":313,"indent":0,"parameters":[0,0,0,109]},{"code":117,"indent":0,"parameters":[21]},{"code":129,"indent":0,"parameters":[8,0,false]},{"code":313,"indent":0,"parameters":[0,8,1,109]},{"code":201,"indent":0,"parameters":[0,158,6,9,0,0]},{"code":121,"indent":0,"parameters":[339,339,0]},{"code":0,"indent":0,"parameters":[]}],"moveFrequency":3,"moveRoute":{"list":[{"code":0,"parameters":[]}],"repeat":true,"skippable":false,"wait":false},"moveSpeed":3,"moveType":0,"priorityType":1,"stepAnime":false,"through":false,"trigger":0,"walkAnime":true},{"conditions":{"actorId":1,"actorValid":false,"itemId":1,"itemValid":false,"selfSwitchCh":"A","selfSwitchValid":false,"switch1Id":339,"switch1Valid":true,"switch2Id":1,"switch2Valid":false,"variableId":1,"variableValid":false,"variableValue":0},"directionFix":false,"image":{"characterIndex":0,"characterName":"","direction":2,"pattern":0,"tileId":0},"list":[{"code":0,"indent":0,"parameters":[]}],"moveFrequency":3,"moveRoute":{"list":[{"code":0,"parameters":[]}],"repeat":true,"skippable":false,"wait":false},"moveSpeed":3,"moveType":0,"priorityType":0,"stepAnime":false,"through":false,"trigger":0,"walkAnime":true}],"x":15,"y":6},
{"id":23,"name":"EV023","note":"","pages":[{"conditions":{"actorId":1,"actorValid":false,"itemId":1,"itemValid":false,"selfSwitchCh":"A","selfSwitchValid":false,"switch1Id":1,"switch1Valid":false,"switch2Id":1,"switch2Valid":false,"variableId":1,"variableValid":false,"variableValue":0},"directionFix":false,"image":{"characterIndex":0,"characterName":"","direction":2,"pattern":0,"tileId":0},"list":[{"code":101,"indent":0,"parameters":["Drogado_Faces",1,0,2]},{"code":401,"indent":0,"parameters":["Bora dormir antes um pouco?"]},{"code":101,"indent":0,"parameters":["Barbosa_Faces",6,0,2]},{"code":401,"indent":0,"parameters":["Porra\\. bora embora!"]},{"code":101,"indent":0,"parameters":["Bon Jovi_Faces",2,0,2]},{"code":401,"indent":0,"parameters":["Sossega\\., muleke!\\. A gente tá exausto."]},{"code":101,"indent":0,"parameters":["Barbosa_Faces",0,0,2]},{"code":401,"indent":0,"parameters":["Eu vou esperar vovov\\|\\.vocês lá fora então."]},{"code":221,"indent":0,"parameters":[]},{"code":313,"indent":0,"parameters":[0,0,0,109]},{"code":117,"indent":0,"parameters":[21]},{"code":129,"indent":0,"parameters":[8,0,false]},{"code":313,"indent":0,"parameters":[0,8,1,109]},{"code":201,"indent":0,"parameters":[0,158,6,9,0,0]},{"code":121,"indent":0,"parameters":[339,339,0]},{"code":0,"indent":0,"parameters":[]}],"moveFrequency":3,"moveRoute":{"list":[{"code":0,"parameters":[]}],"repeat":true,"skippable":false,"wait":false},"moveSpeed":3,"moveType":0,"priorityType":1,"stepAnime":false,"through":false,"trigger":0,"walkAnime":true},{"conditions":{"actorId":1,"actorValid":false,"itemId":1,"itemValid":false,"selfSwitchCh":"A","selfSwitchValid":false,"switch1Id":339,"switch1Valid":true,"switch2Id":1,"switch2Valid":false,"variableId":1,"variableValid":false,"variableValue":0},"directionFix":false,"image":{"characterIndex":0,"characterName":"","direction":2,"pattern":0,"tileId":0},"list":[{"code":0,"indent":0,"parameters":[]}],"moveFrequency":3,"moveRoute":{"list":[{"code":0,"parameters":[]}],"repeat":true,"skippable":false,"wait":false},"moveSpeed":3,"moveType":0,"priorityType":0,"stepAnime":false,"through":false,"trigger":0,"walkAnime":true}],"x":16,"y":6},
{"id":24,"name":"EV024","note":"","pages":[{"conditions":{"actorId":1,"actorValid":false,"itemId":1,"itemValid":false,"selfSwitchCh":"A","selfSwitchValid":false,"switch1Id":1,"switch1Valid":false,"switch2Id":1,"switch2Valid":false,"variableId":1,"variableValid":false,"variableValue":0},"directionFix":false,"image":{"characterIndex":0,"characterName":"","direction":2,"pattern":0,"tileId":0},"list":[{"code":101,"indent":0,"parameters":["Drogado_Faces",1,0,2]},{"code":401,"indent":0,"parameters":["Bora dormir antes um pouco?"]},{"code":101,"indent":0,"parameters":["Barbosa_Faces",6,0,2]},{"code":401,"indent":0,"parameters":["Porra\\. bora embora!"]},{"code":101,"indent":0,"parameters":["Bon Jovi_Faces",2,0,2]},{"code":401,"indent":0,"parameters":["Sossega\\., muleke!\\. A gente tá exausto."]},{"code":101,"indent":0,"parameters":["Barbosa_Faces",0,0,2]},{"code":401,"indent":0,"parameters":["Eu vou esperar vovov\\|\\.vocês lá fora então."]},{"code":221,"indent":0,"parameters":[]},{"code":313,"indent":0,"parameters":[0,0,0,109]},{"code":117,"indent":0,"parameters":[21]},{"code":129,"indent":0,"parameters":[8,0,false]},{"code":313,"indent":0,"parameters":[0,8,1,109]},{"code":201,"indent":0,"parameters":[0,158,6,9,0,0]},{"code":121,"indent":0,"parameters":[339,339,0]},{"code":0,"indent":0,"parameters":[]}],"moveFrequency":3,"moveRoute":{"list":[{"code":0,"parameters":[]}],"repeat":true,"skippable":false,"wait":false},"moveSpeed":3,"moveType":0,"priorityType":1,"stepAnime":false,"through":false,"trigger":0,"walkAnime":true},{"conditions":{"actorId":1,"actorValid":false,"itemId":1,"itemValid":false,"selfSwitchCh":"A","selfSwitchValid":false,"switch1Id":339,"switch1Valid":true,"switch2Id":1,"switch2Valid":false,"variableId":1,"variableValid":false,"variableValue":0},"directionFix":false,"image":{"characterIndex":0,"characterName":"","direction":2,"pattern":0,"tileId":0},"list":[{"code":0,"indent":0,"parameters":[]}],"moveFrequency":3,"moveRoute":{"list":[{"code":0,"parameters":[]}],"repeat":true,"skippable":false,"wait":false},"moveSpeed":3,"moveType":0,"priorityType":0,"stepAnime":false,"through":false,"trigger":0,"walkAnime":true}],"x":16,"y":7},
{"id":25,"name":"EV025","note":"","pages":[{"conditions":{"actorId":1,"actorValid":false,"itemId":1,"itemValid":false,"selfSwitchCh":"A","selfSwitchValid":false,"switch1Id":339,"switch1Valid":true,"switch2Id":1,"switch2Valid":false,"variableId":1,"variableValid":false,"variableValue":0},"directionFix":true,"image":{"tileId":0,"characterName":"ECA-Damage","direction":6,"pattern":1,"characterIndex":3},"list":[{"code":101,"indent":0,"parameters":["Cabide_Faces",7,0,2]},{"code":401,"indent":0,"parameters":["Craahlo\\., Brabisonha\\., ue ot doto qeuabrdo. "]},{"code":123,"indent":0,"parameters":["A",0]},{"code":129,"indent":0,"parameters":[5,0,false]},{"code":122,"indent":0,"parameters":[157,157,1,0,1]},{"code":0,"indent":0,"parameters":[]}],"moveFrequency":3,"moveRoute":{"list":[{"code":0,"parameters":[]}],"repeat":true,"skippable":false,"wait":false},"moveSpeed":3,"moveType":0,"priorityType":1,"stepAnime":false,"through":false,"trigger":0,"walkAnime":false},{"conditions":{"actorId":1,"actorValid":false,"itemId":1,"itemValid":false,"selfSwitchCh":"A","selfSwitchValid":true,"switch1Id":1,"switch1Valid":false,"switch2Id":1,"switch2Valid":false,"variableId":1,"variableValid":false,"variableValue":0},"directionFix":false,"image":{"characterIndex":0,"characterName":"","direction":2,"pattern":0,"tileId":0},"list":[{"code":0,"indent":0,"parameters":[]}],"moveFrequency":3,"moveRoute":{"list":[{"code":0,"parameters":[]}],"repeat":true,"skippable":false,"wait":false},"moveSpeed":3,"moveType":0,"priorityType":0,"stepAnime":false,"through":false,"trigger":0,"walkAnime":true},{"conditions":{"actorId":1,"actorValid":false,"itemId":1,"itemValid":false,"selfSwitchCh":"A","selfSwitchValid":false,"switch1Id":1,"switch1Valid":false,"switch2Id":1,"switch2Valid":false,"variableId":324,"variableValid":true,"variableValue":1},"directionFix":false,"image":{"characterIndex":0,"characterName":"","direction":2,"pattern":0,"tileId":0},"list":[{"code":0,"indent":0,"parameters":[]}],"moveFrequency":3,"moveRoute":{"list":[{"code":0,"parameters":[]}],"repeat":true,"skippable":false,"wait":false},"moveSpeed":3,"moveType":0,"priorityType":0,"stepAnime":false,"through":false,"trigger":0,"walkAnime":true}],"x":5,"y":11},
{"id":26,"name":"EV026","note":"","pages":[{"conditions":{"actorId":1,"actorValid":false,"itemId":1,"itemValid":false,"selfSwitchCh":"A","selfSwitchValid":false,"switch1Id":339,"switch1Valid":true,"switch2Id":1,"switch2Valid":false,"variableId":1,"variableValid":false,"variableValue":0},"directionFix":true,"image":{"tileId":0,"characterName":"ECA-Damage","direction":2,"pattern":1,"characterIndex":1},"list":[{"code":101,"indent":0,"parameters":["Magali_Faces2",1,0,2]},{"code":401,"indent":0,"parameters":["Hein??\\. Hã?!?\\| Caralho\\., eu nunca mais durmo."]},{"code":101,"indent":0,"parameters":["Magali_Faces2",4,0,2]},{"code":401,"indent":0,"parameters":["Quer dizer\\., isso não faz muito sentido.\\| Eu to confuso.\\. E com sono."]},{"code":123,"indent":0,"parameters":["A",0]},{"code":129,"indent":0,"parameters":[1,0,false]},{"code":122,"indent":0,"parameters":[157,157,1,0,1]},{"code":0,"indent":0,"parameters":[]}],"moveFrequency":3,"moveRoute":{"list":[{"code":0,"parameters":[]}],"repeat":true,"skippable":false,"wait":false},"moveSpeed":3,"moveType":0,"priorityType":1,"stepAnime":false,"through":false,"trigger":0,"walkAnime":false},{"conditions":{"actorId":1,"actorValid":false,"itemId":1,"itemValid":false,"selfSwitchCh":"A","selfSwitchValid":true,"switch1Id":1,"switch1Valid":false,"switch2Id":1,"switch2Valid":false,"variableId":1,"variableValid":false,"variableValue":0},"directionFix":false,"image":{"characterIndex":0,"characterName":"","direction":2,"pattern":0,"tileId":0},"list":[{"code":0,"indent":0,"parameters":[]}],"moveFrequency":3,"moveRoute":{"list":[{"code":0,"parameters":[]}],"repeat":true,"skippable":false,"wait":false},"moveSpeed":3,"moveType":0,"priorityType":0,"stepAnime":false,"through":false,"trigger":0,"walkAnime":true},{"conditions":{"actorId":1,"actorValid":false,"itemId":1,"itemValid":false,"selfSwitchCh":"A","selfSwitchValid":false,"switch1Id":1,"switch1Valid":false,"switch2Id":1,"switch2Valid":false,"variableId":324,"variableValid":true,"variableValue":1},"directionFix":false,"image":{"characterIndex":0,"characterName":"","direction":2,"pattern":0,"tileId":0},"list":[{"code":0,"indent":0,"parameters":[]}],"moveFrequency":3,"moveRoute":{"list":[{"code":0,"parameters":[]}],"repeat":true,"skippable":false,"wait":false},"moveSpeed":3,"moveType":0,"priorityType":0,"stepAnime":false,"through":false,"trigger":0,"walkAnime":true}],"x":12,"y":4},
{"id":27,"name":"EV027","note":"","pages":[{"conditions":{"actorId":1,"actorValid":false,"itemId":1,"itemValid":false,"selfSwitchCh":"A","selfSwitchValid":false,"switch1Id":339,"switch1Valid":true,"switch2Id":1,"switch2Valid":false,"variableId":1,"variableValid":false,"variableValue":0},"directionFix":true,"image":{"tileId":0,"characterName":"ECA-Damage","direction":4,"pattern":1,"characterIndex":1},"list":[{"code":101,"indent":0,"parameters":["Exemplo_Faces",6,0,2]},{"code":401,"indent":0,"parameters":["Aaaah!!!"]},{"code":101,"indent":0,"parameters":["Exemplo_Faces2",3,0,2]},{"code":401,"indent":0,"parameters":["Aaah\\. aai.\\| Porra\\., Barbosa\\., a gente não dormiu nem 5 minutos."]},{"code":101,"indent":0,"parameters":["Barbosa_Faces",0,0,2]},{"code":401,"indent":0,"parameters":["Vocês dormiram mais de um dia."]},{"code":123,"indent":0,"parameters":["A",0]},{"code":129,"indent":0,"parameters":[4,0,false]},{"code":122,"indent":0,"parameters":[157,157,1,0,1]},{"code":0,"indent":0,"parameters":[]}],"moveFrequency":3,"moveRoute":{"list":[{"code":0,"parameters":[]}],"repeat":true,"skippable":false,"wait":false},"moveSpeed":3,"moveType":0,"priorityType":1,"stepAnime":false,"through":false,"trigger":0,"walkAnime":false},{"conditions":{"actorId":1,"actorValid":false,"itemId":1,"itemValid":false,"selfSwitchCh":"A","selfSwitchValid":true,"switch1Id":1,"switch1Valid":false,"switch2Id":1,"switch2Valid":false,"variableId":1,"variableValid":false,"variableValue":0},"directionFix":false,"image":{"characterIndex":0,"characterName":"","direction":2,"pattern":0,"tileId":0},"list":[{"code":0,"indent":0,"parameters":[]}],"moveFrequency":3,"moveRoute":{"list":[{"code":0,"parameters":[]}],"repeat":true,"skippable":false,"wait":false},"moveSpeed":3,"moveType":0,"priorityType":0,"stepAnime":false,"through":false,"trigger":0,"walkAnime":true},{"conditions":{"actorId":1,"actorValid":false,"itemId":1,"itemValid":false,"selfSwitchCh":"A","selfSwitchValid":false,"switch1Id":1,"switch1Valid":false,"switch2Id":1,"switch2Valid":false,"variableId":324,"variableValid":true,"variableValue":1},"directionFix":false,"image":{"characterIndex":0,"characterName":"","direction":2,"pattern":0,"tileId":0},"list":[{"code":0,"indent":0,"parameters":[]}],"moveFrequency":3,"moveRoute":{"list":[{"code":0,"parameters":[]}],"repeat":true,"skippable":false,"wait":false},"moveSpeed":3,"moveType":0,"priorityType":0,"stepAnime":false,"through":false,"trigger":0,"walkAnime":true}],"x":4,"y":5},
{"id":28,"name":"EV028","note":"","pages":[{"conditions":{"actorId":1,"actorValid":false,"itemId":1,"itemValid":false,"selfSwitchCh":"A","selfSwitchValid":false,"switch1Id":339,"switch1Valid":true,"switch2Id":1,"switch2Valid":false,"variableId":1,"variableValid":false,"variableValue":0},"directionFix":true,"image":{"tileId":0,"characterName":"ECA-Damage","direction":4,"pattern":1,"characterIndex":0},"list":[{"code":101,"indent":0,"parameters":["Carry_Faces",6,0,2]},{"code":401,"indent":0,"parameters":["\\|\\.Ãh."]},{"code":123,"indent":0,"parameters":["A",0]},{"code":129,"indent":0,"parameters":[9,0,false]},{"code":122,"indent":0,"parameters":[157,157,1,0,1]},{"code":0,"indent":0,"parameters":[]}],"moveFrequency":3,"moveRoute":{"list":[{"code":0,"parameters":[]}],"repeat":true,"skippable":false,"wait":false},"moveSpeed":3,"moveType":0,"priorityType":1,"stepAnime":false,"through":false,"trigger":0,"walkAnime":false},{"conditions":{"actorId":1,"actorValid":false,"itemId":1,"itemValid":false,"selfSwitchCh":"A","selfSwitchValid":true,"switch1Id":1,"switch1Valid":false,"switch2Id":1,"switch2Valid":false,"variableId":1,"variableValid":false,"variableValue":0},"directionFix":false,"image":{"characterIndex":0,"characterName":"","direction":2,"pattern":0,"tileId":0},"list":[{"code":0,"indent":0,"parameters":[]}],"moveFrequency":3,"moveRoute":{"list":[{"code":0,"parameters":[]}],"repeat":true,"skippable":false,"wait":false},"moveSpeed":3,"moveType":0,"priorityType":0,"stepAnime":false,"through":false,"trigger":0,"walkAnime":true},{"conditions":{"actorId":1,"actorValid":false,"itemId":1,"itemValid":false,"selfSwitchCh":"A","selfSwitchValid":false,"switch1Id":1,"switch1Valid":false,"switch2Id":1,"switch2Valid":false,"variableId":324,"variableValid":true,"variableValue":1},"directionFix":false,"image":{"characterIndex":0,"characterName":"","direction":2,"pattern":0,"tileId":0},"list":[{"code":0,"indent":0,"parameters":[]}],"moveFrequency":3,"moveRoute":{"list":[{"code":0,"parameters":[]}],"repeat":true,"skippable":false,"wait":false},"moveSpeed":3,"moveType":0,"priorityType":0,"stepAnime":false,"through":false,"trigger":0,"walkAnime":true}],"x":14,"y":4},
{"id":29,"name":"EV029","note":"","pages":[{"conditions":{"actorId":1,"actorValid":false,"itemId":1,"itemValid":false,"selfSwitchCh":"A","selfSwitchValid":false,"switch1Id":339,"switch1Valid":true,"switch2Id":1,"switch2Valid":false,"variableId":1,"variableValid":false,"variableValue":0},"directionFix":true,"image":{"tileId":0,"characterName":"ECA-Damage","direction":6,"pattern":1,"characterIndex":2},"list":[{"code":101,"indent":0,"parameters":["Drogado_Faces",5,0,2]},{"code":401,"indent":0,"parameters":["\\|Pô\\., cara\\., que sono."]},{"code":123,"indent":0,"parameters":["A",0]},{"code":129,"indent":0,"parameters":[13,0,false]},{"code":122,"indent":0,"parameters":[157,157,1,0,1]},{"code":0,"indent":0,"parameters":[]}],"moveFrequency":3,"moveRoute":{"list":[{"code":0,"parameters":[]}],"repeat":true,"skippable":false,"wait":false},"moveSpeed":3,"moveType":0,"priorityType":1,"stepAnime":false,"through":false,"trigger":0,"walkAnime":false},{"conditions":{"actorId":1,"actorValid":false,"itemId":1,"itemValid":false,"selfSwitchCh":"A","selfSwitchValid":true,"switch1Id":1,"switch1Valid":false,"switch2Id":1,"switch2Valid":false,"variableId":1,"variableValid":false,"variableValue":0},"directionFix":false,"image":{"characterIndex":0,"characterName":"","direction":2,"pattern":0,"tileId":0},"list":[{"code":0,"indent":0,"parameters":[]}],"moveFrequency":3,"moveRoute":{"list":[{"code":0,"parameters":[]}],"repeat":true,"skippable":false,"wait":false},"moveSpeed":3,"moveType":0,"priorityType":0,"stepAnime":false,"through":false,"trigger":0,"walkAnime":true},{"conditions":{"actorId":1,"actorValid":false,"itemId":1,"itemValid":false,"selfSwitchCh":"A","selfSwitchValid":false,"switch1Id":1,"switch1Valid":false,"switch2Id":1,"switch2Valid":false,"variableId":324,"variableValid":true,"variableValue":1},"directionFix":false,"image":{"characterIndex":0,"characterName":"","direction":2,"pattern":0,"tileId":0},"list":[{"code":0,"indent":0,"parameters":[]}],"moveFrequency":3,"moveRoute":{"list":[{"code":0,"parameters":[]}],"repeat":true,"skippable":false,"wait":false},"moveSpeed":3,"moveType":0,"priorityType":0,"stepAnime":false,"through":false,"trigger":0,"walkAnime":true}],"x":9,"y":4},
{"id":30,"name":"EV030","note":"","pages":[{"conditions":{"actorId":1,"actorValid":false,"itemId":1,"itemValid":false,"selfSwitchCh":"A","selfSwitchValid":false,"switch1Id":1,"switch1Valid":false,"switch2Id":1,"switch2Valid":false,"variableId":1,"variableValid":false,"variableValue":0},"directionFix":false,"image":{"characterIndex":0,"characterName":"","direction":2,"pattern":0,"tileId":0},"list":[{"code":101,"indent":0,"parameters":["Drogado_Faces",1,0,2]},{"code":401,"indent":0,"parameters":["Bora dormir antes um pouco?"]},{"code":101,"indent":0,"parameters":["Barbosa_Faces",6,0,2]},{"code":401,"indent":0,"parameters":["Porra\\. bora embora!"]},{"code":101,"indent":0,"parameters":["Bon Jovi_Faces",2,0,2]},{"code":401,"indent":0,"parameters":["Sossega\\., muleke!\\. A gente tá exausto."]},{"code":101,"indent":0,"parameters":["Barbosa_Faces",0,0,2]},{"code":401,"indent":0,"parameters":["Eu vou esperar vovov\\|\\.vocês lá fora então."]},{"code":221,"indent":0,"parameters":[]},{"code":313,"indent":0,"parameters":[0,0,0,109]},{"code":117,"indent":0,"parameters":[21]},{"code":129,"indent":0,"parameters":[8,0,false]},{"code":313,"indent":0,"parameters":[0,8,1,109]},{"code":201,"indent":0,"parameters":[0,158,6,9,0,0]},{"code":121,"indent":0,"parameters":[339,339,0]},{"code":0,"indent":0,"parameters":[]}],"moveFrequency":3,"moveRoute":{"list":[{"code":0,"parameters":[]}],"repeat":true,"skippable":false,"wait":false},"moveSpeed":3,"moveType":0,"priorityType":1,"stepAnime":false,"through":false,"trigger":0,"walkAnime":true},{"conditions":{"actorId":1,"actorValid":false,"itemId":1,"itemValid":false,"selfSwitchCh":"A","selfSwitchValid":false,"switch1Id":339,"switch1Valid":true,"switch2Id":1,"switch2Valid":false,"variableId":1,"variableValid":false,"variableValue":0},"directionFix":true,"image":{"tileId":0,"characterName":"ECA-Damage","direction":4,"pattern":1,"characterIndex":2},"list":[{"code":101,"indent":0,"parameters":["Denso_Faces",3,0,2]},{"code":401,"indent":0,"parameters":[""]},{"code":123,"indent":0,"parameters":["A",0]},{"code":129,"indent":0,"parameters":[7,0,false]},{"code":122,"indent":0,"parameters":[157,157,1,0,1]},{"code":0,"indent":0,"parameters":[]}],"moveFrequency":3,"moveRoute":{"list":[{"code":0,"parameters":[]}],"repeat":true,"skippable":false,"wait":false},"moveSpeed":3,"moveType":0,"priorityType":1,"stepAnime":false,"through":false,"trigger":0,"walkAnime":false},{"conditions":{"actorId":1,"actorValid":false,"itemId":1,"itemValid":false,"selfSwitchCh":"A","selfSwitchValid":true,"switch1Id":1,"switch1Valid":false,"switch2Id":1,"switch2Valid":false,"variableId":1,"variableValid":false,"variableValue":0},"directionFix":false,"image":{"characterIndex":0,"characterName":"","direction":2,"pattern":0,"tileId":0},"list":[{"code":0,"indent":0,"parameters":[]}],"moveFrequency":3,"moveRoute":{"list":[{"code":0,"parameters":[]}],"repeat":true,"skippable":false,"wait":false},"moveSpeed":3,"moveType":0,"priorityType":0,"stepAnime":false,"through":false,"trigger":0,"walkAnime":true},{"conditions":{"actorId":1,"actorValid":false,"itemId":1,"itemValid":false,"selfSwitchCh":"A","selfSwitchValid":false,"switch1Id":1,"switch1Valid":false,"switch2Id":1,"switch2Valid":false,"variableId":324,"variableValid":true,"variableValue":1},"directionFix":false,"image":{"characterIndex":0,"characterName":"","direction":2,"pattern":0,"tileId":0},"list":[{"code":0,"indent":0,"parameters":[]}],"moveFrequency":3,"moveRoute":{"list":[{"code":0,"parameters":[]}],"repeat":true,"skippable":false,"wait":false},"moveSpeed":3,"moveType":0,"priorityType":0,"stepAnime":false,"through":false,"trigger":0,"walkAnime":true}],"x":16,"y":10},
{"id":31,"name":"EV031","note":"","pages":[{"conditions":{"actorId":1,"actorValid":false,"itemId":1,"itemValid":false,"selfSwitchCh":"A","selfSwitchValid":false,"switch1Id":339,"switch1Valid":true,"switch2Id":1,"switch2Valid":false,"variableId":1,"variableValid":false,"variableValue":0},"directionFix":true,"image":{"tileId":0,"characterName":"ECA-Damage","direction":8,"pattern":1,"characterIndex":0},"list":[{"code":101,"indent":0,"parameters":["Pet_Faces2",1,0,2]},{"code":401,"indent":0,"parameters":["\\|Ae\\., escuta só\\|, só mais 5 minutinhos."]},{"code":123,"indent":0,"parameters":["A",0]},{"code":129,"indent":0,"parameters":[12,0,false]},{"code":122,"indent":0,"parameters":[157,157,1,0,1]},{"code":0,"indent":0,"parameters":[]}],"moveFrequency":3,"moveRoute":{"list":[{"code":0,"parameters":[]}],"repeat":true,"skippable":false,"wait":false},"moveSpeed":3,"moveType":0,"priorityType":1,"stepAnime":false,"through":false,"trigger":0,"walkAnime":false},{"conditions":{"actorId":1,"actorValid":false,"itemId":1,"itemValid":false,"selfSwitchCh":"A","selfSwitchValid":true,"switch1Id":1,"switch1Valid":false,"switch2Id":1,"switch2Valid":false,"variableId":1,"variableValid":false,"variableValue":0},"directionFix":false,"image":{"characterIndex":0,"characterName":"","direction":2,"pattern":0,"tileId":0},"list":[{"code":0,"indent":0,"parameters":[]}],"moveFrequency":3,"moveRoute":{"list":[{"code":0,"parameters":[]}],"repeat":true,"skippable":false,"wait":false},"moveSpeed":3,"moveType":0,"priorityType":0,"stepAnime":false,"through":false,"trigger":0,"walkAnime":true},{"conditions":{"actorId":1,"actorValid":false,"itemId":1,"itemValid":false,"selfSwitchCh":"A","selfSwitchValid":false,"switch1Id":1,"switch1Valid":false,"switch2Id":1,"switch2Valid":false,"variableId":324,"variableValid":true,"variableValue":1},"directionFix":false,"image":{"characterIndex":0,"characterName":"","direction":2,"pattern":0,"tileId":0},"list":[{"code":0,"indent":0,"parameters":[]}],"moveFrequency":3,"moveRoute":{"list":[{"code":0,"parameters":[]}],"repeat":true,"skippable":false,"wait":false},"moveSpeed":3,"moveType":0,"priorityType":0,"stepAnime":false,"through":false,"trigger":0,"walkAnime":true}],"x":12,"y":8},
{"id":32,"name":"EV032","note":"","pages":[{"conditions":{"actorId":1,"actorValid":false,"itemId":1,"itemValid":false,"selfSwitchCh":"A","selfSwitchValid":false,"switch1Id":1,"switch1Valid":false,"switch2Id":1,"switch2Valid":false,"variableId":1,"variableValid":false,"variableValue":0},"directionFix":false,"image":{"characterIndex":0,"characterName":"","direction":2,"pattern":0,"tileId":0},"list":[{"code":101,"indent":0,"parameters":["Drogado_Faces",1,0,2]},{"code":401,"indent":0,"parameters":["Bora dormir antes um pouco?"]},{"code":101,"indent":0,"parameters":["Barbosa_Faces",6,0,2]},{"code":401,"indent":0,"parameters":["Porra\\. bora embora!"]},{"code":101,"indent":0,"parameters":["Bon Jovi_Faces",2,0,2]},{"code":401,"indent":0,"parameters":["Sossega\\., muleke!\\. A gente tá exausto."]},{"code":101,"indent":0,"parameters":["Barbosa_Faces",0,0,2]},{"code":401,"indent":0,"parameters":["Eu vou esperar vovov\\|\\.vocês lá fora então."]},{"code":221,"indent":0,"parameters":[]},{"code":313,"indent":0,"parameters":[0,0,0,109]},{"code":117,"indent":0,"parameters":[21]},{"code":129,"indent":0,"parameters":[8,0,false]},{"code":313,"indent":0,"parameters":[0,8,1,109]},{"code":201,"indent":0,"parameters":[0,158,6,9,0,0]},{"code":121,"indent":0,"parameters":[339,339,0]},{"code":0,"indent":0,"parameters":[]}],"moveFrequency":3,"moveRoute":{"list":[{"code":0,"parameters":[]}],"repeat":true,"skippable":false,"wait":false},"moveSpeed":3,"moveType":0,"priorityType":1,"stepAnime":false,"through":false,"trigger":0,"walkAnime":true},{"conditions":{"actorId":1,"actorValid":false,"itemId":1,"itemValid":false,"selfSwitchCh":"A","selfSwitchValid":false,"switch1Id":339,"switch1Valid":true,"switch2Id":1,"switch2Valid":false,"variableId":1,"variableValid":false,"variableValue":0},"directionFix":true,"image":{"tileId":0,"characterName":"ECA-Damage","direction":4,"pattern":1,"characterIndex":3},"list":[{"code":101,"indent":0,"parameters":["Hulk2",3,0,2]},{"code":401,"indent":0,"parameters":["Vem cá\\., Barbosinha\\., deita esse joelhinho aqui comigo."]},{"code":123,"indent":0,"parameters":["A",0]},{"code":129,"indent":0,"parameters":[10,0,false]},{"code":122,"indent":0,"parameters":[157,157,1,0,1]},{"code":0,"indent":0,"parameters":[]}],"moveFrequency":3,"moveRoute":{"list":[{"code":0,"parameters":[]}],"repeat":true,"skippable":false,"wait":false},"moveSpeed":3,"moveType":0,"priorityType":1,"stepAnime":false,"through":false,"trigger":0,"walkAnime":false},{"conditions":{"actorId":1,"actorValid":false,"itemId":1,"itemValid":false,"selfSwitchCh":"A","selfSwitchValid":true,"switch1Id":1,"switch1Valid":false,"switch2Id":1,"switch2Valid":false,"variableId":1,"variableValid":false,"variableValue":0},"directionFix":false,"image":{"characterIndex":0,"characterName":"","direction":2,"pattern":0,"tileId":0},"list":[{"code":0,"indent":0,"parameters":[]}],"moveFrequency":3,"moveRoute":{"list":[{"code":0,"parameters":[]}],"repeat":true,"skippable":false,"wait":false},"moveSpeed":3,"moveType":0,"priorityType":0,"stepAnime":false,"through":false,"trigger":0,"walkAnime":true},{"conditions":{"actorId":1,"actorValid":false,"itemId":1,"itemValid":false,"selfSwitchCh":"A","selfSwitchValid":false,"switch1Id":1,"switch1Valid":false,"switch2Id":1,"switch2Valid":false,"variableId":324,"variableValid":true,"variableValue":1},"directionFix":false,"image":{"characterIndex":0,"characterName":"","direction":2,"pattern":0,"tileId":0},"list":[{"code":0,"indent":0,"parameters":[]}],"moveFrequency":3,"moveRoute":{"list":[{"code":0,"parameters":[]}],"repeat":true,"skippable":false,"wait":false},"moveSpeed":3,"moveType":0,"priorityType":0,"stepAnime":false,"through":false,"trigger":0,"walkAnime":true}],"x":16,"y":9},
{"id":33,"name":"EV033","note":"","pages":[{"conditions":{"actorId":1,"actorValid":false,"itemId":1,"itemValid":false,"selfSwitchCh":"A","selfSwitchValid":false,"switch1Id":339,"switch1Valid":true,"switch2Id":1,"switch2Valid":false,"variableId":1,"variableValid":false,"variableValue":0},"directionFix":true,"image":{"tileId":0,"characterName":"ECA-Damage","direction":2,"pattern":1,"characterIndex":3},"list":[{"code":101,"indent":0,"parameters":["Paulista_Faces",7,0,2]},{"code":401,"indent":0,"parameters":["Ãh\\., ãh?\\. Eu não to dormindo não!\\. Eu to acordado\\., eu to acordado."]},{"code":123,"indent":0,"parameters":["A",0]},{"code":129,"indent":0,"parameters":[11,0,false]},{"code":122,"indent":0,"parameters":[157,157,1,0,1]},{"code":0,"indent":0,"parameters":[]}],"moveFrequency":3,"moveRoute":{"list":[{"code":0,"parameters":[]}],"repeat":true,"skippable":false,"wait":false},"moveSpeed":3,"moveType":0,"priorityType":1,"stepAnime":false,"through":false,"trigger":0,"walkAnime":false},{"conditions":{"actorId":1,"actorValid":false,"itemId":1,"itemValid":false,"selfSwitchCh":"A","selfSwitchValid":true,"switch1Id":1,"switch1Valid":false,"switch2Id":1,"switch2Valid":false,"variableId":1,"variableValid":false,"variableValue":0},"directionFix":false,"image":{"characterIndex":0,"characterName":"","direction":2,"pattern":0,"tileId":0},"list":[{"code":0,"indent":0,"parameters":[]}],"moveFrequency":3,"moveRoute":{"list":[{"code":0,"parameters":[]}],"repeat":true,"skippable":false,"wait":false},"moveSpeed":3,"moveType":0,"priorityType":0,"stepAnime":false,"through":false,"trigger":0,"walkAnime":true},{"conditions":{"actorId":1,"actorValid":false,"itemId":1,"itemValid":false,"selfSwitchCh":"A","selfSwitchValid":false,"switch1Id":1,"switch1Valid":false,"switch2Id":1,"switch2Valid":false,"variableId":324,"variableValid":true,"variableValue":1},"directionFix":false,"image":{"characterIndex":0,"characterName":"","direction":2,"pattern":0,"tileId":0},"list":[{"code":0,"indent":0,"parameters":[]}],"moveFrequency":3,"moveRoute":{"list":[{"code":0,"parameters":[]}],"repeat":true,"skippable":false,"wait":false},"moveSpeed":3,"moveType":0,"priorityType":0,"stepAnime":false,"through":false,"trigger":0,"walkAnime":true}],"x":1,"y":11},
null
]
}