{
"autoplayBgm":false,"autoplayBgs":false,"battleback1Name":"","battleback2Name":"","bgm":{"name":"","pan":0,"pitch":100,"volume":90},"bgs":{"name":"","pan":0,"pitch":100,"volume":90},"disableDashing":false,"displayName":"Caverna","encounterList":[],"encounterStep":30,"height":13,"note":"","parallaxLoopX":false,"parallaxLoopY":false,"parallaxName":"","parallaxShow":true,"parallaxSx":0,"parallaxSy":0,"scrollType":0,"specifyBattleback":false,"tilesetId":32,"width":22,
"data":[5892,5916,5916,5916,5916,5916,5916,5916,5916,5916,5916,5916,5916,5916,5916,5916,5916,5916,5916,5916,5916,5896,5912,6274,6274,6274,6274,6274,6274,6274,6274,6274,6274,6274,6274,6274,6274,6274,6274,6274,6274,6274,6274,5904,5912,6280,6280,6280,6280,6280,6280,6280,6280,6280,6280,6280,6280,6280,6280,6280,6280,6280,6280,6280,6280,5904,5912,2946,2932,2932,2932,2932,2932,2932,2932,2932,2932,2932,2932,2932,2932,2932,2932,2932,2932,2932,2948,5904,5912,2928,2912,2912,2912,2912,2912,2912,2912,2912,2912,2912,2912,2912,2912,2912,2912,2912,2912,2912,2936,5904,5912,2928,2912,2912,2912,2912,2912,2912,2912,2912,2912,2912,2912,2912,2912,2912,2912,2912,2912,2912,2936,5904,5912,2928,2912,2912,2912,2912,2912,2912,2912,2912,2912,2912,2912,2912,2912,2912,2912,2912,2912,2912,2936,5904,5912,2928,2912,2912,2912,2912,2912,2912,2912,2912,2912,2912,2912,2912,2912,2912,2912,2912,2912,2912,2936,5904,5912,2928,2912,2912,2912,2912,2912,2912,2912,2912,2912,2912,2912,2912,2912,2912,2912,2912,2912,2912,2936,5904,5912,2928,2912,2912,2912,2912,2912,2912,2912,2912,2912,2912,2912,2912,2912,2912,2912,2912,2912,2912,2936,5904,5912,2928,2912,2912,2912,2912,2912,2912,2912,2912,2912,2912,2912,2912,2912,2912,2912,2912,2912,2912,2936,5904,5912,2952,2924,2940,2940,2940,2940,2940,2940,2940,2940,2940,2940,2940,2940,2940,2940,2940,2940,2940,2950,5904,5890,5924,2944,5922,5908,5908,5908,5908,5908,5908,5908,5908,5908,5908,5908,5908,5908,5908,5908,5908,5908,5889,0,0,0,0,0,0,0,0,0,0,0,0,0,0,0,0,0,0,0,0,0,0,0,0,0,0,0,0,0,0,0,0,0,0,0,0,0,0,0,0,0,0,0,0,0,0,0,0,0,0,0,0,0,0,0,0,0,0,0,0,0,0,0,0,0,0,0,0,0,0,0,0,0,0,0,0,0,0,0,0,0,0,0,0,0,0,0,0,0,0,0,0,0,0,0,0,0,0,0,0,0,0,0,0,0,0,0,0,0,0,0,3578,0,0,0,0,0,0,0,0,0,0,0,0,0,0,0,0,0,0,0,0,0,3568,0,0,0,3570,3572,0,0,0,0,0,0,0,0,0,0,0,0,3578,0,0,0,3568,0,0,0,3576,3546,3556,3572,0,0,0,0,0,0,0,0,0,3579,3575,0,0,0,3580,0,0,0,0,3576,3564,3546,3572,0,0,0,0,0,0,3579,3581,0,0,0,0,0,0,0,0,0,0,0,0,3576,3546,3556,3572,0,0,0,3582,0,0,0,0,0,0,0,0,0,0,0,0,0,0,0,3576,3564,3574,0,0,0,0,0,0,0,0,0,0,0,0,0,0,0,3579,3569,3581,0,0,0,0,0,0,0,0,0,0,0,0,0,0,0,0,0,0,0,0,0,0,0,0,0,0,0,0,0,0,0,0,0,0,0,0,0,0,0,0,0,0,0,0,0,0,0,0,0,0,0,0,0,0,0,0,0,0,0,0,0,0,0,0,0,0,0,0,0,0,0,0,389,0,0,0,0,0,0,0,0,454,0,0,0,434,0,0,0,520,521,0,0,0,397,0,0,0,599,0,0,0,0,0,0,0,0,0,0,0,0,0,0,0,0,0,0,0,0,0,0,614,615,0,0,0,0,0,0,0,0,0,0,0,0,0,0,0,0,561,0,0,0,0,615,0,0,0,0,0,0,0,0,0,0,0,0,0,0,0,0,0,0,0,0,0,598,0,0,0,0,0,0,0,0,0,0,0,0,0,0,0,0,0,0,0,0,0,0,0,0,0,0,0,0,0,0,0,0,0,0,0,0,0,0,0,0,0,0,0,0,0,0,560,0,0,302,0,0,0,0,0,0,302,0,0,0,0,0,560,0,0,0,0,0,0,0,0,0,0,0,0,0,0,0,0,0,0,0,0,0,485,0,0,0,0,0,0,0,0,0,0,0,0,0,0,0,0,0,0,0,0,492,485,0,0,0,0,0,0,0,0,0,0,0,0,0,0,0,0,0,0,0,0,492,493,0,0,0,0,0,0,0,0,0,0,0,0,0,0,0,0,0,0,0,0,0,0,0,0,0,0,0,0,0,0,0,0,0,0,0,0,0,0,0,0,0,568,561,561,570,0,0,0,0,0,0,0,0,0,0,0,0,512,513,514,387,388,987,560,129,482,591,562,563,0,0,699,455,453,434,680,981,982,554,1008,1009,522,395,396,995,560,137,490,1018,606,607,0,0,462,463,461,442,442,989,990,0,1016,1017,1000,1001,993,0,560,0,622,623,606,607,0,0,568,561,561,561,561,561,561,561,561,561,561,561,561,561,585,561,570,574,614,934,0,0,560,0,0,0,0,0,0,0,0,0,0,0,0,0,0,0,560,0,0,942,0,0,560,529,0,286,0,0,0,413,405,413,286,0,596,595,0,0,560,286,0,0,0,0,560,537,0,294,0,0,0,0,0,0,294,0,0,0,0,0,560,294,0,0,0,0,576,561,561,561,561,561,561,561,561,561,561,561,561,561,561,561,578,302,0,407,0,0,560,0,0,0,906,0,0,0,0,0,0,0,0,0,0,484,560,0,0,415,0,0,560,0,909,0,0,0,0,0,0,0,0,1003,0,0,0,484,560,407,0,407,0,0,584,561,561,561,561,561,561,561,561,561,561,561,561,561,561,561,586,415,0,415,0,0,0,0,0,0,0,0,0,0,0,0,0,0,0,0,0,0,0,0,0,0,0,0,0,0,0,0,0,0,0,0,0,0,0,0,0,0,0,0,0,0,0,0,0,0,0,0,0,0,0,0,0,0,0,0,0,0,0,0,0,0,0,0,0,0,0,0,0,0,0,0,0,0,0,0,0,0,0,0,0,0,0,0,0,0,0,0,0,0,5,0,0,0,0,0,0,0,0,0,0,0,0,0,0,0,0,0,0,0,0,0,5,0,0,0,0,0,0,0,0,0,0,0,0,0,0,0,0,0,0,0,0,0,5,0,0,0,0,0,0,0,0,0,0,0,0,0,0,0,0,0,0,0,0,0,5,0,0,0,0,0,0,0,0,0,0,0,0,0,0,0,0,0,0,0,0,0,5,0,0,0,0,0,0,0,0,0,0,0,0,0,0,0,0,0,0,0,0,0,5,0,0,0,0,0,0,0,0,0,0,0,0,0,0,0,0,0,0,0,0,0,5,0,0,0,0,0,0,0,0,0,0,0,0,0,0,0,0,0,0,0,0,0,5,0,0,0,0,0,0,0,0,0,0,0,0,0,0,0,0,0,0,0,0,0,5,0,0,0,0,0,0,0,0,0,0,0,0,0,0,0,0,0,0,0,0,0,0,0,0,0,0,0,0,0,0,0,0,0,0,0,0,0,0,0,0,0,0,10,10,10,10,10,10,10,10,10,10,10,10,10,10,10,10,10,10,10,10,10,10,10,0,0,0,0,0,0,0,0,0,0,0,0,0,0,0,0,0,0,0,0,10,10,0,0,0,0,0,0,0,0,0,0,0,0,0,0,0,0,0,0,0,0,10,10,0,0,0,0,0,0,0,0,0,0,0,0,0,0,0,0,0,0,0,0,10,10,0,0,0,0,0,0,0,0,0,0,0,0,0,0,0,0,0,0,0,0,10,10,0,0,0,0,0,0,0,0,0,0,0,0,0,0,0,0,0,0,0,0,10,10,0,0,0,0,0,0,0,0,0,0,0,0,0,0,0,0,0,0,0,0,10,10,0,0,0,0,0,0,0,0,0,0,0,0,0,0,0,0,0,0,0,0,10,10,0,0,0,0,0,0,0,0,0,0,0,0,0,0,0,0,0,0,0,0,10,10,0,0,0,0,0,0,0,0,0,0,0,0,0,0,0,0,0,0,0,0,10,10,0,0,0,0,0,0,0,0,0,0,0,0,0,0,0,0,0,0,0,0,10,10,0,0,0,0,0,0,0,0,0,0,0,0,0,0,0,0,0,0,0,0,10,10,10,0,10,10,10,10,10,10,10,10,10,10,10,10,10,10,10,10,10,10,10],
"events":[
null,
{"id":1,"name":"EV001","note":"","pages":[{"conditions":{"actorId":1,"actorValid":false,"itemId":1,"itemValid":false,"selfSwitchCh":"A","selfSwitchValid":false,"switch1Id":1,"switch1Valid":false,"switch2Id":1,"switch2Valid":false,"variableId":1,"variableValid":false,"variableValue":0},"directionFix":false,"image":{"characterIndex":0,"characterName":"","direction":2,"pattern":0,"tileId":0},"list":[{"code":201,"indent":0,"parameters":[0,128,8,3,0,0]},{"code":0,"indent":0,"parameters":[]}],"moveFrequency":3,"moveRoute":{"list":[{"code":0,"parameters":[]}],"repeat":true,"skippable":false,"wait":false},"moveSpeed":3,"moveType":0,"priorityType":0,"stepAnime":false,"through":false,"trigger":1,"walkAnime":true}],"x":2,"y":12},
{"id":2,"name":"EV002","note":"","pages":[{"conditions":{"actorId":1,"actorValid":false,"itemId":1,"itemValid":false,"selfSwitchCh":"A","selfSwitchValid":false,"switch1Id":1,"switch1Valid":false,"switch2Id":1,"switch2Valid":false,"variableId":1,"variableValid":false,"variableValue":0},"directionFix":false,"image":{"tileId":0,"characterName":"Vilões Secundários3","direction":6,"pattern":1,"characterIndex":2},"list":[{"code":117,"indent":0,"parameters":[388]},{"code":101,"indent":0,"parameters":["Vilões2",3,0,2]},{"code":401,"indent":0,"parameters":["\\n<Super Poderosa>"]},{"code":123,"indent":0,"parameters":["A",0]},{"code":0,"indent":0,"parameters":[]}],"moveFrequency":3,"moveRoute":{"list":[{"code":0,"parameters":[]}],"repeat":true,"skippable":false,"wait":false},"moveSpeed":3,"moveType":0,"priorityType":1,"stepAnime":false,"through":false,"trigger":0,"walkAnime":true},{"conditions":{"actorId":1,"actorValid":false,"itemId":1,"itemValid":false,"selfSwitchCh":"A","selfSwitchValid":true,"switch1Id":1,"switch1Valid":false,"switch2Id":1,"switch2Valid":false,"variableId":1,"variableValid":false,"variableValue":0},"directionFix":false,"image":{"tileId":0,"characterName":"Vilões Secundários3","direction":6,"pattern":1,"characterIndex":2},"list":[{"code":101,"indent":0,"parameters":["Vilões2",3,0,2]},{"code":401,"indent":0,"parameters":["\\n<Super Poderosa>"]},{"code":0,"indent":0,"parameters":[]}],"moveFrequency":3,"moveRoute":{"list":[{"code":0,"parameters":[]}],"repeat":true,"skippable":false,"wait":false},"moveSpeed":3,"moveType":0,"priorityType":1,"stepAnime":false,"through":false,"trigger":0,"walkAnime":true}],"x":8,"y":6},
{"id":3,"name":"EV003","note":"","pages":[{"conditions":{"actorId":1,"actorValid":false,"itemId":1,"itemValid":false,"selfSwitchCh":"A","selfSwitchValid":false,"switch1Id":1,"switch1Valid":false,"switch2Id":1,"switch2Valid":false,"variableId":1,"variableValid":false,"variableValue":0},"directionFix":false,"image":{"tileId":0,"characterName":"Vilões Secundários3","direction":2,"pattern":1,"characterIndex":3},"list":[{"code":117,"indent":0,"parameters":[388]},{"code":101,"indent":0,"parameters":["Vilões2",4,0,2]},{"code":401,"indent":0,"parameters":["\\n<Fábio>"]},{"code":123,"indent":0,"parameters":["A",0]},{"code":0,"indent":0,"parameters":[]}],"moveFrequency":3,"moveRoute":{"list":[{"code":0,"parameters":[]}],"repeat":true,"skippable":false,"wait":false},"moveSpeed":4,"moveType":1,"priorityType":1,"stepAnime":false,"through":false,"trigger":0,"walkAnime":true},{"conditions":{"actorId":1,"actorValid":false,"itemId":1,"itemValid":false,"selfSwitchCh":"A","selfSwitchValid":true,"switch1Id":1,"switch1Valid":false,"switch2Id":1,"switch2Valid":false,"variableId":1,"variableValid":false,"variableValue":0},"directionFix":false,"image":{"tileId":0,"characterName":"Vilões Secundários3","direction":2,"pattern":1,"characterIndex":3},"list":[{"code":101,"indent":0,"parameters":["Vilões2",4,0,2]},{"code":401,"indent":0,"parameters":["\\n<Fábio>"]},{"code":0,"indent":0,"parameters":[]}],"moveFrequency":3,"moveRoute":{"list":[{"code":0,"parameters":[]}],"repeat":true,"skippable":false,"wait":false},"moveSpeed":4,"moveType":1,"priorityType":1,"stepAnime":false,"through":false,"trigger":0,"walkAnime":true}],"x":9,"y":9},
{"id":4,"name":"EV004","note":"","pages":[{"conditions":{"actorId":1,"actorValid":false,"itemId":1,"itemValid":false,"selfSwitchCh":"A","selfSwitchValid":false,"switch1Id":1,"switch1Valid":false,"switch2Id":1,"switch2Valid":false,"variableId":1,"variableValid":false,"variableValue":0},"directionFix":false,"image":{"tileId":0,"characterName":"Vilões Secundários3","direction":2,"pattern":1,"characterIndex":1},"list":[{"code":117,"indent":0,"parameters":[388]},{"code":108,"indent":0,"parameters":["<Mini Label: 02>"]},{"code":230,"indent":0,"parameters":[60]},{"code":101,"indent":0,"parameters":["Magali_Faces",1,0,2]},{"code":401,"indent":0,"parameters":["Ih\\., olha o 02!"]},{"code":230,"indent":0,"parameters":[30]},{"code":212,"indent":0,"parameters":[-1,1,true]},{"code":230,"indent":0,"parameters":[30]},{"code":101,"indent":0,"parameters":["Barbosa_Faces",6,0,2]},{"code":401,"indent":0,"parameters":["Porra\\., mas o 02 realmente está ali."]},{"code":101,"indent":0,"parameters":["Magali_Faces",1,0,2]},{"code":401,"indent":0,"parameters":["Deu mole."]},{"code":101,"indent":0,"parameters":["Exemplo_Faces2",1,0,2]},{"code":401,"indent":0,"parameters":["E ae\\., 02\\., como tão as coisas?"]},{"code":101,"indent":0,"parameters":["Vilões2",2,0,2]},{"code":401,"indent":0,"parameters":["\\n<02>\\.Affe."]},{"code":101,"indent":0,"parameters":["Pet_Faces",0,0,2]},{"code":401,"indent":0,"parameters":["\\|É\\., acho que tá tudo normal\\., então."]},{"code":101,"indent":0,"parameters":["Paulista_Faces",1,0,2]},{"code":401,"indent":0,"parameters":["Alguma dessas coisas espalhadas pela caverna parecem aquelas peças que caíram daquela máquina do Lizard Hound."]},{"code":101,"indent":0,"parameters":["Vilões2",2,0,2]},{"code":401,"indent":0,"parameters":["Afffeee\\., deixa eu dar uma olhada nessa peça ae."]},{"code":101,"indent":0,"parameters":["Vilões2",2,0,2]},{"code":401,"indent":0,"parameters":["Affe\\., a gente não pode fazer nada com o cartão\\., temos inclusive outro parecido que podemos deixar com vocês.\\. Já as outras peças são interessantes..."]},{"code":126,"indent":0,"parameters":[35,0,0,1]},{"code":250,"indent":0,"parameters":[{"name":"Item1","volume":90,"pitch":100,"pan":0}]},{"code":122,"indent":0,"parameters":[78,78,1,0,1]},{"code":356,"indent":0,"parameters":["GabText Item adicionado: Cartão de Memória"]},{"code":356,"indent":0,"parameters":["ShowGab"]},{"code":101,"indent":0,"parameters":["Vilões2",2,0,2]},{"code":401,"indent":0,"parameters":["Affe\\., a gente conseguiu pegar algumas coisas antes deles interditarem o CT depois da explosão.\\. Se vocês arrumarem mais dessas peças\\., affe\\., falem comigo que a gente pode montar algumas coisas.\\| Dizem que tem algumas atividades estranhas no Japão e no deserto\\. affe\\., talvez vocês achem alguma coisa."]},{"code":117,"indent":0,"parameters":[63]},{"code":123,"indent":0,"parameters":["A",0]},{"code":0,"indent":0,"parameters":[]}],"moveFrequency":4,"moveRoute":{"list":[{"code":0,"parameters":[]}],"repeat":true,"skippable":false,"wait":false},"moveSpeed":4,"moveType":0,"priorityType":1,"stepAnime":false,"through":false,"trigger":3,"walkAnime":true},{"conditions":{"actorId":1,"actorValid":false,"itemId":1,"itemValid":false,"selfSwitchCh":"A","selfSwitchValid":true,"switch1Id":1,"switch1Valid":false,"switch2Id":1,"switch2Valid":false,"variableId":1,"variableValid":false,"variableValue":0},"directionFix":false,"image":{"tileId":0,"characterName":"Vilões Secundários3","direction":2,"pattern":1,"characterIndex":1},"list":[{"code":108,"indent":0,"parameters":["<Mini Label: 02>"]},{"code":101,"indent":0,"parameters":["Vilões2",2,0,2]},{"code":401,"indent":0,"parameters":["\\n<02>\\.Affe."]},{"code":117,"indent":0,"parameters":[63]},{"code":0,"indent":0,"parameters":[]}],"moveFrequency":4,"moveRoute":{"list":[{"code":0,"parameters":[]}],"repeat":true,"skippable":false,"wait":false},"moveSpeed":4,"moveType":0,"priorityType":1,"stepAnime":false,"through":false,"trigger":0,"walkAnime":true}],"x":2,"y":9},
{"id":5,"name":"EV005","note":"","pages":[{"conditions":{"actorId":1,"actorValid":false,"itemId":1,"itemValid":false,"selfSwitchCh":"A","selfSwitchValid":false,"switch1Id":1,"switch1Valid":false,"switch2Id":1,"switch2Valid":false,"variableId":1,"variableValid":false,"variableValue":0},"directionFix":false,"image":{"tileId":476,"characterName":"","characterIndex":0,"direction":2,"pattern":0},"list":[{"code":250,"indent":0,"parameters":[{"name":"Close2","volume":90,"pitch":100,"pan":0}]},{"code":121,"indent":0,"parameters":[478,478,0]},{"code":0,"indent":0,"parameters":[]}],"moveFrequency":3,"moveRoute":{"list":[{"code":0,"parameters":[]}],"repeat":true,"skippable":false,"wait":false},"moveSpeed":3,"moveType":0,"priorityType":1,"stepAnime":false,"through":false,"trigger":0,"walkAnime":true},{"conditions":{"actorId":1,"actorValid":false,"itemId":1,"itemValid":false,"selfSwitchCh":"A","selfSwitchValid":false,"switch1Id":478,"switch1Valid":true,"switch2Id":1,"switch2Valid":false,"variableId":1,"variableValid":false,"variableValue":0},"directionFix":false,"image":{"tileId":478,"characterName":"","characterIndex":0,"direction":2,"pattern":0},"list":[{"code":201,"indent":0,"parameters":[0,213,5,13,0,0]},{"code":0,"indent":0,"parameters":[]}],"moveFrequency":3,"moveRoute":{"list":[{"code":0,"parameters":[]}],"repeat":true,"skippable":false,"wait":false},"moveSpeed":3,"moveType":0,"priorityType":1,"stepAnime":false,"through":false,"trigger":1,"walkAnime":true}],"x":16,"y":2},
{"id":6,"name":"EV006","note":"","pages":[{"conditions":{"actorId":1,"actorValid":false,"itemId":1,"itemValid":false,"selfSwitchCh":"A","selfSwitchValid":false,"switch1Id":1,"switch1Valid":false,"switch2Id":1,"switch2Valid":false,"variableId":1,"variableValid":false,"variableValue":0},"directionFix":false,"image":{"tileId":468,"characterName":"","characterIndex":0,"direction":2,"pattern":0},"list":[{"code":0,"indent":0,"parameters":[]}],"moveFrequency":3,"moveRoute":{"list":[{"code":0,"parameters":[]}],"repeat":true,"skippable":false,"wait":false},"moveSpeed":3,"moveType":0,"priorityType":0,"stepAnime":false,"through":false,"trigger":0,"walkAnime":true},{"conditions":{"actorId":1,"actorValid":false,"itemId":1,"itemValid":false,"selfSwitchCh":"A","selfSwitchValid":false,"switch1Id":478,"switch1Valid":true,"switch2Id":1,"switch2Valid":false,"variableId":1,"variableValid":false,"variableValue":0},"directionFix":false,"image":{"tileId":470,"characterName":"","characterIndex":0,"direction":2,"pattern":0},"list":[{"code":0,"indent":0,"parameters":[]}],"moveFrequency":3,"moveRoute":{"list":[{"code":0,"parameters":[]}],"repeat":true,"skippable":false,"wait":false},"moveSpeed":3,"moveType":0,"priorityType":0,"stepAnime":false,"through":false,"trigger":0,"walkAnime":true}],"x":16,"y":1}
]
}