{
"autoplayBgm":true,"autoplayBgs":false,"battleback1Name":"Snowfield","battleback2Name":"Fort1","bgm":{"name":"174-Pearl","pan":0,"pitch":100,"volume":90},"bgs":{"name":"","pan":0,"pitch":100,"volume":90},"disableDashing":false,"displayName":"Pólo Norte","encounterList":[{"regionSet":[],"troopId":79,"weight":5},{"regionSet":[],"troopId":80,"weight":5},{"regionSet":[],"troopId":81,"weight":5},{"regionSet":[],"troopId":83,"weight":5},{"regionSet":[],"troopId":84,"weight":5}],"encounterStep":35,"height":50,"note":"","parallaxLoopX":false,"parallaxLoopY":false,"parallaxName":"","parallaxShow":true,"parallaxSx":0,"parallaxSy":0,"scrollType":0,"specifyBattleback":true,"tilesetId":41,"width":51,
"data":[7568,7568,7572,7596,7568,7568,7568,7568,7568,7568,7568,7568,7568,7568,7568,7568,7568,7568,7568,7568,7568,7568,7568,7568,7568,7568,7008,6992,6992,6992,6992,7016,7568,7576,7568,7568,7568,7592,3984,3968,3968,3968,3968,3968,3968,3992,7584,7568,7568,7568,7568,7568,7568,7592,7026,7012,7012,7012,7012,7012,7012,7012,7012,7012,7012,7012,7012,7012,7012,7012,7012,7012,7012,7012,7012,7012,7012,7021,7020,7020,7020,7020,7022,7012,7028,7568,7568,7568,7592,3984,3968,3968,3968,3968,3968,3968,3992,7584,7568,7568,7568,7568,7568,7568,7592,7008,6996,7020,7020,7020,7020,7020,7020,7020,7020,7020,7020,7020,7020,7020,7020,7020,7020,7020,7020,7020,7000,6992,7379,7378,7378,7378,7378,7382,6992,7016,7568,7568,7568,7592,3984,3968,3968,3968,3968,3968,3968,3992,7584,7568,7568,7568,7568,7568,7568,7592,7008,7016,7379,7378,7378,7378,7378,7378,7378,7378,7378,7378,7378,7378,7378,7378,7378,7378,7378,7378,7382,7008,6992,7377,7376,7376,7376,7376,7380,6992,7016,7568,7568,7568,7592,3984,3968,3968,3968,3968,3968,3968,3992,7584,7568,7568,7568,7568,7568,7568,7592,7008,7016,7385,7384,7384,7384,7384,7384,7384,7384,7384,7384,7384,7384,7384,7384,7384,7384,7384,7384,7388,7008,6992,7385,7384,7384,7384,7384,7388,6992,7016,7568,7568,7568,7592,3984,3968,3968,3968,3968,3968,3968,3992,7584,7568,7568,7568,7568,7568,7568,7568,7008,7016,1584,1584,1584,1584,1584,1584,1584,1584,1584,1584,1584,1584,1584,1584,1584,1584,1584,1584,1584,7010,7020,7020,7020,7020,7020,7020,7020,7020,7030,7568,7568,7572,7606,3984,3968,3968,3968,3968,3968,3968,3992,7584,7568,7568,7568,7568,7568,7568,7568,7008,7016,1584,1584,1584,1584,1584,1584,1584,1584,1584,1584,1584,1584,1584,1584,1584,1584,1584,1584,1584,7024,7379,7378,7378,7378,7378,7378,7378,7378,7382,7572,7596,7606,7958,3984,3968,3968,3968,3968,3968,3972,4006,7584,7568,7568,7568,7568,7568,7568,7568,7008,7016,1584,1584,1584,1584,1584,1584,1584,1584,1584,1584,1584,1584,1584,1584,1584,1584,7027,7025,7025,7031,7385,7384,7384,7384,7384,7384,7384,7384,7388,7592,7954,7958,7964,3984,3968,3968,3968,3968,3972,4006,7602,7569,7568,7568,7568,7568,7012,7012,7012,6993,7016,1584,1584,1584,1584,1584,1584,1584,1584,1584,1584,1584,1584,1584,1584,1584,1584,7024,7379,7378,7382,7568,7568,7568,7568,7568,7568,7568,7568,7568,7592,7960,7964,4002,3969,3968,3968,3968,3972,4006,7602,7569,7568,7568,7568,7568,7568,6996,7020,7020,7020,7022,7025,7025,7025,7025,7025,7025,7025,7025,7029,1584,1584,1584,1584,1584,1584,1584,7024,7385,7384,7388,7568,7568,7568,7568,7568,7568,7568,7568,7568,7592,4002,3988,3969,3968,3968,3968,3968,3992,7602,7569,7572,7596,7568,7568,7568,7568,7016,7379,7378,7378,7378,7378,7378,7378,7378,7378,7378,7378,7382,7024,1584,1584,1584,1584,1584,1584,1584,7024,7568,7568,7568,7568,7568,7572,7596,7596,7596,7596,7596,7596,7606,3984,3968,3968,3968,3968,3968,3968,3992,7584,7568,7592,7026,7012,7012,7028,7568,7016,7385,7384,7384,7384,7384,7384,7384,7384,7384,7384,7384,7388,7033,7025,7025,7025,7037,1584,7035,7025,7031,7568,7568,7568,7572,7596,7606,7954,7954,7954,7954,7954,7954,7958,3984,3968,3968,3968,3968,3968,3968,3992,7584,7568,7592,7008,6992,6992,7016,7568,7016,7568,7568,7568,7568,7568,7568,7568,7568,7568,7568,7568,7568,7379,7378,7378,7378,7382,1584,7379,7378,7382,7568,7572,7596,7606,7954,7958,7960,7960,7960,7960,7960,7960,7964,3984,3968,3968,3968,3968,3968,3968,3992,7584,7568,7592,7008,6992,6992,7016,7568,7016,7568,7568,7568,7572,7596,7596,7596,7596,7596,7596,7576,7568,7385,7384,7384,7384,7388,1584,7385,7384,7388,7572,7606,7954,7958,7960,7964,4002,3988,3988,3988,3988,3988,3988,3969,3968,3968,3968,3968,3968,3968,3992,7584,7568,7592,7008,6992,6992,7016,7568,7016,7568,7568,7572,7606,7954,7954,7954,7954,7954,7954,7608,7596,7596,7596,7596,7576,7568,7568,7568,7568,7572,7606,7958,7960,7964,4002,3988,3969,3968,3968,3968,3968,3968,3968,3968,3968,3968,3968,3968,3968,3972,4006,7584,7568,7568,7008,6992,6992,7016,7568,7016,7568,7568,7592,7958,7960,7960,7960,7960,7960,7960,7955,7954,7954,7954,7954,7608,7596,7596,7596,7568,7606,7958,7964,4002,3988,3969,3968,3968,3968,3968,3968,3968,3968,3968,3968,3968,3968,3968,3972,3996,4006,7602,7569,7568,7568,7032,7020,7020,7017,7568,7016,7568,7572,7606,7964,4002,3988,3988,3988,3988,4004,7961,7960,7960,7960,7960,7955,7954,7954,7954,1583,7958,7964,4002,3969,3968,3968,3968,3968,3968,3968,3968,3968,3968,3968,3968,3968,3968,3968,3992,7602,7588,7569,7568,7568,7568,7379,7378,7382,7024,7568,7016,7572,7606,7958,4002,3969,3968,3968,3968,3968,3970,3988,3988,3988,3988,4004,7961,7960,7960,7960,1583,7964,4002,3969,3968,3968,3968,3968,3968,3968,3968,3968,3968,3968,3968,3968,3968,3968,3972,4006,7584,7568,7568,7568,7568,7568,7385,7384,7388,7024,7568,7016,7592,7958,7964,4008,3976,3972,3996,3996,3976,3968,3972,3996,3996,3976,3970,3988,4009,3988,3988,3988,3988,3969,3968,3968,3968,3968,3968,3968,3968,3972,3996,3996,3996,3996,3996,3996,3996,4006,7602,7569,7568,7568,7568,7568,7568,7568,7568,7568,7024,7568,7016,7592,7964,2858,2861,4008,4006,7026,7028,4008,3996,4006,7026,7028,4008,3996,3996,2858,3976,3968,3968,3968,3968,3968,3968,3968,3968,3968,3968,3968,3992,7026,7012,7012,7012,7012,7012,7012,7012,7013,7025,7025,7025,7037,7596,7035,7029,7568,7568,7024,7568,7016,7592,4010,2848,6990,7012,7012,7026,7012,7012,7012,7012,7012,7028,7012,7012,6990,2848,3984,3968,3968,3968,3968,3968,3972,3996,3996,3996,3976,3968,3992,7008,6992,6992,6992,6992,6992,6992,6992,7016,7378,7378,7378,7382,4106,7379,7024,7568,7568,7024,7568,7016,7592,4000,2848,7008,6992,6992,7008,6992,6992,6992,6992,6992,7016,6992,6992,7016,2848,3984,3968,3968,3968,3972,3996,4006,7602,7588,7604,4008,3996,4006,7008,6992,6992,6992,6992,6992,6992,6992,7016,7384,7384,7384,7388,4096,7385,7024,7568,7568,7024,7568,7016,7592,4012,2848,7008,6992,6992,7008,6992,6992,6992,6992,6992,7016,6992,6992,7016,2848,3984,3968,3968,3972,4006,7602,7588,7569,7568,7570,7588,7588,7588,7008,7026,7012,7012,7012,7028,6992,6992,7016,4098,4084,4084,4084,4067,4100,7024,7568,7568,7024,7568,7016,7570,7604,2860,7008,6992,6992,7032,7020,7020,7020,7020,6992,7030,6992,6992,7016,2860,3984,3968,3968,3992,7602,7027,7025,7025,7025,7025,7025,7025,7025,7001,7008,6992,6992,6992,7016,6992,6992,7016,4080,4068,4092,4092,4092,4102,7024,7568,7568,7024,7568,7016,7568,7592,4003,7008,6992,6992,7379,7378,7378,7378,7378,7378,7382,6992,6992,7016,4004,3969,3968,3972,4006,7584,7024,7378,7378,7378,7378,7378,7378,7378,7008,7008,6992,6992,6992,7016,6992,6992,7016,4080,4088,7026,7012,7012,7012,7018,7568,7568,7024,7568,7022,7029,7592,4012,7008,6992,6992,7385,7384,7384,7384,7384,7384,7388,6992,6992,7016,4008,3976,3968,3992,7602,7569,7024,7384,7384,7384,7384,7384,7384,7384,7008,7008,6992,6992,6992,7016,6992,6992,7016,4080,4088,7032,7020,7020,7020,7017,7568,7568,7024,7568,7380,7024,7592,2858,7032,7020,7020,7000,6996,7020,7020,7020,7000,6996,7020,7020,7030,2858,3984,3972,4006,7584,7568,7024,4098,4084,4084,4084,4084,4084,4100,7008,7032,7020,7020,6992,7030,6992,6992,7016,4080,4088,7379,7378,7378,7378,7024,7568,7568,7024,7568,7380,7024,7592,2848,7335,7379,7382,7032,7030,7379,7378,7382,7032,7030,7379,7382,7335,2848,3984,3992,7602,7569,7568,7024,4104,4092,4092,4092,4092,4092,4089,7008,7379,7378,7378,1583,7382,6992,6992,7016,4080,4088,7385,7384,7384,7384,7024,7568,7568,7024,7568,7568,7024,7592,2848,7333,7377,7380,7379,7382,7377,7376,7380,7379,7382,7377,7380,7333,2848,3984,3992,7584,7568,7568,7033,7025,7025,7025,7025,7025,7029,4096,7008,7377,7376,7376,1583,7380,6992,6992,7016,4080,4070,4097,4097,4097,4109,7024,7568,7568,7024,7568,7568,7024,7592,2848,7333,7377,7380,7377,7380,7377,7376,7380,7377,7380,7377,7380,7333,2848,3984,3992,7584,7568,7568,7379,7378,7378,7378,7378,7382,7024,4096,7008,7385,7384,7384,1583,7388,6992,6992,7016,4080,4088,7027,7025,7025,7025,7031,7568,7568,7024,7568,7568,7024,7592,2860,7341,7385,7388,7377,7380,7385,7384,7388,7377,7380,7385,7388,7341,2860,3984,3992,7608,7576,7568,7385,7384,7384,7384,7384,7388,7024,4096,7008,6992,6992,6992,6992,6992,6992,6992,7016,4080,4088,7024,7379,7378,7378,7382,7568,7568,7024,7568,7568,7024,7592,4002,3988,3988,4004,7385,7388,4002,3988,4004,7385,7388,4002,3988,3988,3988,3969,3992,7955,7584,7568,7568,7568,7568,7568,7568,7568,7024,4096,7032,7020,6992,7020,7020,7020,7020,7020,7030,4080,4088,7024,7385,7384,7384,7388,7568,7568,7024,7568,7568,7024,7592,4008,3976,3968,3970,3988,3988,3969,3968,3970,3988,3988,3969,3968,3968,3968,3968,3992,7961,7608,7568,7596,7596,7576,7568,7568,7568,7024,4096,7379,7382,1583,7379,7378,7378,7378,7378,7382,4080,4088,7024,7568,7568,7568,7568,7568,7568,7024,7568,7568,7024,7570,7604,4008,3976,3968,3968,3968,3968,3968,3968,3968,3968,3968,3968,3968,3968,3968,3970,4004,7955,1583,7955,7954,7608,7576,7568,7568,7024,4096,7385,7388,1583,7385,7384,7384,7384,7384,7388,4080,4088,7024,7568,7568,7568,7568,7568,7568,7024,7568,7568,7024,7568,7570,7604,4008,3996,3976,3968,3968,3968,3968,3968,3968,3968,3968,3968,3968,3968,3968,3992,7961,1583,7961,7960,7955,7584,7568,7568,7024,4081,4084,4084,4084,4084,4084,4084,4084,4084,4084,4065,4088,7024,7568,7568,7568,7568,7568,7568,7024,7568,7568,7033,7025,7029,7570,7588,7604,4008,3976,3968,3968,3968,3968,3968,3968,3968,3968,3968,3968,3968,3970,3988,3988,3988,4004,7961,7584,7568,7568,7024,4104,4092,4092,4092,4072,4064,4064,4068,4092,4092,4092,4102,7024,7568,7027,7025,7025,7025,7025,7031,7568,7568,7379,7382,7024,7568,7568,7570,7604,3984,3968,3968,3968,3968,3968,3968,3968,3968,3968,3968,3968,3968,3968,3972,3996,3998,4013,7584,7568,7568,7033,7025,7025,7025,7037,4080,4064,4064,4088,7035,7025,7025,7025,7031,7568,7024,7379,7378,7378,7378,7382,7568,7568,7385,7388,7024,7568,7568,7568,7592,4008,3976,3968,3968,3968,3968,3968,3968,3968,3968,3968,3968,3968,3972,4006,7602,7588,7588,7569,7568,7568,7379,7378,7378,7378,7382,4080,4064,4064,4088,7379,7378,7378,7378,7382,7568,7024,7385,7384,7384,7384,7388,7568,7568,7568,7568,7024,7568,7568,7568,7570,7604,3984,3968,3968,3968,3968,3968,3968,3968,3968,3968,3968,3972,4006,7602,7569,7568,7568,7568,7568,7568,7385,7384,7384,7384,7388,4104,4092,4092,4102,7385,7384,7384,7384,7388,7568,7024,7568,7568,7568,7568,7568,7568,7568,7568,7568,7024,7568,7568,7568,7568,7592,4008,3996,3996,3996,3996,3996,3996,3976,3968,3968,3972,4006,7602,7569,7568,7568,7568,7568,7568,7568,7568,7568,7568,7568,7570,7588,7588,7588,7588,7569,7568,7568,7568,7568,7568,7024,7568,7568,7568,7568,7568,7568,7568,7568,1555,7024,7568,7568,7568,7568,7570,7588,7588,7588,7588,7588,7588,7604,4008,3976,3968,3992,7602,7569,7568,7568,7568,7568,7568,7568,7568,7568,7568,7568,7568,7568,7568,7568,7568,7568,7568,7568,7568,7568,7568,7568,7024,7568,7568,7568,7568,7568,7568,7568,7568,7606,7009,7012,7012,7012,7012,7012,7012,7012,7012,7012,7012,7028,7570,7604,3984,3968,3992,7584,7568,7026,7012,7012,7012,7012,7012,7012,7012,7012,7012,7012,7012,7012,7012,7012,7012,7012,7012,7012,7012,7012,7012,7018,7584,7568,7568,7568,7568,7568,7568,7568,2858,7032,7020,7020,7020,7020,7020,7020,7020,7020,7020,7020,7030,7568,7592,3984,3968,3992,7584,7568,7032,7020,7020,7020,7020,7020,7020,7020,7020,7020,7020,7020,7020,7020,7020,7020,7020,7020,7020,7020,7020,7020,7030,7584,7568,7568,7568,7568,7568,7568,7568,2848,7335,7379,7378,7378,7378,7378,7378,7378,7378,7382,7335,2858,7568,7592,3984,3968,3992,7584,7568,2858,7335,7379,7378,7378,7378,7378,7378,7378,7378,7382,7335,2858,7379,7378,7378,7378,7378,7378,7378,7378,7382,7335,7584,7568,7568,7568,7568,7568,7568,7568,2860,7341,7385,7384,7384,7384,7384,7384,7384,7384,7388,7341,2860,7568,7592,3984,3968,3992,7584,7568,2860,7341,7385,7384,7384,7384,7384,7384,7384,7384,7388,7341,2860,7385,7384,7384,7384,7384,7384,7384,7384,7388,7341,7584,7568,7568,7568,7568,7568,7568,7568,7588,7588,7568,7568,7568,7568,7568,7568,7568,7568,7568,7588,7588,7572,7606,3984,3968,3992,7608,7576,7588,7588,7568,7568,7568,7568,7568,7568,7568,7568,7568,7588,7588,7568,7568,7568,7568,7568,7568,7568,7568,7568,7588,7569,7568,7568,7568,7568,7568,7568,7568,7568,7568,7568,7568,7568,7568,7568,7568,7568,7572,7596,7596,7596,7606,7958,3984,3968,3992,7955,7608,7596,7596,7596,7596,7596,7576,7568,7568,7568,7568,7568,7568,7568,7568,7568,7568,7568,7568,7568,7568,7568,7568,7568,7568,7568,7568,7568,7568,7568,7568,7568,7568,7568,7568,7568,7568,7568,7568,7568,7572,7606,7954,7954,7954,7958,7964,3984,3968,3992,7961,7955,7954,7954,7954,7954,7954,7608,7596,7596,7596,7596,7596,7596,7596,7596,7576,7568,7568,7568,7568,7568,7568,7568,7568,7568,7568,7568,7568,7568,7568,7596,7596,7596,7596,7596,7596,7596,7596,7596,7596,7606,7958,7960,7960,7960,7964,4002,3969,3968,3970,4004,7961,7960,7960,7960,7960,7960,7955,7954,7954,7954,7954,7954,7954,7954,7954,7608,7576,7568,7568,7568,7568,7568,7568,7568,7568,7568,7568,7568,7568,7568,7962,7962,7962,7962,7962,7962,7962,7962,7962,7962,7958,7964,4002,3988,3988,3988,3969,3968,3968,3968,3970,3988,3988,3988,3988,3988,4004,7961,7960,7960,7960,7960,7960,7960,7960,7960,7955,7584,7568,7568,7568,7568,7568,7568,7568,7568,7568,7568,7568,7568,7568,0,0,0,0,0,0,0,0,0,0,0,0,0,0,0,0,0,0,0,0,0,0,0,0,0,0,0,0,0,0,0,0,0,0,0,0,0,0,0,4032,4016,4016,4016,4016,4040,0,0,4176,4160,4160,4160,0,0,0,0,0,0,0,0,0,0,0,0,0,0,0,0,0,0,0,0,0,0,0,0,0,0,0,0,0,0,0,0,0,0,0,0,0,0,4050,4017,4016,4016,4016,4016,4040,0,0,4200,4168,4160,4160,0,0,0,0,0,0,0,0,0,0,0,0,0,0,0,0,0,0,0,0,0,0,0,0,0,0,0,0,0,0,0,0,0,0,0,0,0,0,4056,4044,4024,4016,4016,4020,4054,0,0,0,4176,4160,4160,0,0,0,0,0,0,0,0,0,0,0,0,0,0,0,0,0,0,0,0,0,0,0,0,0,0,0,0,0,0,0,0,0,0,0,0,0,0,0,0,4032,4016,4016,4040,0,0,0,0,4200,4168,4160,0,0,0,0,0,0,0,0,0,0,0,0,0,0,0,0,0,0,0,0,0,0,0,0,0,0,0,0,0,0,0,0,0,0,0,0,0,0,0,0,4032,4016,4020,4054,0,0,0,0,0,4176,4160,0,0,0,0,0,0,0,0,0,0,0,0,0,0,0,0,0,0,0,0,0,0,0,0,0,0,0,0,0,0,0,0,0,0,0,0,0,0,0,0,4032,4020,4054,0,0,0,0,0,0,4176,4160,0,0,0,0,0,0,0,0,0,0,0,0,0,0,0,0,0,0,0,0,0,0,0,0,0,0,0,0,0,0,0,0,0,0,0,0,0,0,0,0,4032,4040,0,0,0,0,0,0,0,4200,4188,0,0,0,0,0,0,0,0,0,0,0,0,0,0,0,0,0,0,0,0,0,0,0,0,0,0,0,0,0,0,0,0,0,0,0,0,0,0,0,0,4032,4018,4052,0,0,0,0,0,0,0,0,0,0,0,0,0,0,0,0,0,0,0,0,0,0,0,0,0,0,0,0,0,0,0,0,0,0,0,0,0,0,0,0,0,0,0,0,0,0,0,0,4032,4016,4040,0,0,0,0,0,0,0,0,0,0,0,0,0,0,0,0,0,0,0,0,0,0,0,0,0,0,0,0,0,0,0,0,0,0,0,0,0,0,0,0,0,0,0,4194,4180,4196,0,4050,4017,4020,4054,0,0,0,0,0,0,0,0,0,0,0,0,0,0,0,0,0,0,0,0,0,0,0,0,0,0,0,0,0,0,0,0,0,0,0,0,0,0,0,0,0,0,0,4176,4164,4198,4050,4017,4020,4054,0,0,0,0,0,0,0,0,0,0,0,0,0,0,0,0,0,0,0,0,0,0,0,0,0,0,0,0,0,0,0,0,0,0,0,0,0,0,0,0,0,0,0,0,4178,4198,0,4032,4016,4040,0,0,0,0,0,0,0,0,0,0,0,0,0,0,0,0,0,0,0,0,0,0,0,0,0,0,0,0,0,0,0,0,0,0,0,0,0,0,0,0,0,0,0,0,0,4192,4050,4036,4017,4016,4040,0,0,0,0,0,0,0,0,0,0,0,0,0,0,0,0,0,0,0,0,0,0,0,0,0,0,0,0,0,0,0,0,0,0,0,0,0,0,0,4194,4180,4180,4180,4180,4180,4186,4032,4016,4016,4020,4054,0,0,0,0,0,0,0,0,0,0,0,0,0,0,0,0,0,0,0,0,0,0,0,0,0,0,0,0,0,0,0,0,0,0,0,0,0,0,0,4200,4188,4188,4188,4188,4188,4198,4032,4016,4020,4054,0,0,0,0,0,0,0,0,0,0,0,0,0,0,0,0,0,0,0,0,0,0,0,0,0,0,0,0,0,0,0,0,0,0,0,0,0,0,0,0,0,4050,4036,4036,4036,4036,4036,4017,4020,4054,4202,0,0,0,0,0,0,0,0,0,0,0,0,0,0,0,0,4194,4180,4180,4180,4180,4196,0,0,0,0,0,0,0,0,0,0,0,0,4194,4180,4196,0,0,4050,4036,4017,4016,4016,4016,4016,4020,4044,4054,4194,4186,0,0,0,0,0,0,0,0,0,0,0,0,0,0,0,0,4200,4188,4168,4160,4164,4198,4050,4036,4036,4036,4052,0,0,0,0,0,0,4194,4161,4164,4190,4205,4050,4017,4020,4044,4044,4044,4044,4044,4054,0,4194,4165,4198,0,0,0,0,0,0,0,0,0,0,0,0,0,0,0,0,0,0,4200,4188,4198,4050,4021,4044,4044,4028,4054,0,0,0,4050,4036,4052,4200,4188,4198,4050,4036,4017,4020,4054,0,0,0,0,0,0,0,4200,4198,0,0,0,0,0,0,0,0,0,0,0,0,0,0,0,0,0,0,0,0,0,4059,4045,4054,0,0,4060,0,0,0,0,4032,4016,4040,0,4051,4049,4045,4044,4044,4054,0,0,0,0,0,0,0,0,0,0,0,0,0,0,0,0,0,0,0,0,0,0,0,0,0,0,0,0,0,0,0,0,0,0,0,0,0,0,0,0,0,4056,4024,4022,4049,4055,0,0,0,0,0,0,0,0,0,0,0,0,0,0,0,0,0,0,0,0,0,0,0,0,0,0,0,0,0,0,0,0,0,0,0,0,0,0,0,0,0,0,0,0,0,0,0,4034,4054,0,0,0,0,0,0,0,0,0,0,0,0,0,0,0,0,0,0,0,0,0,0,0,0,0,0,0,0,0,0,0,0,0,0,0,0,0,0,0,0,0,0,0,0,0,0,0,0,0,4060,0,0,0,0,0,0,0,0,0,0,0,0,0,0,0,0,0,0,0,0,0,0,0,0,0,0,0,0,0,0,0,0,0,0,0,0,0,0,0,0,0,0,0,0,0,0,0,0,0,0,0,0,0,0,0,0,0,0,0,0,0,0,0,0,0,0,0,0,0,0,0,0,0,0,0,0,0,0,0,0,0,0,0,0,0,0,0,0,0,0,0,0,0,0,0,0,0,0,0,0,0,0,0,0,0,0,0,0,0,0,0,0,0,0,0,0,0,0,0,0,0,0,0,0,0,0,0,0,0,0,0,0,0,0,0,0,0,0,0,0,0,0,0,0,0,0,0,0,0,0,0,0,0,0,0,0,0,0,0,0,0,0,0,0,0,0,0,0,0,0,0,0,0,0,0,0,0,0,0,0,0,0,0,0,0,0,0,0,0,0,0,0,0,0,0,0,0,0,0,0,0,0,0,0,0,0,0,0,0,0,0,0,0,0,0,0,0,0,0,0,0,0,0,0,0,0,0,0,0,0,0,0,0,0,0,0,0,0,0,0,0,0,0,0,0,0,0,0,0,0,0,0,0,0,0,0,0,0,0,0,0,0,0,0,0,0,0,0,0,0,0,0,0,0,0,0,0,0,0,0,0,0,0,0,0,0,0,0,0,0,0,0,0,0,0,0,0,0,0,0,0,0,0,0,0,0,0,0,0,0,0,0,0,0,0,0,0,0,0,0,0,0,0,0,0,0,0,0,0,0,0,0,0,0,0,0,0,0,0,0,0,0,0,0,0,0,0,0,0,0,0,0,0,0,0,0,0,0,0,0,0,0,0,0,0,0,0,0,0,0,0,0,0,0,0,0,0,0,0,0,0,0,0,0,0,0,0,0,0,0,0,0,0,0,0,0,0,0,0,0,0,0,0,0,0,0,0,0,0,0,0,0,0,0,0,0,0,0,0,0,0,0,0,0,0,0,0,0,0,0,0,0,0,0,0,0,0,0,0,0,0,0,0,0,0,0,0,4050,4036,4052,0,0,0,0,0,0,0,0,0,0,0,0,0,0,0,0,0,0,0,0,0,0,0,0,0,0,0,0,0,0,0,0,0,0,0,0,0,0,0,0,0,0,0,0,0,0,4050,4036,4017,4016,4018,4036,4052,0,0,0,0,0,0,0,0,0,0,0,0,0,0,0,0,0,0,0,0,0,0,0,0,0,0,0,0,0,0,0,0,0,0,0,0,0,0,0,0,0,0,0,0,4056,4044,4024,4016,4016,4016,4018,4052,0,0,0,0,4062,0,0,0,0,0,0,0,0,0,0,0,0,0,0,0,0,0,0,0,0,0,0,0,0,0,0,0,0,0,0,0,0,0,0,0,0,0,0,0,0,4056,4024,4016,4016,4016,4018,4036,4036,4052,0,0,0,0,0,0,0,0,0,0,0,0,0,0,0,0,0,0,0,0,0,0,0,0,0,0,0,0,0,0,0,0,0,0,0,0,0,0,0,0,0,0,0,4032,4016,4016,4016,4020,4044,4024,4018,4052,0,4050,4036,4037,4061,0,0,0,0,0,0,0,0,0,0,0,0,0,0,0,0,0,0,0,0,0,0,0,0,0,0,0,0,0,0,0,0,0,0,0,0,0,4056,4024,4016,4020,4054,0,4032,4016,4040,0,4056,4044,4054,0,0,0,0,0,0,0,0,0,0,0,0,0,0,0,0,0,0,0,0,0,0,0,0,0,0,0,0,0,0,0,0,0,0,0,0,0,0,4202,4056,4044,4054,0,0,4032,4016,4040,0,0,0,0,0,0,0,0,0,0,0,0,0,0,0,0,0,0,0,0,0,0,0,0,0,0,0,0,0,0,0,0,0,0,0,0,0,0,0,0,0,4203,4191,4182,4180,4196,0,0,4056,4024,4040,0,0,0,0,0,0,0,0,0,0,0,0,0,0,0,0,0,0,0,0,0,0,0,0,0,0,0,0,0,0,0,0,0,0,0,0,0,0,0,0,0,0,0,4200,4188,4190,4193,4205,0,4056,4041,0,0,0,0,0,0,0,0,0,0,0,0,0,0,0,0,0,0,0,0,0,0,0,0,0,0,0,0,0,0,0,0,0,0,0,0,0,0,0,0,0,0,0,0,0,0,0,0,0,0,4048,0,0,0,0,0,0,0,0,0,0,0,0,0,0,0,0,0,0,0,0,0,0,0,0,0,0,0,0,0,0,0,0,0,0,0,0,0,0,0,0,0,0,0,0,0,0,0,0,0,4050,4042,0,0,0,0,0,0,0,0,0,0,0,0,0,0,0,0,0,0,0,0,0,0,0,0,0,0,0,0,0,0,0,0,0,0,0,0,0,0,0,0,0,0,0,0,0,0,0,0,0,4056,4041,0,0,0,0,0,0,0,0,0,0,0,0,0,0,0,0,0,0,0,0,0,0,0,0,0,0,0,0,0,0,0,0,0,0,0,0,0,0,0,0,0,0,0,0,0,0,0,0,0,0,4033,4052,0,0,0,0,0,0,0,0,0,0,0,0,0,0,0,0,0,0,0,0,0,0,0,0,0,0,0,0,0,0,0,0,0,0,0,0,0,0,0,0,0,0,0,0,0,0,0,0,0,4034,4054,0,0,0,0,0,0,0,0,0,0,0,0,0,0,0,0,0,0,0,0,0,0,0,0,0,0,0,0,0,0,4194,0,0,0,0,0,0,0,0,0,0,0,0,0,0,0,0,0,0,4048,0,0,0,0,0,0,0,0,0,0,0,0,0,0,0,0,0,0,0,0,0,0,0,0,0,0,0,0,0,0,4194,4161,0,0,0,0,0,0,0,0,0,0,0,0,0,0,0,0,0,0,4048,0,0,0,0,0,0,0,0,0,0,0,0,0,0,0,0,0,0,0,0,0,0,0,0,0,0,0,0,0,4194,4161,4160,0,0,0,0,0,0,0,0,0,0,0,0,0,0,0,0,0,0,4048,0,0,0,0,0,0,0,0,0,0,0,0,0,0,0,0,0,0,0,0,0,0,0,0,0,0,0,0,4194,4161,4160,4160,0,0,0,0,0,0,0,0,0,0,0,0,0,0,0,0,0,0,4033,4052,0,0,0,0,0,0,0,0,0,0,0,0,0,0,0,0,0,0,0,0,0,0,4194,4180,4180,4180,4180,4161,4160,4160,4160,0,0,0,0,0,0,0,0,0,0,0,0,0,0,0,0,0,4050,4017,4040,0,0,0,0,0,0,0,0,0,0,0,0,0,0,0,0,0,0,0,0,0,4194,4161,4160,4160,4160,4160,4160,4160,4160,4160,0,0,0,0,0,0,0,0,0,0,0,0,0,0,0,0,0,0,0,0,0,0,0,0,0,0,0,0,0,0,0,0,0,0,0,0,0,0,0,0,0,0,0,0,0,0,0,0,0,0,0,0,0,0,0,0,0,0,0,0,0,0,0,0,0,0,0,0,0,0,0,0,0,0,0,0,0,0,0,0,0,0,0,0,0,0,0,0,0,0,0,0,0,0,0,0,0,0,0,137,0,0,0,0,0,0,0,0,0,0,0,0,0,0,0,0,0,0,0,0,0,0,0,0,0,0,0,0,0,0,0,0,0,0,0,0,0,0,0,0,0,0,0,0,0,0,0,0,0,0,0,0,0,0,0,502,0,0,0,0,0,0,0,0,0,0,0,0,0,0,0,0,0,0,0,0,0,0,0,0,0,0,0,0,0,0,0,0,0,0,0,0,0,0,0,0,0,0,0,0,0,0,0,0,0,0,510,0,0,0,0,0,0,0,0,0,0,0,0,0,0,0,0,0,0,0,0,0,0,0,0,0,0,0,0,0,0,0,0,0,0,0,0,0,0,0,0,0,0,0,0,0,0,0,0,0,0,0,0,0,0,0,0,0,0,0,0,0,0,0,0,0,0,0,0,0,0,0,0,0,0,0,0,0,0,0,0,0,0,0,0,0,0,0,0,0,0,0,0,0,0,0,0,0,0,0,0,0,0,0,0,0,0,0,0,0,0,0,0,0,0,0,0,0,0,0,0,0,0,0,0,0,0,0,0,0,0,0,0,0,0,0,0,0,0,0,0,0,0,0,0,0,0,0,0,0,0,0,0,0,0,0,0,0,0,0,0,0,0,0,0,0,0,0,0,0,0,0,0,0,0,0,0,0,0,0,204,0,0,0,0,0,0,0,0,0,0,0,0,0,0,0,0,0,0,137,0,0,0,0,0,0,0,0,0,0,0,0,0,0,0,0,0,0,0,0,0,0,0,0,0,0,0,0,0,0,0,137,0,0,0,0,0,201,0,0,0,0,0,0,0,0,0,0,0,0,0,0,0,0,0,0,0,0,0,0,0,0,0,0,0,0,0,0,0,0,0,0,0,0,0,0,0,0,0,0,0,0,0,0,0,0,0,0,0,137,0,0,0,0,0,0,0,0,0,0,0,0,0,0,0,0,0,0,0,0,0,0,0,0,0,0,0,0,0,0,0,0,0,0,0,0,0,0,0,0,0,0,0,0,0,0,0,0,0,0,0,0,0,0,0,0,0,0,0,0,0,0,0,0,0,0,0,0,0,0,0,0,0,0,0,0,0,0,0,0,0,0,0,0,0,0,0,0,0,0,0,0,0,0,0,0,0,0,0,0,0,0,0,0,0,0,0,0,0,0,0,0,0,0,0,0,0,0,0,0,0,0,0,0,0,0,0,0,0,0,0,0,0,0,0,0,0,0,0,0,0,0,0,0,0,0,0,0,0,0,0,0,0,0,0,0,0,136,0,0,0,0,0,0,0,0,0,0,0,0,0,0,0,0,0,0,0,0,0,0,0,0,0,0,0,0,0,0,0,0,0,0,0,0,0,0,0,0,0,0,0,0,0,0,0,0,0,0,0,0,0,0,0,0,0,0,0,0,0,0,0,0,0,0,0,0,0,0,0,0,0,0,0,0,0,0,0,0,0,0,0,0,0,0,0,0,0,0,0,0,0,0,0,0,0,0,0,0,0,0,0,0,0,0,0,0,0,0,0,0,0,0,0,0,0,201,0,0,0,0,0,0,0,0,0,0,0,0,0,0,0,0,0,0,0,0,0,0,0,0,0,0,0,0,0,0,0,0,0,0,0,0,0,0,0,0,0,0,0,0,0,0,0,0,0,0,0,0,0,136,0,0,0,0,0,0,0,0,0,0,0,0,0,0,0,0,0,0,0,0,0,0,0,0,0,0,0,0,0,0,0,0,0,0,0,0,0,0,0,0,136,0,0,0,0,0,0,0,0,0,0,0,0,0,0,0,0,0,0,0,0,0,0,0,0,0,0,0,0,0,0,0,0,0,0,0,0,0,0,0,0,0,0,0,0,0,0,0,0,0,0,0,0,0,0,0,0,0,0,0,0,0,0,0,0,0,0,0,0,0,0,0,0,0,0,0,0,0,0,0,0,0,0,0,0,0,0,0,0,0,0,0,0,0,0,0,0,0,0,0,0,0,0,0,0,0,446,447,0,0,0,0,0,0,0,0,0,0,0,0,447,0,0,0,0,0,0,0,0,0,0,0,0,0,0,0,0,0,0,0,0,0,0,0,0,0,0,0,0,0,0,0,0,0,0,0,0,462,455,0,0,0,0,0,0,0,0,0,0,0,462,463,0,0,0,0,0,0,0,0,0,0,0,0,0,0,0,0,0,0,0,0,0,0,0,0,0,0,0,0,0,0,0,0,0,0,0,0,454,0,0,0,0,0,0,0,0,0,0,0,0,0,455,0,0,0,0,0,0,0,0,0,0,0,283,0,0,0,0,0,0,0,0,0,0,0,0,0,0,0,0,0,0,0,0,0,0,0,0,454,0,0,0,0,0,0,0,0,0,0,0,0,0,455,0,0,0,0,0,0,0,0,0,0,0,0,0,0,0,0,0,0,0,0,0,0,0,0,0,0,0,0,0,0,0,0,0,0,0,0,462,0,0,0,0,0,0,0,0,0,0,0,0,0,463,0,0,0,0,0,0,0,0,0,0,0,0,0,0,0,180,0,172,0,0,0,0,0,0,0,0,0,0,0,0,0,0,0,0,0,0,0,0,0,0,0,0,0,0,0,0,0,0,0,0,0,0,0,0,0,0,0,0,0,0,0,0,0,0,0,0,180,0,0,0,0,0,0,0,0,0,0,0,0,0,0,0,0,0,0,0,0,0,0,0,0,0,0,0,0,0,0,0,0,0,0,0,0,0,0,0,0,0,0,0,0,0,0,0,0,0,0,0,0,0,0,0,0,0,0,0,0,0,0,0,0,0,0,0,0,0,0,0,446,0,0,0,0,0,0,0,0,0,0,0,0,0,447,0,0,0,0,0,0,0,0,0,0,0,0,0,0,0,0,0,0,0,0,0,0,0,0,0,0,0,0,0,0,0,0,0,0,0,0,462,463,0,0,0,0,0,0,0,0,0,0,0,462,463,0,0,0,0,0,0,0,0,0,0,0,0,0,0,0,0,0,0,0,0,0,0,0,0,0,0,0,0,0,0,0,0,0,0,0,0,454,455,0,0,0,0,0,0,0,0,0,0,0,494,455,0,0,0,0,0,0,0,0,0,0,0,0,0,0,0,0,0,0,0,0,0,0,0,0,0,0,0,0,0,0,0,0,0,0,0,0,454,455,0,0,0,0,0,0,0,0,0,0,0,494,455,0,0,0,0,0,0,0,0,0,0,0,0,0,0,0,0,0,0,0,0,0,0,0,0,0,0,0,0,0,0,0,0,0,0,0,0,462,503,0,0,0,0,0,0,0,0,0,0,0,462,463,0,0,0,0,0,0,0,0,0,0,0,0,0,0,0,0,0,0,0,0,0,0,0,0,0,0,0,0,0,0,0,0,0,0,0,0,0,511,0,0,0,0,0,0,0,0,0,0,0,0,0,0,0,0,0,0,0,0,0,0,137,164,0,0,0,0,0,0,0,0,0,0,0,0,0,0,0,0,0,0,0,0,0,0,0,0,0,0,0,0,0,0,0,0,0,0,0,0,0,0,0,0,0,0,0,0,0,0,0,0,0,0,0,0,0,0,0,0,0,0,0,0,0,0,0,0,0,0,0,0,0,0,0,0,154,0,0,0,0,0,0,0,0,0,0,0,0,0,0,0,0,0,0,0,0,0,0,0,0,0,0,0,0,0,0,0,0,0,0,0,0,0,0,0,0,0,0,0,0,0,0,0,0,0,0,0,0,0,0,0,0,0,0,0,0,0,0,0,0,0,0,0,0,0,0,0,0,0,0,0,0,0,0,0,0,0,0,0,0,0,0,0,0,0,0,0,0,0,0,0,0,0,0,0,0,0,0,0,0,0,0,0,0,0,0,0,0,0,0,0,0,0,0,0,0,0,0,0,0,0,0,0,0,0,0,0,0,0,0,0,0,0,0,0,0,0,0,0,0,0,0,0,0,0,0,0,0,0,0,0,0,0,0,0,0,0,0,0,0,0,0,0,0,0,0,0,0,0,0,0,0,0,0,0,0,0,0,0,0,0,0,0,0,0,0,0,0,0,0,0,0,0,0,0,0,0,0,0,0,0,0,0,0,0,154,0,0,0,0,0,0,0,0,0,0,0,0,0,0,0,0,0,0,0,0,0,0,0,0,0,0,0,0,0,0,0,0,0,0,0,0,0,0,0,0,0,0,0,0,0,0,0,0,0,0,0,0,0,0,0,0,0,0,0,0,0,0,0,0,0,0,0,0,0,0,0,0,0,0,0,0,0,0,0,0,0,0,0,0,0,0,0,0,0,0,0,0,0,0,0,0,0,0,0,0,0,0,0,0,0,0,0,0,0,0,0,0,0,0,0,0,0,0,0,0,0,0,0,0,0,0,0,0,0,0,0,0,0,897,0,0,0,0,0,0,0,0,0,0,0,0,0,0,0,0,0,0,0,0,0,0,0,0,0,0,0,0,0,0,0,0,0,0,0,0,0,0,0,0,0,0,0,0,0,0,0,0,0,0,0,0,0,0,0,0,0,0,0,0,0,0,0,0,0,0,0,0,0,0,0,0,0,0,0,0,0,0,0,0,0,0,0,0,0,0,0,0,0,0,0,0,0,0,0,0,0,0,0,0,0,0,0,0,0,0,0,0,0,0,0,154,0,0,0,0,0,446,0,0,0,0,0,0,0,0,0,0,0,0,0,0,0,0,0,0,0,0,0,0,0,0,0,0,0,0,0,0,0,0,0,0,0,0,0,0,0,0,0,0,0,0,0,0,0,0,0,0,454,455,0,0,0,0,0,0,0,0,0,454,455,0,0,0,0,0,0,0,454,455,0,0,0,0,0,0,0,0,0,454,455,0,0,0,0,0,0,0,0,0,454,0,0,0,0,0,0,0,0,462,463,0,61,0,197,61,0,0,0,0,462,463,0,0,0,0,0,0,0,462,463,0,0,0,0,0,0,0,61,0,462,463,0,0,0,0,0,0,0,0,0,462,0,0,0,0,0,0,0,0,510,0,0,0,0,0,0,0,0,0,0,510,0,0,0,0,0,0,0,0,0,0,0,0,0,137,0,0,0,0,0,0,511,0,0,0,0,0,0,0,0,0,510,511,0,0,0,0,0,0,0,0,0,0,0,0,0,0,0,0,0,0,0,0,0,0,0,0,0,0,0,0,0,0,0,0,0,0,0,0,0,0,0,0,0,0,0,0,0,0,0,0,0,0,137,0,0,0,0,0,0,0,0,0,0,0,0,0,0,0,0,0,0,0,0,0,0,0,0,0,0,0,0,0,0,0,0,0,0,0,0,0,0,0,0,0,0,0,0,0,0,0,0,0,0,0,0,0,0,0,0,0,0,0,0,0,0,0,0,0,0,0,0,0,0,0,0,0,0,0,0,0,0,0,0,0,0,0,0,0,0,0,0,0,0,0,0,0,0,0,0,0,0,0,0,0,0,0,0,0,0,0,0,0,0,0,0,0,0,0,0,0,0,0,0,0,0,0,0,0,0,0,0,0,0,0,0,0,0,0,0,0,0,0,0,0,0,0,0,0,0,0,0,0,0,0,0,0,0,0,0,0,0,128,129,478,479,0,0,0,0,0,0,0,0,0,0,0,0,0,0,0,0,0,0,0,0,0,0,0,0,0,0,0,0,0,478,479,0,0,0,0,0,0,0,0,0,0,0,0,128,129,0,0,136,137,486,487,0,0,0,0,0,0,0,0,0,0,0,0,0,0,0,0,0,0,0,0,0,0,0,0,0,0,0,0,0,486,487,0,0,0,646,647,0,0,0,163,0,0,0,136,128,129,0,0,0,494,508,0,0,0,0,0,0,0,0,0,0,0,0,0,0,0,0,0,0,0,0,0,0,0,0,0,0,0,0,0,509,495,0,0,0,654,655,0,0,0,0,0,0,0,0,136,137,0,0,128,129,0,0,0,205,0,196,0,0,0,0,0,0,0,0,0,196,0,0,0,0,0,0,0,0,42,0,0,42,0,0,0,503,141,141,141,662,663,0,163,0,0,628,629,0,0,0,0,0,0,136,137,0,0,0,0,0,204,0,0,199,0,0,0,0,0,0,204,0,0,207,0,0,0,0,0,0,0,0,0,0,0,0,511,0,0,0,0,0,0,0,0,0,636,637,0,0,0,128,129,128,129,0,0,0,162,162,135,135,135,134,0,0,0,162,162,135,135,135,135,135,135,135,0,0,0,0,0,0,0,0,0,0,0,0,0,0,0,0,0,0,0,0,0,154,0,0,0,0,136,137,136,137,0,0,0,0,0,0,0,0,0,0,0,0,0,784,0,0,0,818,0,0,0,0,0,0,0,54,0,196,54,0,199,0,0,0,0,0,0,0,0,0,0,628,629,0,0,128,129,0,0,0,0,0,0,0,0,0,0,0,0,0,0,0,0,0,0,0,0,0,0,0,0,0,0,0,0,0,62,128,129,62,128,129,0,0,193,0,0,0,0,0,0,0,636,637,0,0,136,128,129,0,0,0,0,0,0,0,0,135,135,135,0,0,0,0,0,0,0,0,0,0,149,0,0,0,0,149,133,0,136,128,129,136,137,0,0,128,129,0,0,0,0,0,0,0,0,0,0,0,136,137,0,0,0,0,0,0,0,0,0,0,0,0,0,0,0,134,0,0,0,0,0,149,0,0,0,0,149,0,0,0,136,137,0,0,0,0,136,128,129,0,0,0,0,0,0,0,478,479,0,0,0,0,0,0,197,0,0,0,0,0,54,0,199,0,0,0,134,0,0,0,0,0,149,0,135,135,0,0,0,0,0,0,0,0,0,0,0,0,136,137,0,0,0,0,0,0,0,486,487,0,0,0,0,0,0,205,0,128,129,0,0,62,0,0,0,0,0,0,0,0,0,0,0,0,0,0,0,0,0,0,0,0,193,0,195,0,0,0,0,0,0,0,0,0,128,129,141,141,494,508,0,0,0,0,0,283,0,0,136,137,0,0,149,149,149,0,0,0,0,54,642,643,0,0,0,0,0,0,0,0,0,0,0,201,0,0,0,128,129,0,0,0,0,0,128,129,137,0,0,502,0,0,0,0,0,0,0,0,0,0,0,0,0,0,0,0,0,0,0,0,62,650,651,0,0,0,0,0,0,0,0,128,129,0,0,128,129,0,136,137,0,0,0,163,0,136,137,0,0,0,510,0,0,0,0,0,0,0,128,129,0,0,193,0,195,0,0,0,0,0,0,0,658,659,0,0,0,0,0,0,0,0,136,137,128,129,136,137,0,0,0,0,0,0,0,0,0,154,0,0,128,129,0,0,0,0,0,0,0,136,137,0,128,129,0,0,128,129,0,0,0,193,0,0,0,0,0,0,0,0,128,129,167,154,0,136,137,0,0,142,0,0,0,0,0,0,0,0,0,0,0,136,137,0,0,0,0,128,0,0,0,0,0,136,137,0,128,129,137,0,0,0,201,0,0,195,193,0,0,0,0,136,137,0,0,0,0,0,163,0,142,0,0,0,0,0,0,0,0,0,0,0,0,0,0,199,0,0,128,0,0,0,0,0,0,0,0,136,137,0,0,0,0,0,0,0,0,201,0,0,0,128,129,0,0,0,0,0,0,0,0,142,0,0,0,0,0,0,0,0,0,0,0,0,0,0,0,0,0,136,0,0,0,478,479,0,0,0,0,0,0,0,0,163,0,0,478,479,0,0,0,0,136,137,0,0,0,0,0,0,0,0,0,0,0,154,0,0,0,0,0,0,0,0,0,0,0,0,0,0,128,0,0,0,486,487,0,0,0,0,0,0,0,0,0,0,0,486,487,0,0,163,0,0,0,0,0,0,0,0,0,0,0,149,149,149,0,0,0,0,0,0,0,0,0,904,0,0,0,0,0,136,0,0,0,502,503,0,0,0,0,0,0,149,149,0,0,0,502,503,0,0,0,0,0,0,0,0,642,643,0,0,0,0,0,0,0,0,0,0,0,0,0,196,0,0,0,0,0,0,0,0,0,0,0,0,494,508,0,0,0,135,0,0,149,149,0,0,0,509,495,0,0,0,0,0,0,0,0,650,651,0,167,0,0,0,0,0,0,0,0,0,0,0,204,0,0,0,0,0,0,0,0,0,0,0,0,494,0,135,135,0,0,0,0,0,0,0,0,252,0,495,0,0,0,0,0,0,153,153,658,659,0,0,0,0,0,172,0,172,0,0,0,0,162,162,162,0,0,0,0,0,0,0,128,0,0,0,502,0,0,135,0,0,0,0,0,0,0,149,0,0,503,0,0,0,0,0,0,0,0,0,0,0,0,0,0,0,172,0,173,0,0,0,0,0,0,0,0,0,0,0,0,0,0,136,0,0,0,510,0,0,0,294,53,294,53,294,228,294,149,0,0,511,0,154,0,0,0,0,0,0,0,0,0,0,0,0,0,172,0,180,0,0,0,0,0,0,0,0,0,0,0,0,0,0,0,0,0,0,478,479,0,0,302,61,302,61,302,236,302,0,0,478,479,0,0,0,0,0,0,0,0,0,0,0,0,0,0,0,180,0,0,0,0,0,0,0,0,0,0,0,0,0,0,0,0,0,0,0,0,486,487,0,0,0,0,0,0,0,244,0,0,0,486,487,0,0,0,0,0,0,77,77,117,117,117,0,0,0,0,0,0,0,0,0,0,0,0,0,0,0,196,0,0,0,0,0,128,0,0,0,502,503,0,0,0,0,0,294,0,0,0,0,0,502,503,0,0,0,0,0,0,0,0,0,0,0,0,0,0,0,0,0,0,0,0,0,0,0,0,0,0,204,0,0,0,0,0,136,0,0,0,494,495,55,0,0,0,0,302,0,0,0,0,55,196,495,0,0,0,283,0,0,0,0,0,0,0,0,0,0,0,42,0,0,0,0,0,0,0,0,0,0,0,0,0,0,0,0,0,0,0,0,494,495,63,0,0,0,0,0,0,0,0,0,63,204,495,0,0,0,0,0,0,0,0,0,0,0,0,0,0,0,0,0,0,0,134,0,0,0,0,0,0,0,0,0,0,0,0,0,0,0,0,502,642,643,199,0,0,0,68,0,0,0,0,0,502,503,0,0,0,0,0,0,0,0,128,129,0,0,0,0,133,0,0,0,0,0,0,0,0,0,0,0,199,0,0,0,0,0,0,0,0,0,510,650,651,320,0,0,0,0,0,0,0,320,0,510,511,0,0,0,0,0,0,0,0,136,128,129,0,0,0,0,0,0,0,0,0,0,0,0,0,0,0,0,0,0,0,0,0,128,0,0,0,162,658,659,328,0,0,0,0,0,0,0,328,0,0,0,0,0,0,0,0,0,0,0,154,136,137,0,0,0,0,0,0,0,0,196,0,0,0,0,0,0,0,0,0,0,0,0,136,0,0,0,0,0,0,0,642,643,0,163,0,0,0,0,0,0,0,0,283,0,0,0,193,195,0,0,0,0,0,0,0,0,0,0,207,0,204,0,0,0,0,0,0,0,0,0,0,0,0,0,0,0,0,0,0,0,0,650,651,0,0,0,163,0,0,0,0,0,0,0,0,0,0,201,0,0,0,0,0,0,0,0,0,0,0,0,0,0,0,0,0,0,0,0,0,0,0,0,0,0,0,0,0,0,0,0,0,0,658,659,0,0,0,0,0,0,0,0,163,0,0,0,0,0,0,0,0,0,0,0,0,0,0,0,0,0,0,0,0,0,0,0,0,0,0,0,0,0,0,0,0,0,0,0,0,0,0,0,0,0,276,0,0,0,0,0,0,320,0,0,0,320,0,0,163,0,0,149,0,0,0,0,0,0,0,0,0,0,0,0,0,0,0,0,0,0,0,0,0,54,0,0,0,0,128,129,0,128,129,0,0,0,283,0,0,128,129,0,328,141,141,141,328,0,0,0,0,0,0,0,0,0,0,0,54,0,0,0,0,0,0,0,0,54,0,0,0,0,128,129,62,0,128,129,0,136,137,0,136,137,128,129,0,0,0,0,136,137,0,0,0,0,0,0,0,0,0,0,0,0,0,0,154,0,0,62,0,0,0,0,0,0,0,0,62,0,0,0,0,136,137,0,0,136,137,0,154,0,0,0,0,136,137,0,149,149,0,0,0,0,0,0,0,0,0,0,0,0,0,0,154,0,0,0,0,0,0,0,904,896,897,897,898,904,0,0,0,0,0,0,0,0,0,0,0,0,628,629,0,0,0,0,154,0,0,0,0,0,0,0,0,0,0,160,163,0,0,0,0,0,0,0,0,0,0,0,0,0,0,0,0,0,0,0,0,0,0,0,0,0,0,0,0,128,129,0,0,636,637,478,479,0,0,0,0,0,0,0,0,0,478,479,0,0,0,0,0,0,0,478,479,0,0,0,0,0,0,0,0,0,478,479,0,0,0,0,0,0,0,0,0,478,479,0,136,137,0,0,0,0,486,487,0,0,0,0,0,0,0,0,0,486,487,0,0,0,0,0,0,0,486,487,0,0,0,0,0,0,0,0,0,486,487,0,0,0,0,0,0,0,0,0,486,487,0,0,0,0,0,0,0,494,495,0,53,0,0,53,0,0,53,0,494,495,141,141,0,0,0,141,141,494,495,0,53,0,0,53,0,0,53,0,494,495,0,53,0,0,53,0,0,53,0,494,495,0,0,0,0,0,0,0,502,503,0,128,129,642,643,128,129,61,0,502,503,0,0,0,0,0,0,0,502,503,0,61,128,129,61,0,128,129,0,502,503,0,61,0,0,61,0,0,61,0,502,503,0,0,0,0,0,0,128,129,511,0,136,137,650,651,136,137,0,128,129,511,0,0,0,0,0,0,0,510,511,0,0,136,128,129,0,136,137,0,510,128,129,0,0,0,0,0,0,0,0,128,129,0,154,0,0,0,0,136,137,0,0,154,0,658,659,0,0,0,136,137,0,0,0,0,0,0,0,0,0,0,0,0,0,136,137,154,0,0,0,0,136,137,128,129,0,0,0,0,0,0,136,128,129,0,0,128,129,0,0,0,0,0,0,0,0,0,0,0,0,0,193,195,0,0,0,0,0,0,0,193,0,195,0,0,0,0,0,0,0,0,0,0,0,136,137,0,128,129,0,0,0,0,136,137,0,0,136,137,0,0,0,0,0,0,0,0,0,0,0,0,0,201,0,0,0,0,0,0,0,0,201,0,0,0,0,0,0,193,0,0,0,0,0,0,0,0,0,136,137,154,128,129,0,0,0,128,129,0,0,0,0,0,0,0,0,195,0,0,193,0,0,0,0,0,0,0,0,0,163,0,0,0,0,0,0,0,0,0,201,0,0,195,0,0,0,0,0,0,0,0,0,136,137,0,0,0,136,137,0,0,0,0,0,0,0,0,0,0,0,0,0,0,0,0,0,0,0,0,0,0,0,0,0,0,0,0,0,0,0,0,0,0,5,0,0,0,0,0,5,0,0,0,0,0,0,0,0,0,0,0,0,0,0,0,0,15,0,0,0,0,0,0,0,0,0,0,0,0,0,0,0,0,0,0,0,0,0,0,0,0,0,0,0,5,0,5,0,0,0,5,0,0,0,0,0,0,0,0,0,0,0,0,0,0,0,2,0,0,0,0,0,0,0,0,0,0,0,0,0,0,0,0,0,0,0,0,0,0,0,0,0,0,0,0,5,0,5,0,0,0,5,0,0,0,0,0,0,0,0,0,0,0,0,0,0,0,0,0,0,0,0,0,0,0,0,0,0,0,0,0,0,0,0,0,0,0,0,0,0,0,0,0,0,0,0,5,0,13,12,4,0,5,0,0,0,0,0,0,0,0,0,0,0,0,0,0,0,0,0,0,0,0,0,0,0,0,0,0,0,0,0,0,0,0,0,0,0,0,0,0,0,0,0,0,0,0,5,0,14,15,5,0,5,0,0,0,0,0,0,0,0,0,0,0,0,0,0,0,0,0,5,0,0,0,0,0,0,0,0,0,0,0,0,0,0,0,0,0,0,0,0,0,0,0,0,0,0,0,0,5,0,0,0,5,0,0,0,0,0,0,0,0,0,0,0,0,0,0,0,0,0,5,0,0,0,0,0,0,0,0,0,0,0,0,0,0,0,0,0,0,0,0,0,0,0,0,0,0,0,0,5,0,0,0,5,0,0,0,0,0,0,0,0,0,0,0,0,0,0,0,0,0,5,0,0,0,0,0,0,0,0,0,0,0,0,0,0,0,0,0,0,0,0,0,0,0,0,0,0,0,0,5,0,0,0,5,0,0,0,0,0,0,0,0,0,0,0,0,0,0,0,0,0,5,0,0,0,0,0,0,0,0,0,0,0,0,0,0,0,0,0,0,0,5,0,0,0,0,0,0,0,0,0,0,0,5,0,0,0,0,0,0,0,0,0,0,0,0,0,0,0,0,0,0,0,0,0,0,0,0,0,0,0,0,0,0,0,0,0,0,0,0,0,0,5,0,0,0,0,0,0,0,0,0,5,0,0,0,0,0,0,0,0,0,0,0,0,0,0,0,0,0,0,0,0,0,0,0,0,0,0,0,0,0,5,0,0,0,0,0,0,0,5,0,0,0,0,0,0,0,0,0,0,0,0,5,0,0,0,0,0,0,0,0,0,0,0,15,0,0,0,0,0,0,0,0,0,0,0,0,0,0,0,0,0,0,0,0,0,0,0,0,0,5,0,0,0,0,0,0,0,0,0,0,0,0,5,0,0,0,0,0,0,0,0,0,0,0,0,0,0,5,0,5,0,0,0,0,0,0,0,0,0,0,0,0,0,0,0,0,5,0,0,0,5,0,0,0,0,0,0,0,0,0,0,0,0,5,0,0,0,0,0,0,0,0,0,0,0,0,0,0,5,0,5,0,0,0,0,0,0,0,0,0,0,0,0,0,0,0,0,5,0,0,0,5,0,0,0,0,0,5,0,0,0,0,0,0,0,0,0,0,0,0,0,0,0,0,0,0,0,0,0,5,0,5,0,0,0,0,0,0,0,0,0,0,0,0,0,0,0,0,0,0,0,0,0,0,0,0,5,0,0,0,0,0,0,0,0,0,0,0,0,0,0,0,0,0,0,0,0,0,0,0,5,0,5,0,0,0,0,0,0,0,0,0,0,0,0,0,0,0,0,0,0,0,0,0,0,5,0,0,0,0,0,0,0,0,0,0,0,0,0,0,0,0,0,0,0,0,0,0,0,0,0,5,0,5,0,0,0,5,0,0,0,0,0,0,0,0,0,0,0,0,0,0,0,0,0,5,0,0,0,0,0,0,0,0,0,0,0,0,0,0,0,0,0,0,0,0,0,0,0,0,0,0,5,0,5,0,0,5,0,0,0,0,0,0,0,0,0,0,0,0,0,0,0,0,0,5,0,0,0,0,0,0,0,0,0,0,0,0,0,0,0,0,0,0,0,0,0,0,0,0,0,0,0,5,0,5,0,0,5,0,0,0,0,0,0,0,0,0,0,0,0,0,0,0,0,0,0,0,0,0,0,0,0,0,0,0,0,0,0,0,0,0,0,0,0,0,0,0,0,0,0,0,0,0,5,0,5,0,5,0,0,0,0,0,12,12,12,0,0,0,0,0,0,0,0,0,0,0,0,0,0,0,0,0,0,0,0,0,0,0,0,0,0,0,0,0,0,0,0,0,0,0,0,0,0,5,0,5,5,0,0,15,5,0,0,0,0,0,0,0,0,0,0,0,0,0,0,0,0,0,0,0,0,0,0,0,0,0,0,0,0,0,0,0,0,0,0,0,0,0,5,0,0,5,0,0,5,0,5,5,0,14,0,0,0,0,0,0,0,0,0,5,0,0,5,0,0,0,0,0,0,0,0,0,0,0,0,0,0,0,0,0,0,0,0,0,0,0,0,0,0,5,0,0,5,0,0,5,0,5,5,0,0,0,0,0,0,0,0,0,0,0,5,0,0,5,0,0,0,0,0,0,0,0,0,0,0,0,0,0,0,0,0,0,0,0,0,0,5,0,0,0,0,0,0,5,0,0,5,0,5,0,0,0,0,0,0,0,0,0,0,0,0,5,0,0,5,12,12,0,0,0,0,0,0,0,0,0,0,0,0,0,0,0,0,0,5,0,0,5,0,0,0,0,0,0,5,0,0,5,0,5,0,5,0,0,0,0,0,0,0,0,0,0,5,0,0,5,3,3,0,0,0,0,0,0,0,0,0,0,0,0,0,0,0,0,0,5,0,0,5,0,0,0,0,0,0,5,0,0,5,0,0,0,5,0,0,0,0,0,0,0,0,0,0,5,0,0,5,0,0,0,0,0,0,0,0,0,0,0,0,0,0,0,0,0,0,0,5,0,0,5,0,0,0,0,0,0,5,0,0,5,0,0,5,5,0,0,0,0,0,0,0,0,0,0,0,0,0,1,0,0,0,0,0,0,5,0,0,0,0,0,0,0,0,0,0,0,0,5,0,0,5,0,0,0,0,0,0,5,0,0,5,0,0,5,5,0,5,0,0,0,0,0,0,0,0,0,0,0,5,0,0,0,0,0,0,5,0,0,0,0,0,0,0,0,0,0,0,0,5,0,0,5,0,0,0,0,0,0,5,0,0,5,0,0,5,5,0,5,0,0,0,0,0,0,0,0,0,0,0,5,0,0,0,0,0,0,0,0,0,0,0,0,0,0,0,0,0,0,0,5,0,0,5,0,0,0,0,0,0,5,0,0,5,0,0,5,5,0,5,0,0,0,0,0,0,0,0,0,0,0,5,0,0,0,0,0,0,0,0,0,0,0,0,5,0,0,0,0,0,0,5,0,0,5,0,0,0,0,0,0,5,0,0,5,0,0,5,5,0,5,0,0,0,0,0,0,0,0,0,0,0,5,12,12,0,0,0,0,0,0,0,0,0,0,5,0,0,0,0,0,0,0,0,0,5,0,0,0,0,0,0,5,0,0,5,0,0,5,5,3,0,0,0,0,5,0,0,0,0,5,0,0,3,3,3,0,0,0,0,0,0,0,0,0,0,5,0,0,0,0,0,0,0,0,0,5,0,0,0,0,0,0,5,0,0,5,0,0,5,1,0,0,0,4,0,0,0,0,0,0,0,4,0,0,0,0,0,0,0,0,0,0,0,0,0,0,5,0,0,0,0,0,0,0,0,0,5,0,0,5,0,0,0,0,0,0,5,0,0,5,0,0,0,0,0,0,0,0,0,0,0,0,0,0,0,0,0,0,0,0,0,0,0,0,0,0,0,5,0,0,5,0,0,0,0,0,0,5,0,0,5,0,0,0,0,0,0,5,0,0,5,0,0,0,0,0,0,0,0,0,0,0,0,0,0,0,0,0,0,0,0,0,0,0,0,0,0,0,5,0,0,0,0,0,0,0,0,0,0,0,0,5,0,0,0,0,0,0,5,0,0,0,0,0,0,0,0,0,0,0,0,0,0,0,0,0,0,0,0,0,0,0,0,0,0,0,0,0,0,5,0,0,0,0,0,0,0,0,0,0,0,0,5,0,0,0,0,0,0,5,0,0,0,0,5,0,0,0,0,0,0,0,0,0,0,0,0,0,0,0,0,0,0,0,0,0,0,0,0,0,0,0,0,0,0,0,0,0,0,0,0,0,0,5,0,0,0,0,0,0,5,0,0,0,0,5,0,0,0,5,0,0,0,0,0,0,0,4,0,0,0,4,0,0,0,0,0,0,0,0,0,0,0,0,0,5,0,0,0,0,0,0,0,0,5,0,0,0,0,0,0,5,0,0,0,0,5,0,0,0,0,0,0,0,0,0,0,0,0,0,0,0,0,0,0,0,0,0,0,0,0,0,0,0,0,0,5,0,0,0,0,0,0,0,0,5,0,5,0,0,0,0,1,0,0,0,0,5,0,0,0,0,5,0,0,0,0,0,0,0,0,0,0,0,0,0,0,0,0,0,0,0,0,0,0,0,0,0,0,0,0,0,0,0,0,0,0,0,5,0,0,0,0,0,0,0,0,0,5,0,0,0,0,0,0,0,0,0,0,0,0,0,0,0,0,0,0,0,0,0,0,0,0,0,0,0,0,0,0,0,0,0,0,0,0,0,0,0,0,5,0,0,0,0,0,0,0,0,0,0,0,0,0,0,0,0,0,0,0,0,0,0,0,0,0,0,0,0,0,0,0,0,0,0,0,0,0,0,0,0,0,0,0,0,0,0,0,0,0,0,0,0,0,0,0,0,0,0,5,8,0,0,0,0,0,0,0,0,0,0,0,15,0,5,0,0,0,0,0,0,0,0,0,0,0,0,0,0,0,0,0,0,0,0,0,0,0,0,0,0,0,0,0,0,0,0,0,0,0,5,10,5,0,0,0,0,0,0,0,0,0,5,15,0,5,0,0,0,0,5,0,5,0,0,0,0,0,0,0,0,0,5,5,0,0,0,0,0,0,0,0,0,0,0,0,0,0,0,0,0,5,0,5,0,0,0,0,0,0,0,0,0,5,15,0,5,0,0,0,0,5,0,5,0,0,0,0,0,0,0,0,0,5,5,0,0,0,0,0,0,0,0,0,0,15,5,0,0,0,0,0,0,0,0,0,0,0,0,0,0,0,0,8,0,0,0,5,0,0,0,0,8,4,0,0,0,0,0,0,0,0,0,0,0,0,0,0,0,0,0,0,0,0,0,0,0,0,0,0,0,0,0,0,0,0,0,0,0,0,0,0,0,0,0,0,0,0,5,0,0,0,0,0,0,0,0,0,0,0,0,0,0,0,0,0,0,0,0,0,0,0,0,0,0,0,0,0,0,0,0,0,0,0,0,0,0,0,0,0,0,0,0,0,0,0,0,0,0,5,0,0,0,0,0,0,0,0,0,0,0,0,0,0,0,0,0,0,0,0,0,0,0,0,0,0,0,0,0,0,0,0,0,0,0,0,0,0,0,0,0,0,0,0,0,0,0,0,0,5,0,0,0,0,0,0,0,0,0,0,0,0,0,0,0,0,0,0,0,0,0,0,0,0,0,0,0,0,0,0,0,0,0,0,0,0,0,0,0,0,0,0,0,0,0,0,5,0,0,0,0,0,0,0,0,0,0,0,0,0,0,0,0,0,0,0,0,0,0,0,0,0,0,0,0,0,0,0,0,0,0,0,0,0,0,0,0,0,0,0,0,0,0,0,0,0,0,0,0,0,0,0,0,0,0,0,0,0,0,0,0,10,0,0,0,0,10,0,0,0,0,0,10,0,0,0,0,0,0,0,0,10,0,0,0,0,0,0,0,0,10,10,10,10,10,10,10,10,10,10,10,10,10,10,10,10,10,10,10,10,10,10,10,0,0,0,0,10,10,0,0,0,0,10,0,0,0,0,0,0,0,0,10,0,0,0,0,0,0,0,0,10,0,0,0,0,0,0,0,0,0,0,0,0,0,0,0,0,0,0,0,0,0,0,0,0,0,0,0,0,10,0,0,0,10,0,0,0,0,0,0,0,0,10,0,0,0,0,0,0,0,0,10,0,0,0,0,0,0,0,0,0,0,0,0,0,0,0,0,0,0,0,0,0,0,0,0,0,0,0,0,10,0,0,0,10,0,0,0,0,0,0,0,0,10,0,0,0,0,0,0,0,0,10,0,0,0,0,0,0,0,0,0,0,0,0,0,0,0,0,0,0,0,0,0,0,0,0,0,0,0,0,10,0,0,0,10,0,0,0,0,0,0,0,0,10,0,0,0,0,0,0,0,0,10,0,0,0,0,0,0,0,0,0,0,0,0,0,0,0,0,0,0,0,0,0,0,0,0,0,0,0,0,10,0,0,10,10,0,0,0,0,0,0,0,0,10,0,0,0,0,0,0,0,0,10,0,24,24,24,24,24,24,24,24,24,24,24,24,0,0,0,0,0,0,0,0,0,0,0,0,0,0,0,0,10,10,10,0,0,0,0,0,0,0,0,0,10,0,0,0,0,0,0,0,0,10,0,0,0,0,0,0,0,0,0,0,0,0,0,0,0,0,0,0,0,0,0,0,0,0,0,0,0,0,0,10,0,0,0,0,0,0,0,0,0,0,10,10,0,0,0,0,0,0,0,0,10,0,0,0,0,0,0,0,0,0,0,0,0,0,0,0,0,0,0,0,0,0,0,0,0,0,0,0,0,0,10,0,0,0,0,0,0,0,0,0,10,10,0,0,0,0,0,0,0,0,0,10,0,0,0,0,0,0,0,0,0,0,0,0,0,0,0,0,0,0,0,0,0,0,0,0,0,0,0,0,0,10,0,0,0,0,0,0,0,0,10,10,0,0,0,0,0,0,0,0,0,0,0,0,0,0,0,0,0,0,0,0,0,0,0,0,0,0,0,0,0,0,0,0,0,0,0,0,0,0,0,0,10,0,0,0,0,0,0,0,0,10,0,0,0,10,10,10,0,0,0,0,0,0,0,0,0,0,0,0,0,0,0,0,0,0,0,0,0,0,0,0,0,0,0,0,0,0,0,0,0,0,0,0,0,0,0,0,0,0,0,0,10,0,0,0,0,0,10,0,0,0,0,0,0,0,0,0,0,0,0,0,0,0,0,0,0,0,0,0,0,0,0,0,0,0,0,0,0,0,0,0,0,0,0,0,0,0,0,0,0,0,0,10,0,0,10,0,0,10,0,0,0,0,0,10,10,10,10,10,10,10,10,0,0,0,0,0,0,10,0,0,0,0,0,0,0,0,0,0,0,0,0,0,0,0,0,0,0,0,0,0,0,0,10,0,0,10,0,0,10,0,0,0,0,10,10,0,0,0,0,0,0,10,10,10,10,10,10,0,0,0,0,0,0,0,0,0,0,0,0,0,0,0,0,0,0,0,0,0,0,0,0,0,0,10,0,0,10,0,0,10,0,0,0,0,10,0,0,0,0,0,0,0,0,0,0,0,0,10,0,0,0,0,0,0,0,0,0,0,0,0,0,0,0,0,0,0,0,0,0,0,0,0,0,10,10,0,0,10,10,10,10,0,0,0,10,10,0,0,0,0,0,0,0,0,0,0,0,0,0,0,0,0,0,0,0,0,0,0,0,0,0,0,0,0,0,0,0,0,0,0,0,0,10,10,10,0,0,0,0,0,0,10,0,0,10,10,0,0,0,0,0,0,0,0,0,0,0,0,0,0,0,0,0,0,0,0,0,0,0,0,0,0,0,0,0,0,0,0,0,0,0,0,0,10,0,0,0,0,0,0,0,0,10,0,0,10,0,0,0,0,0,0,0,0,0,0,0,0,0,0,0,0,0,0,0,0,0,0,0,0,0,0,0,0,0,0,0,0,0,0,0,0,0,10,10,0,0,0,0,0,0,0,0,10,0,0,10,0,0,0,0,0,10,10,0,0,0,10,10,0,0,0,0,0,0,0,0,0,0,0,0,0,0,0,0,0,10,10,10,10,10,10,10,10,10,10,10,10,10,0,10,10,0,0,10,0,0,10,0,0,0,10,10,10,0,10,10,0,0,10,10,10,0,0,0,0,0,0,0,0,0,0,0,0,0,0,0,10,0,0,0,0,0,0,0,10,0,0,0,0,0,0,10,0,0,10,0,0,10,0,0,0,0,0,10,0,0,0,0,0,10,0,0,0,0,0,0,0,0,0,0,0,10,10,10,0,0,0,10,0,0,0,0,0,0,0,10,0,0,0,0,0,0,10,0,0,10,0,0,10,0,0,0,0,0,10,0,0,0,0,0,10,0,0,10,0,0,0,0,0,0,10,10,10,0,10,10,10,10,10,10,10,10,10,10,0,0,10,0,0,0,0,0,0,10,0,0,10,0,0,10,10,0,0,0,0,10,10,10,10,10,0,10,0,0,10,0,0,0,0,0,10,10,10,10,10,0,0,0,0,10,10,0,0,0,10,0,0,10,0,0,0,0,0,0,10,0,0,10,0,0,0,10,0,0,0,0,0,0,0,0,0,0,0,0,0,10,0,0,0,0,0,10,10,0,0,0,0,0,0,0,10,10,0,0,0,10,0,0,10,0,0,10,10,10,10,10,0,0,10,0,0,10,10,0,0,0,0,0,0,0,0,0,0,0,0,0,0,0,0,0,0,10,10,10,0,0,0,0,0,0,0,10,10,0,0,0,10,0,0,10,0,0,10,10,10,10,10,0,0,10,0,0,10,10,0,0,0,0,0,0,0,0,0,0,0,0,0,0,0,0,0,0,10,0,10,0,0,0,0,0,0,0,10,10,10,10,10,10,0,0,10,0,0,0,0,0,0,10,0,0,10,0,0,10,10,0,0,0,0,0,0,0,0,0,0,0,0,0,0,0,0,0,10,10,0,10,0,0,0,0,0,0,0,10,0,0,0,0,0,0,0,10,0,0,0,0,0,0,10,0,0,10,0,0,10,10,0,0,0,0,0,0,0,0,0,0,0,0,0,0,0,0,0,10,0,0,10,10,10,10,10,10,10,0,10,0,0,0,0,0,0,0,10,0,0,0,0,0,0,10,0,0,10,0,0,10,10,0,0,0,0,0,0,0,0,0,0,0,0,0,0,0,0,0,10,0,0,0,0,0,0,0,0,10,0,10,0,0,0,0,0,0,0,10,0,0,10,10,10,10,10,0,0,10,0,0,10,10,0,0,0,0,0,0,0,0,0,0,0,0,0,0,0,10,10,10,10,0,0,0,0,0,0,0,10,0,10,0,0,0,0,0,0,0,10,0,0,10,0,0,0,0,0,0,10,0,0,10,10,0,0,0,0,0,0,0,0,0,0,0,0,0,0,0,0,0,0,10,0,0,0,0,0,0,0,10,0,10,0,0,10,10,10,10,10,10,0,0,10,0,0,0,0,0,0,10,0,0,10,10,0,0,0,0,0,0,0,0,0,0,0,0,0,0,0,0,0,0,10,0,0,0,0,0,0,0,10,0,0,0,0,0,0,0,0,0,0,0,0,10,0,0,0,0,0,0,10,0,0,10,0,10,0,0,0,0,0,0,0,0,0,0,0,0,0,0,0,0,0,0,10,0,0,10,10,0,0,10,0,0,0,0,0,0,0,0,0,0,0,0,10,0,0,0,0,0,0,10,0,0,10,0,10,10,0,0,0,0,0,0,0,0,0,0,0,0,0,0,0,0,0,0,0,0,0,10,0,0,10,0,0,0,0,0,0,0,0,0,0,0,0,10,0,0,0,0,0,0,10,0,0,10,10,10,10,10,10,0,0,0,0,0,0,0,0,0,0,0,0,0,0,0,0,0,0,0,10,0,0,10,0,0,0,0,0,0,0,0,0,0,0,0,10,0,10,10,10,10,10,10,0,0,0,0,10,0,0,10,10,0,0,0,0,0,0,0,0,0,0,0,0,0,0,0,0,0,0,10,0,0,10,10,10,10,10,0,0,0,0,10,10,10,10,10,0,10,0,0,0,0,0,0,0,0,0,10,0,0,0,10,0,0,0,0,0,0,0,0,0,0,0,0,0,0,0,10,10,10,10,0,0,0,0,0,0,0,0,0,0,0,0,0,0,0,0,0,10,0,0,0,0,0,0,0,0,0,10,0,0,0,10,10,0,0,0,0,0,0,0,0,0,0,0,0,0,10,10,0,0,0,0,0,0,0,0,0,0,0,0,0,0,0,0,0,0,0,0,10,0,0,0,0,0,0,0,0,0,10,0,0,0,0,10,0,0,0,0,0,0,0,0,0,0,0,0,10,10,0,0,0,0,0,0,0,0,0,0,0,0,0,0,0,0,0,0,0,0,0,10,0,0,0,0,0,0,0,0,0,10,0,0,0,0,10,10,10,10,10,10,10,10,0,0,0,0,10,10,0,0,0,0,0,0,0,0,0,0,0,0,0,0,0,0,0,0,0,0,0,0,10,0,0,0,0,0,0,0,0,0,0,10,10,10,10,10,10,10,10,10,0,0,0,10,0,0,0,10,0,0,10,10,10,10,10,10,10,10,10,10,10,10,10,10,10,10,10,10,10,10,10,0,0,0,0,0,0,0,0,0,0,0,10,10,10,10,10,10,10,10,10,0,0,0,10,0,0,0,10,0,0,0,10,10,10,10,10,10,10,10,10,0,0,10,10,10,10,10,10,10,10,10,0,0,0,0,0,0,0,0,0,0,0,0,0,0,0,0,0,0,0,0,0,0,0,10,0,0,0,10,0,0,0,0,0,0,0,0,0,0,0,0,0,0,0,0,0,0,0,0,0,0,0,0,0,0,0,0,0,0,0,0,0,0,0,0,0,0,0,0,0,0,0,0,0,0,10,0,0,0,10,0,0,0,0,0,0,0,0,0,0,0,0,0,0,0,0,0,0,0,0,0,0,0,0,0,0,0,0,0,0,0,0,0,0,0,0,0,0,0,0,0,0,0,0,0,10,10,0,0,0,10,0,0,0,0,0,0,0,0,0,0,0,0,0,0,0,0,0,0,0,0,0,0,0,0,0,0,0,0,0,0,0,0,0,0,0,0,0,0,0,0,0,0,0,0,0,10,0,0,0,0,0,10,0,0,0,0,0,0,0,0,0,0,0,0,0,0,0,0,0,0,0,0,0,0,0,0,0,0,0,0,0,0,0,0,0,0,0,0,0,0,0,0,0,0,0,0,0,0,0,0,0,0,0,0,0,0,0,0,0,0,0,0,0,0,0,0,0,0,0,0,0,0,0,0,0,0,0,0,0,0,0,0,0,0,0,0,0,0,0,0,0,0,0,0,0,0,0,0,0,0,0,0,0,0,0,0,0,0,0,0,0,0,0,0,0,0,0,0,0,0,0,0,0,0,0,0,0,0,0,0,0,0,0,0,0,0,0,0,0,0,0,0,0,0,0,0,0,0,0,0,0,0,0,0,0,0,0,0,0,0,0,0,0,0,0,0,0,0,0,0,10,0,0,0,0,0,0,0,0,0,0,0,0,0],
"events":[
null,
{"id":1,"name":"EV001","note":"","pages":[{"conditions":{"actorId":1,"actorValid":false,"itemId":1,"itemValid":false,"selfSwitchCh":"A","selfSwitchValid":false,"switch1Id":1,"switch1Valid":false,"switch2Id":1,"switch2Valid":false,"variableId":1,"variableValid":false,"variableValue":0},"directionFix":false,"image":{"tileId":0,"characterName":"$BigMonster22","direction":6,"pattern":2,"characterIndex":0},"list":[{"code":0,"indent":0,"parameters":[]}],"moveFrequency":3,"moveRoute":{"list":[{"code":0,"parameters":[]}],"repeat":true,"skippable":false,"wait":false},"moveSpeed":3,"moveType":0,"priorityType":1,"stepAnime":false,"through":false,"trigger":0,"walkAnime":true}],"x":7,"y":6},
{"id":2,"name":"EV002","note":"","pages":[{"conditions":{"actorId":1,"actorValid":false,"itemId":1,"itemValid":false,"selfSwitchCh":"A","selfSwitchValid":false,"switch1Id":1,"switch1Valid":false,"switch2Id":1,"switch2Valid":false,"variableId":1,"variableValid":false,"variableValue":0},"directionFix":false,"image":{"tileId":0,"characterName":"$BigMonster22","direction":6,"pattern":2,"characterIndex":0},"list":[{"code":0,"indent":0,"parameters":[]}],"moveFrequency":3,"moveRoute":{"list":[{"code":0,"parameters":[]}],"repeat":true,"skippable":false,"wait":false},"moveSpeed":3,"moveType":0,"priorityType":1,"stepAnime":false,"through":false,"trigger":0,"walkAnime":true}],"x":10,"y":6},
{"id":3,"name":"EV003","note":"","pages":[{"conditions":{"actorId":1,"actorValid":false,"itemId":1,"itemValid":false,"selfSwitchCh":"A","selfSwitchValid":false,"switch1Id":1,"switch1Valid":false,"switch2Id":1,"switch2Valid":false,"variableId":1,"variableValid":false,"variableValue":0},"directionFix":false,"image":{"characterIndex":0,"characterName":"","direction":2,"pattern":0,"tileId":0},"list":[{"code":201,"indent":0,"parameters":[0,27,50,23,0,0]},{"code":0,"indent":0,"parameters":[]}],"moveFrequency":3,"moveRoute":{"list":[{"code":0,"parameters":[]}],"repeat":true,"skippable":false,"wait":false},"moveSpeed":3,"moveType":0,"priorityType":0,"stepAnime":false,"through":false,"trigger":1,"walkAnime":true}],"x":18,"y":49},
{"id":4,"name":"EV004","note":"","pages":[{"conditions":{"actorId":1,"actorValid":false,"itemId":1,"itemValid":false,"selfSwitchCh":"A","selfSwitchValid":false,"switch1Id":1,"switch1Valid":false,"switch2Id":1,"switch2Valid":false,"variableId":1,"variableValid":false,"variableValue":0},"directionFix":false,"image":{"tileId":0,"characterName":"$BigMonster22","direction":6,"pattern":2,"characterIndex":0},"list":[{"code":0,"indent":0,"parameters":[]}],"moveFrequency":3,"moveRoute":{"list":[{"code":0,"parameters":[]}],"repeat":true,"skippable":false,"wait":false},"moveSpeed":3,"moveType":0,"priorityType":1,"stepAnime":false,"through":false,"trigger":0,"walkAnime":true}],"x":13,"y":6},
{"id":5,"name":"EV005","note":"","pages":[{"conditions":{"actorId":1,"actorValid":false,"itemId":1,"itemValid":false,"selfSwitchCh":"A","selfSwitchValid":false,"switch1Id":1,"switch1Valid":false,"switch2Id":1,"switch2Valid":false,"variableId":1,"variableValid":false,"variableValue":0},"directionFix":false,"image":{"tileId":0,"characterName":"$BigMonster22","direction":6,"pattern":2,"characterIndex":0},"list":[{"code":0,"indent":0,"parameters":[]}],"moveFrequency":3,"moveRoute":{"list":[{"code":0,"parameters":[]}],"repeat":true,"skippable":false,"wait":false},"moveSpeed":3,"moveType":0,"priorityType":1,"stepAnime":false,"through":false,"trigger":0,"walkAnime":true}],"x":16,"y":6},
{"id":6,"name":"EV006","note":"","pages":[{"conditions":{"actorId":1,"actorValid":false,"itemId":1,"itemValid":false,"selfSwitchCh":"A","selfSwitchValid":false,"switch1Id":1,"switch1Valid":false,"switch2Id":1,"switch2Valid":false,"variableId":1,"variableValid":false,"variableValue":0},"directionFix":false,"image":{"characterIndex":0,"characterName":"","direction":2,"pattern":0,"tileId":0},"list":[{"code":201,"indent":0,"parameters":[0,27,50,23,0,0]},{"code":0,"indent":0,"parameters":[]}],"moveFrequency":3,"moveRoute":{"list":[{"code":0,"parameters":[]}],"repeat":true,"skippable":false,"wait":false},"moveSpeed":3,"moveType":0,"priorityType":0,"stepAnime":false,"through":false,"trigger":1,"walkAnime":true}],"x":17,"y":49},
{"id":7,"name":"EV007","note":"","pages":[{"conditions":{"actorId":1,"actorValid":false,"itemId":1,"itemValid":false,"selfSwitchCh":"A","selfSwitchValid":false,"switch1Id":1,"switch1Valid":false,"switch2Id":1,"switch2Valid":false,"variableId":1,"variableValid":false,"variableValue":0},"directionFix":false,"image":{"characterIndex":0,"characterName":"","direction":2,"pattern":0,"tileId":0},"list":[{"code":201,"indent":0,"parameters":[0,27,50,23,0,0]},{"code":0,"indent":0,"parameters":[]}],"moveFrequency":3,"moveRoute":{"list":[{"code":0,"parameters":[]}],"repeat":true,"skippable":false,"wait":false},"moveSpeed":3,"moveType":0,"priorityType":0,"stepAnime":false,"through":false,"trigger":1,"walkAnime":true}],"x":19,"y":49},
{"id":8,"name":"EV008","note":"","pages":[{"conditions":{"actorId":1,"actorValid":false,"itemId":1,"itemValid":false,"selfSwitchCh":"A","selfSwitchValid":false,"switch1Id":357,"switch1Valid":false,"switch2Id":1,"switch2Valid":false,"variableId":183,"variableValid":true,"variableValue":1},"directionFix":false,"image":{"tileId":69,"characterName":"","characterIndex":0,"direction":2,"pattern":0},"list":[{"code":0,"indent":0,"parameters":[]}],"moveFrequency":3,"moveRoute":{"list":[{"code":0,"parameters":[]}],"repeat":true,"skippable":false,"wait":false},"moveSpeed":3,"moveType":0,"priorityType":1,"stepAnime":false,"through":false,"trigger":0,"walkAnime":true}],"x":10,"y":29},
{"id":9,"name":"EV009","note":"","pages":[{"conditions":{"actorId":1,"actorValid":false,"itemId":1,"itemValid":false,"selfSwitchCh":"A","selfSwitchValid":false,"switch1Id":1,"switch1Valid":false,"switch2Id":1,"switch2Valid":false,"variableId":1,"variableValid":false,"variableValue":0},"directionFix":false,"image":{"tileId":0,"characterName":"!Door1","direction":2,"pattern":1,"characterIndex":6},"list":[{"code":101,"indent":0,"parameters":["Chanel",1,0,2]},{"code":401,"indent":0,"parameters":["Trancada.\\. Não tem como arrombar.\\. A gente vai precisar de uma chave."]},{"code":101,"indent":0,"parameters":["Denso_Faces",0,0,2]},{"code":401,"indent":0,"parameters":["Barbosa?"]},{"code":101,"indent":0,"parameters":["Barbosa_Faces",4,0,2]},{"code":401,"indent":0,"parameters":["Chave\\. vai precisar de uma chave."]},{"code":101,"indent":0,"parameters":["Bon Jovi_Faces",0,0,2]},{"code":401,"indent":0,"parameters":["Vocês dois são inúteis."]},{"code":356,"indent":0,"parameters":["Quest NextStep 48"]},{"code":356,"indent":0,"parameters":["GabText Missão atualizada: Caravana"]},{"code":356,"indent":0,"parameters":["ShowGab"]},{"code":122,"indent":0,"parameters":[182,182,0,0,1]},{"code":123,"indent":0,"parameters":["A",0]},{"code":0,"indent":0,"parameters":[]}],"moveFrequency":3,"moveRoute":{"list":[{"code":0,"parameters":[]}],"repeat":true,"skippable":false,"wait":false},"moveSpeed":3,"moveType":0,"priorityType":1,"stepAnime":false,"through":false,"trigger":0,"walkAnime":true},{"conditions":{"actorId":1,"actorValid":false,"itemId":1,"itemValid":false,"selfSwitchCh":"A","selfSwitchValid":true,"switch1Id":1,"switch1Valid":false,"switch2Id":1,"switch2Valid":false,"variableId":185,"variableValid":false,"variableValue":4},"directionFix":false,"image":{"tileId":0,"characterName":"!Door1","direction":2,"pattern":1,"characterIndex":6},"list":[{"code":0,"indent":0,"parameters":[]}],"moveFrequency":3,"moveRoute":{"list":[{"code":0,"parameters":[]}],"repeat":true,"skippable":false,"wait":false},"moveSpeed":3,"moveType":0,"priorityType":1,"stepAnime":false,"through":false,"trigger":0,"walkAnime":true},{"conditions":{"actorId":1,"actorValid":false,"itemId":1,"itemValid":false,"selfSwitchCh":"A","selfSwitchValid":false,"switch1Id":1,"switch1Valid":false,"switch2Id":1,"switch2Valid":false,"variableId":185,"variableValid":true,"variableValue":4},"directionFix":false,"image":{"tileId":0,"characterName":"!Door1","direction":2,"pattern":1,"characterIndex":6},"list":[{"code":250,"indent":0,"parameters":[{"name":"Door7","volume":90,"pitch":100,"pan":0}]},{"code":205,"indent":0,"parameters":[0,{"list":[{"code":17,"indent":null},{"code":15,"parameters":[15],"indent":null},{"code":18,"indent":null},{"code":15,"parameters":[15],"indent":null},{"code":19,"indent":null},{"code":15,"parameters":[15],"indent":null},{"code":0}],"repeat":false,"skippable":false,"wait":true}]},{"code":505,"indent":0,"parameters":[{"code":17,"indent":null}]},{"code":505,"indent":0,"parameters":[{"code":15,"parameters":[15],"indent":null}]},{"code":505,"indent":0,"parameters":[{"code":18,"indent":null}]},{"code":505,"indent":0,"parameters":[{"code":15,"parameters":[15],"indent":null}]},{"code":505,"indent":0,"parameters":[{"code":19,"indent":null}]},{"code":505,"indent":0,"parameters":[{"code":15,"parameters":[15],"indent":null}]},{"code":356,"indent":0,"parameters":["Quest NextStep 48"]},{"code":356,"indent":0,"parameters":["GabText Missão atualizada: Caravana"]},{"code":356,"indent":0,"parameters":["ShowGab"]},{"code":122,"indent":0,"parameters":[183,183,0,0,1]},{"code":0,"indent":0,"parameters":[]}],"moveFrequency":3,"moveRoute":{"list":[{"code":0,"parameters":[]}],"repeat":true,"skippable":false,"wait":false},"moveSpeed":3,"moveType":0,"priorityType":1,"stepAnime":false,"through":false,"trigger":0,"walkAnime":true},{"conditions":{"actorId":1,"actorValid":false,"itemId":1,"itemValid":false,"selfSwitchCh":"A","selfSwitchValid":false,"switch1Id":357,"switch1Valid":false,"switch2Id":1,"switch2Valid":false,"variableId":183,"variableValid":true,"variableValue":1},"directionFix":false,"image":{"characterIndex":0,"characterName":"","direction":2,"pattern":0,"tileId":0},"list":[{"code":201,"indent":0,"parameters":[0,176,7,13,0,0]},{"code":0,"indent":0,"parameters":[]}],"moveFrequency":3,"moveRoute":{"list":[{"code":0,"parameters":[]}],"repeat":true,"skippable":false,"wait":false},"moveSpeed":3,"moveType":0,"priorityType":0,"stepAnime":false,"through":false,"trigger":1,"walkAnime":true}],"x":10,"y":30},
{"id":10,"name":"EV010","note":"","pages":[{"conditions":{"actorId":1,"actorValid":false,"itemId":1,"itemValid":false,"selfSwitchCh":"A","selfSwitchValid":false,"switch1Id":1,"switch1Valid":false,"switch2Id":1,"switch2Valid":false,"variableId":1,"variableValid":false,"variableValue":0},"directionFix":false,"image":{"characterIndex":0,"characterName":"","direction":2,"pattern":0,"tileId":0},"list":[{"code":101,"indent":0,"parameters":["Barbosa_Faces",3,0,2]},{"code":401,"indent":0,"parameters":["Talvez a gente \\|de\\.de\\|devesse tentar olhar a porta primeiro.\\. Frio da porra."]},{"code":0,"indent":0,"parameters":[]}],"moveFrequency":3,"moveRoute":{"list":[{"code":0,"parameters":[]}],"repeat":true,"skippable":false,"wait":false},"moveSpeed":3,"moveType":0,"priorityType":1,"stepAnime":false,"through":false,"trigger":1,"walkAnime":true},{"conditions":{"actorId":1,"actorValid":false,"itemId":1,"itemValid":false,"selfSwitchCh":"A","selfSwitchValid":false,"switch1Id":1,"switch1Valid":false,"switch2Id":1,"switch2Valid":false,"variableId":182,"variableValid":true,"variableValue":1},"directionFix":false,"image":{"characterIndex":0,"characterName":"","direction":2,"pattern":0,"tileId":0},"list":[{"code":0,"indent":0,"parameters":[]}],"moveFrequency":3,"moveRoute":{"list":[{"code":0,"parameters":[]}],"repeat":true,"skippable":false,"wait":false},"moveSpeed":3,"moveType":0,"priorityType":0,"stepAnime":false,"through":false,"trigger":0,"walkAnime":true}],"x":18,"y":31},
{"id":11,"name":"EV011","note":"","pages":[{"conditions":{"actorId":1,"actorValid":false,"itemId":1,"itemValid":false,"selfSwitchCh":"A","selfSwitchValid":false,"switch1Id":1,"switch1Valid":false,"switch2Id":1,"switch2Valid":false,"variableId":1,"variableValid":false,"variableValue":0},"directionFix":false,"image":{"characterIndex":0,"characterName":"","direction":2,"pattern":0,"tileId":0},"list":[{"code":101,"indent":0,"parameters":["Barbosa_Faces",3,0,2]},{"code":401,"indent":0,"parameters":["Talvez a gente \\|de\\.de\\|devesse tentar olhar a porta primeiro.\\. Frio da porra."]},{"code":0,"indent":0,"parameters":[]}],"moveFrequency":3,"moveRoute":{"list":[{"code":0,"parameters":[]}],"repeat":true,"skippable":false,"wait":false},"moveSpeed":3,"moveType":0,"priorityType":1,"stepAnime":false,"through":false,"trigger":1,"walkAnime":true},{"conditions":{"actorId":1,"actorValid":false,"itemId":1,"itemValid":false,"selfSwitchCh":"A","selfSwitchValid":false,"switch1Id":1,"switch1Valid":false,"switch2Id":1,"switch2Valid":false,"variableId":182,"variableValid":true,"variableValue":1},"directionFix":false,"image":{"characterIndex":0,"characterName":"","direction":2,"pattern":0,"tileId":0},"list":[{"code":0,"indent":0,"parameters":[]}],"moveFrequency":3,"moveRoute":{"list":[{"code":0,"parameters":[]}],"repeat":true,"skippable":false,"wait":false},"moveSpeed":3,"moveType":0,"priorityType":0,"stepAnime":false,"through":false,"trigger":0,"walkAnime":true}],"x":19,"y":31},
{"id":12,"name":"EV012","note":"","pages":[{"conditions":{"actorId":1,"actorValid":false,"itemId":1,"itemValid":false,"selfSwitchCh":"A","selfSwitchValid":false,"switch1Id":1,"switch1Valid":false,"switch2Id":1,"switch2Valid":false,"variableId":1,"variableValid":false,"variableValue":0},"directionFix":false,"image":{"characterIndex":0,"characterName":"","direction":2,"pattern":0,"tileId":0},"list":[{"code":101,"indent":0,"parameters":["Barbosa_Faces",3,0,2]},{"code":401,"indent":0,"parameters":["Talvez a gente \\|de\\.de\\|devesse tentar olhar a porta primeiro.\\. Frio da porra."]},{"code":0,"indent":0,"parameters":[]}],"moveFrequency":3,"moveRoute":{"list":[{"code":0,"parameters":[]}],"repeat":true,"skippable":false,"wait":false},"moveSpeed":3,"moveType":0,"priorityType":1,"stepAnime":false,"through":false,"trigger":1,"walkAnime":true},{"conditions":{"actorId":1,"actorValid":false,"itemId":1,"itemValid":false,"selfSwitchCh":"A","selfSwitchValid":false,"switch1Id":1,"switch1Valid":false,"switch2Id":1,"switch2Valid":false,"variableId":182,"variableValid":true,"variableValue":1},"directionFix":false,"image":{"characterIndex":0,"characterName":"","direction":2,"pattern":0,"tileId":0},"list":[{"code":0,"indent":0,"parameters":[]}],"moveFrequency":3,"moveRoute":{"list":[{"code":0,"parameters":[]}],"repeat":true,"skippable":false,"wait":false},"moveSpeed":3,"moveType":0,"priorityType":0,"stepAnime":false,"through":false,"trigger":0,"walkAnime":true}],"x":22,"y":34},
{"id":13,"name":"EV013","note":"","pages":[{"conditions":{"actorId":1,"actorValid":false,"itemId":1,"itemValid":false,"selfSwitchCh":"A","selfSwitchValid":false,"switch1Id":1,"switch1Valid":false,"switch2Id":1,"switch2Valid":false,"variableId":1,"variableValid":false,"variableValue":0},"directionFix":false,"image":{"characterIndex":0,"characterName":"","direction":2,"pattern":0,"tileId":0},"list":[{"code":201,"indent":0,"parameters":[0,173,7,12,0,0]},{"code":0,"indent":0,"parameters":[]}],"moveFrequency":3,"moveRoute":{"list":[{"code":0,"parameters":[]}],"repeat":true,"skippable":false,"wait":false},"moveSpeed":3,"moveType":0,"priorityType":0,"stepAnime":false,"through":false,"trigger":1,"walkAnime":true}],"x":39,"y":0},
{"id":14,"name":"EV014","note":"","pages":[{"conditions":{"actorId":1,"actorValid":false,"itemId":1,"itemValid":false,"selfSwitchCh":"A","selfSwitchValid":false,"switch1Id":1,"switch1Valid":false,"switch2Id":1,"switch2Valid":false,"variableId":1,"variableValid":false,"variableValue":0},"directionFix":false,"image":{"characterIndex":0,"characterName":"","direction":2,"pattern":0,"tileId":0},"list":[{"code":201,"indent":0,"parameters":[0,173,7,12,0,0]},{"code":0,"indent":0,"parameters":[]}],"moveFrequency":3,"moveRoute":{"list":[{"code":0,"parameters":[]}],"repeat":true,"skippable":false,"wait":false},"moveSpeed":3,"moveType":0,"priorityType":0,"stepAnime":false,"through":false,"trigger":1,"walkAnime":true}],"x":40,"y":0},
{"id":15,"name":"EV015","note":"","pages":[{"conditions":{"actorId":1,"actorValid":false,"itemId":1,"itemValid":false,"selfSwitchCh":"A","selfSwitchValid":false,"switch1Id":1,"switch1Valid":false,"switch2Id":1,"switch2Valid":false,"variableId":1,"variableValid":false,"variableValue":0},"directionFix":false,"image":{"characterIndex":0,"characterName":"","direction":2,"pattern":0,"tileId":0},"list":[{"code":201,"indent":0,"parameters":[0,173,7,12,0,0]},{"code":0,"indent":0,"parameters":[]}],"moveFrequency":3,"moveRoute":{"list":[{"code":0,"parameters":[]}],"repeat":true,"skippable":false,"wait":false},"moveSpeed":3,"moveType":0,"priorityType":0,"stepAnime":false,"through":false,"trigger":1,"walkAnime":true}],"x":41,"y":0},
{"id":16,"name":"EV016","note":"","pages":[{"conditions":{"actorId":1,"actorValid":false,"itemId":1,"itemValid":false,"selfSwitchCh":"A","selfSwitchValid":false,"switch1Id":1,"switch1Valid":false,"switch2Id":1,"switch2Valid":false,"variableId":1,"variableValid":false,"variableValue":0},"directionFix":false,"image":{"characterIndex":0,"characterName":"","direction":2,"pattern":0,"tileId":0},"list":[{"code":201,"indent":0,"parameters":[0,173,7,12,0,0]},{"code":0,"indent":0,"parameters":[]}],"moveFrequency":3,"moveRoute":{"list":[{"code":0,"parameters":[]}],"repeat":true,"skippable":false,"wait":false},"moveSpeed":3,"moveType":0,"priorityType":0,"stepAnime":false,"through":false,"trigger":1,"walkAnime":true}],"x":42,"y":0},
{"id":17,"name":"EV017","note":"","pages":[{"conditions":{"actorId":1,"actorValid":false,"itemId":1,"itemValid":false,"selfSwitchCh":"A","selfSwitchValid":false,"switch1Id":1,"switch1Valid":false,"switch2Id":1,"switch2Valid":false,"variableId":1,"variableValid":false,"variableValue":0},"directionFix":false,"image":{"characterIndex":0,"characterName":"","direction":2,"pattern":0,"tileId":0},"list":[{"code":201,"indent":0,"parameters":[0,173,7,12,0,0]},{"code":0,"indent":0,"parameters":[]}],"moveFrequency":3,"moveRoute":{"list":[{"code":0,"parameters":[]}],"repeat":true,"skippable":false,"wait":false},"moveSpeed":3,"moveType":0,"priorityType":0,"stepAnime":false,"through":false,"trigger":1,"walkAnime":true}],"x":43,"y":0},
{"id":18,"name":"EV018","note":"","pages":[{"conditions":{"actorId":1,"actorValid":false,"itemId":1,"itemValid":false,"selfSwitchCh":"A","selfSwitchValid":false,"switch1Id":1,"switch1Valid":false,"switch2Id":1,"switch2Valid":false,"variableId":1,"variableValid":false,"variableValue":0},"directionFix":false,"image":{"characterIndex":0,"characterName":"","direction":2,"pattern":0,"tileId":0},"list":[{"code":201,"indent":0,"parameters":[0,173,7,12,0,0]},{"code":0,"indent":0,"parameters":[]}],"moveFrequency":3,"moveRoute":{"list":[{"code":0,"parameters":[]}],"repeat":true,"skippable":false,"wait":false},"moveSpeed":3,"moveType":0,"priorityType":0,"stepAnime":false,"through":false,"trigger":1,"walkAnime":true}],"x":44,"y":0},
{"id":19,"name":"EV019","note":"","pages":[{"conditions":{"actorId":1,"actorValid":false,"itemId":1,"itemValid":false,"selfSwitchCh":"A","selfSwitchValid":false,"switch1Id":1,"switch1Valid":false,"switch2Id":1,"switch2Valid":false,"variableId":1,"variableValid":false,"variableValue":0},"directionFix":false,"image":{"characterIndex":0,"characterName":"","direction":2,"pattern":0,"tileId":0},"list":[{"code":101,"indent":0,"parameters":["Drogado_Faces",2,0,2]},{"code":401,"indent":0,"parameters":["Que que essas árvores tão fazendo aqui?"]},{"code":101,"indent":0,"parameters":["Carry_Faces",0,0,2]},{"code":401,"indent":0,"parameters":["Heh\\., é a plantação de bananeiras da família."]},{"code":123,"indent":0,"parameters":["A",0]},{"code":0,"indent":0,"parameters":[]}],"moveFrequency":3,"moveRoute":{"list":[{"code":0,"parameters":[]}],"repeat":true,"skippable":false,"wait":false},"moveSpeed":3,"moveType":0,"priorityType":0,"stepAnime":false,"through":false,"trigger":1,"walkAnime":true},{"conditions":{"actorId":1,"actorValid":false,"itemId":1,"itemValid":false,"selfSwitchCh":"A","selfSwitchValid":true,"switch1Id":1,"switch1Valid":false,"switch2Id":1,"switch2Valid":false,"variableId":1,"variableValid":false,"variableValue":0},"directionFix":false,"image":{"characterIndex":0,"characterName":"","direction":2,"pattern":0,"tileId":0},"list":[{"code":0,"indent":0,"parameters":[]}],"moveFrequency":3,"moveRoute":{"list":[{"code":0,"parameters":[]}],"repeat":true,"skippable":false,"wait":false},"moveSpeed":3,"moveType":0,"priorityType":0,"stepAnime":false,"through":false,"trigger":0,"walkAnime":true}],"x":35,"y":26},
{"id":20,"name":"Baú Item Especial","note":"","pages":[{"conditions":{"actorId":1,"actorValid":false,"itemId":1,"itemValid":false,"selfSwitchCh":"A","selfSwitchValid":false,"switch1Id":1,"switch1Valid":false,"switch2Id":1,"switch2Valid":false,"variableId":1,"variableValid":false,"variableValue":0},"directionFix":false,"image":{"tileId":0,"characterName":"!Chest","direction":2,"pattern":1,"characterIndex":2},"list":[{"code":250,"indent":0,"parameters":[{"name":"Chest1","volume":90,"pitch":100,"pan":0}]},{"code":117,"indent":0,"parameters":[235]},{"code":123,"indent":0,"parameters":["A",0]},{"code":0,"indent":0,"parameters":[]}],"moveFrequency":3,"moveRoute":{"list":[{"code":0,"parameters":[]}],"repeat":true,"skippable":false,"wait":false},"moveSpeed":3,"moveType":0,"priorityType":1,"stepAnime":false,"through":false,"trigger":0,"walkAnime":true},{"conditions":{"actorId":1,"actorValid":false,"itemId":1,"itemValid":false,"selfSwitchCh":"A","selfSwitchValid":true,"switch1Id":1,"switch1Valid":false,"switch2Id":1,"switch2Valid":false,"variableId":1,"variableValid":false,"variableValue":0},"directionFix":false,"image":{"tileId":0,"characterName":"!Chest","direction":8,"pattern":1,"characterIndex":2},"list":[{"code":0,"indent":0,"parameters":[]}],"moveFrequency":3,"moveRoute":{"list":[{"code":0,"parameters":[]}],"repeat":true,"skippable":false,"wait":false},"moveSpeed":3,"moveType":0,"priorityType":1,"stepAnime":false,"through":false,"trigger":0,"walkAnime":true}],"x":34,"y":22},
{"id":21,"name":"Baú Item Especial","note":"","pages":[{"conditions":{"actorId":1,"actorValid":false,"itemId":1,"itemValid":false,"selfSwitchCh":"A","selfSwitchValid":false,"switch1Id":1,"switch1Valid":false,"switch2Id":1,"switch2Valid":false,"variableId":1,"variableValid":false,"variableValue":0},"directionFix":false,"image":{"tileId":0,"characterName":"!Chest","direction":2,"pattern":1,"characterIndex":2},"list":[{"code":250,"indent":0,"parameters":[{"name":"Chest1","volume":90,"pitch":100,"pan":0}]},{"code":117,"indent":0,"parameters":[235]},{"code":123,"indent":0,"parameters":["A",0]},{"code":0,"indent":0,"parameters":[]}],"moveFrequency":3,"moveRoute":{"list":[{"code":0,"parameters":[]}],"repeat":true,"skippable":false,"wait":false},"moveSpeed":3,"moveType":0,"priorityType":1,"stepAnime":false,"through":false,"trigger":0,"walkAnime":true},{"conditions":{"actorId":1,"actorValid":false,"itemId":1,"itemValid":false,"selfSwitchCh":"A","selfSwitchValid":true,"switch1Id":1,"switch1Valid":false,"switch2Id":1,"switch2Valid":false,"variableId":1,"variableValid":false,"variableValue":0},"directionFix":false,"image":{"tileId":0,"characterName":"!Chest","direction":8,"pattern":1,"characterIndex":2},"list":[{"code":0,"indent":0,"parameters":[]}],"moveFrequency":3,"moveRoute":{"list":[{"code":0,"parameters":[]}],"repeat":true,"skippable":false,"wait":false},"moveSpeed":3,"moveType":0,"priorityType":1,"stepAnime":false,"through":false,"trigger":0,"walkAnime":true}],"x":23,"y":5},
{"id":22,"name":"EV022","note":"","pages":[{"conditions":{"actorId":1,"actorValid":false,"itemId":1,"itemValid":false,"selfSwitchCh":"A","selfSwitchValid":false,"switch1Id":1,"switch1Valid":false,"switch2Id":1,"switch2Valid":false,"variableId":1,"variableValid":false,"variableValue":0},"directionFix":false,"image":{"characterIndex":0,"characterName":"","direction":2,"pattern":0,"tileId":0},"list":[{"code":230,"indent":0,"parameters":[30]},{"code":204,"indent":0,"parameters":[8,5,4]},{"code":230,"indent":0,"parameters":[60]},{"code":101,"indent":0,"parameters":["Paulista_Faces",0,0,2]},{"code":401,"indent":0,"parameters":["Eae\\., Carry\\., por que que o resto da caravana não foi junto pro sul?"]},{"code":101,"indent":0,"parameters":["Carry_Faces",0,0,2]},{"code":401,"indent":0,"parameters":["A passagem de gelo que ligava essa terra ao continente derretou antes que eles pudessem passar."]},{"code":101,"indent":0,"parameters":["Pet_Faces",0,0,2]},{"code":401,"indent":0,"parameters":["\\|\\^"]},{"code":101,"indent":0,"parameters":["Pet_Faces",1,0,2]},{"code":401,"indent":0,"parameters":["\\|Vem cá\\|, a passagem derreteu\\| ou derreteram a passagem?"]},{"code":101,"indent":0,"parameters":["Carry_Faces",0,0,2]},{"code":401,"indent":0,"parameters":["Heheh."]},{"code":123,"indent":0,"parameters":["A",0]},{"code":0,"indent":0,"parameters":[]}],"moveFrequency":3,"moveRoute":{"list":[{"code":0,"parameters":[]}],"repeat":true,"skippable":false,"wait":false},"moveSpeed":3,"moveType":0,"priorityType":0,"stepAnime":false,"through":false,"trigger":1,"walkAnime":true},{"conditions":{"actorId":1,"actorValid":false,"itemId":1,"itemValid":false,"selfSwitchCh":"A","selfSwitchValid":true,"switch1Id":1,"switch1Valid":false,"switch2Id":1,"switch2Valid":false,"variableId":1,"variableValid":false,"variableValue":0},"directionFix":false,"image":{"characterIndex":0,"characterName":"","direction":2,"pattern":0,"tileId":0},"list":[{"code":0,"indent":0,"parameters":[]}],"moveFrequency":3,"moveRoute":{"list":[{"code":0,"parameters":[]}],"repeat":true,"skippable":false,"wait":false},"moveSpeed":3,"moveType":0,"priorityType":0,"stepAnime":false,"through":false,"trigger":0,"walkAnime":true}],"x":18,"y":13},
{"id":23,"name":"Baú Item Especial","note":"","pages":[{"conditions":{"actorId":1,"actorValid":false,"itemId":1,"itemValid":false,"selfSwitchCh":"A","selfSwitchValid":false,"switch1Id":1,"switch1Valid":false,"switch2Id":1,"switch2Valid":false,"variableId":1,"variableValid":false,"variableValue":0},"directionFix":false,"image":{"tileId":0,"characterName":"!Chest","direction":2,"pattern":1,"characterIndex":2},"list":[{"code":250,"indent":0,"parameters":[{"name":"Chest1","volume":90,"pitch":100,"pan":0}]},{"code":117,"indent":0,"parameters":[235]},{"code":123,"indent":0,"parameters":["A",0]},{"code":0,"indent":0,"parameters":[]}],"moveFrequency":3,"moveRoute":{"list":[{"code":0,"parameters":[]}],"repeat":true,"skippable":false,"wait":false},"moveSpeed":3,"moveType":0,"priorityType":1,"stepAnime":false,"through":false,"trigger":0,"walkAnime":true},{"conditions":{"actorId":1,"actorValid":false,"itemId":1,"itemValid":false,"selfSwitchCh":"A","selfSwitchValid":true,"switch1Id":1,"switch1Valid":false,"switch2Id":1,"switch2Valid":false,"variableId":1,"variableValid":false,"variableValue":0},"directionFix":false,"image":{"tileId":0,"characterName":"!Chest","direction":8,"pattern":1,"characterIndex":2},"list":[{"code":0,"indent":0,"parameters":[]}],"moveFrequency":3,"moveRoute":{"list":[{"code":0,"parameters":[]}],"repeat":true,"skippable":false,"wait":false},"moveSpeed":3,"moveType":0,"priorityType":1,"stepAnime":false,"through":false,"trigger":0,"walkAnime":true}],"x":45,"y":22},
{"id":24,"name":"Baú Item Especial","note":"","pages":[{"conditions":{"actorId":1,"actorValid":false,"itemId":1,"itemValid":false,"selfSwitchCh":"A","selfSwitchValid":false,"switch1Id":1,"switch1Valid":false,"switch2Id":1,"switch2Valid":false,"variableId":1,"variableValid":false,"variableValue":0},"directionFix":false,"image":{"tileId":0,"characterName":"!Chest","direction":2,"pattern":1,"characterIndex":2},"list":[{"code":250,"indent":0,"parameters":[{"name":"Chest1","volume":90,"pitch":100,"pan":0}]},{"code":117,"indent":0,"parameters":[235]},{"code":123,"indent":0,"parameters":["A",0]},{"code":0,"indent":0,"parameters":[]}],"moveFrequency":3,"moveRoute":{"list":[{"code":0,"parameters":[]}],"repeat":true,"skippable":false,"wait":false},"moveSpeed":3,"moveType":0,"priorityType":1,"stepAnime":false,"through":false,"trigger":0,"walkAnime":true},{"conditions":{"actorId":1,"actorValid":false,"itemId":1,"itemValid":false,"selfSwitchCh":"A","selfSwitchValid":true,"switch1Id":1,"switch1Valid":false,"switch2Id":1,"switch2Valid":false,"variableId":1,"variableValid":false,"variableValue":0},"directionFix":false,"image":{"tileId":0,"characterName":"!Chest","direction":8,"pattern":1,"characterIndex":2},"list":[{"code":0,"indent":0,"parameters":[]}],"moveFrequency":3,"moveRoute":{"list":[{"code":0,"parameters":[]}],"repeat":true,"skippable":false,"wait":false},"moveSpeed":3,"moveType":0,"priorityType":1,"stepAnime":false,"through":false,"trigger":0,"walkAnime":true}],"x":36,"y":4},
{"id":25,"name":"EV025","note":"","pages":[{"conditions":{"actorId":1,"actorValid":false,"itemId":1,"itemValid":false,"selfSwitchCh":"A","selfSwitchValid":false,"switch1Id":1,"switch1Valid":false,"switch2Id":1,"switch2Valid":false,"variableId":1,"variableValid":false,"variableValue":0},"directionFix":false,"image":{"characterIndex":0,"characterName":"","direction":2,"pattern":0,"tileId":0},"list":[{"code":101,"indent":0,"parameters":["Magali_Faces",3,0,2]},{"code":401,"indent":0,"parameters":["Vem cá\\., Carry\\., por que que tem tanta anã nessa porra de lugar?"]},{"code":101,"indent":0,"parameters":["Carry_Faces",1,0,2]},{"code":401,"indent":0,"parameters":["A parte da minha família que ficou pra trás passou a usar a mão de obra dos anões pra manter o local."]},{"code":101,"indent":0,"parameters":["Hulk2",0,0,2]},{"code":401,"indent":0,"parameters":["Negativo!!\\. Não é essa a história verdadeira não!!\\| EU SEI!\\. EU VI!"]},{"code":123,"indent":0,"parameters":["A",0]},{"code":0,"indent":0,"parameters":[]}],"moveFrequency":3,"moveRoute":{"list":[{"code":0,"parameters":[]}],"repeat":true,"skippable":false,"wait":false},"moveSpeed":3,"moveType":0,"priorityType":0,"stepAnime":false,"through":false,"trigger":1,"walkAnime":true},{"conditions":{"actorId":1,"actorValid":false,"itemId":1,"itemValid":false,"selfSwitchCh":"A","selfSwitchValid":true,"switch1Id":1,"switch1Valid":false,"switch2Id":1,"switch2Valid":false,"variableId":1,"variableValid":false,"variableValue":0},"directionFix":false,"image":{"characterIndex":0,"characterName":"","direction":2,"pattern":0,"tileId":0},"list":[{"code":0,"indent":0,"parameters":[]}],"moveFrequency":3,"moveRoute":{"list":[{"code":0,"parameters":[]}],"repeat":true,"skippable":false,"wait":false},"moveSpeed":3,"moveType":0,"priorityType":0,"stepAnime":false,"through":false,"trigger":0,"walkAnime":true}],"x":34,"y":7},
{"id":26,"name":"Baú Ouro","note":"","pages":[{"conditions":{"actorId":1,"actorValid":false,"itemId":1,"itemValid":false,"selfSwitchCh":"A","selfSwitchValid":false,"switch1Id":1,"switch1Valid":false,"switch2Id":1,"switch2Valid":false,"variableId":1,"variableValid":false,"variableValue":0},"directionFix":false,"image":{"tileId":0,"characterName":"Chests","direction":2,"pattern":1,"characterIndex":4},"list":[{"code":125,"indent":0,"parameters":[0,0,1000]},{"code":250,"indent":0,"parameters":[{"name":"Chest1","volume":90,"pitch":100,"pan":0}]},{"code":122,"indent":0,"parameters":[312,312,1,0,1]},{"code":356,"indent":0,"parameters":["GabText 1000G"]},{"code":356,"indent":0,"parameters":["ShowGab"]},{"code":123,"indent":0,"parameters":["A",0]},{"code":0,"indent":0,"parameters":[]}],"moveFrequency":3,"moveRoute":{"list":[{"code":0,"parameters":[]}],"repeat":true,"skippable":false,"wait":false},"moveSpeed":3,"moveType":0,"priorityType":1,"stepAnime":false,"through":false,"trigger":0,"walkAnime":true},{"conditions":{"actorId":1,"actorValid":false,"itemId":1,"itemValid":false,"selfSwitchCh":"A","selfSwitchValid":true,"switch1Id":1,"switch1Valid":false,"switch2Id":1,"switch2Valid":false,"variableId":1,"variableValid":false,"variableValue":0},"directionFix":false,"image":{"tileId":0,"characterName":"Chests","direction":8,"pattern":1,"characterIndex":4},"list":[{"code":0,"indent":0,"parameters":[]}],"moveFrequency":3,"moveRoute":{"list":[{"code":0,"parameters":[]}],"repeat":true,"skippable":false,"wait":false},"moveSpeed":3,"moveType":0,"priorityType":1,"stepAnime":false,"through":false,"trigger":0,"walkAnime":true}],"x":8,"y":22},
{"id":27,"name":"Save","note":"","pages":[{"conditions":{"actorId":1,"actorValid":false,"itemId":1,"itemValid":false,"selfSwitchCh":"A","selfSwitchValid":false,"switch1Id":1,"switch1Valid":false,"switch2Id":1,"switch2Valid":false,"variableId":1,"variableValid":false,"variableValue":0},"directionFix":true,"image":{"tileId":0,"characterName":"!Crystal","direction":2,"pattern":1,"characterIndex":3},"list":[{"code":352,"indent":0,"parameters":[]},{"code":0,"indent":0,"parameters":[]}],"moveFrequency":3,"moveRoute":{"list":[{"code":0,"parameters":[]}],"repeat":true,"skippable":false,"wait":false},"moveSpeed":3,"moveType":0,"priorityType":1,"stepAnime":true,"through":false,"trigger":0,"walkAnime":false}],"x":16,"y":48},
{"id":28,"name":"EV028","note":"","pages":[{"conditions":{"actorId":1,"actorValid":false,"itemId":1,"itemValid":false,"selfSwitchCh":"A","selfSwitchValid":false,"switch1Id":1,"switch1Valid":false,"switch2Id":1,"switch2Valid":false,"variableId":1,"variableValid":false,"variableValue":0},"directionFix":false,"image":{"characterIndex":0,"characterName":"","direction":2,"pattern":0,"tileId":0},"list":[{"code":201,"indent":0,"parameters":[0,176,13,0,2,0]},{"code":0,"indent":0,"parameters":[]}],"moveFrequency":3,"moveRoute":{"list":[{"code":0,"parameters":[]}],"repeat":true,"skippable":false,"wait":false},"moveSpeed":3,"moveType":0,"priorityType":0,"stepAnime":false,"through":false,"trigger":1,"walkAnime":true}],"x":15,"y":22}
]
}