{
"autoplayBgm":true,"autoplayBgs":true,"battleback1Name":"","battleback2Name":"","bgm":{"name":"","pan":0,"pitch":100,"volume":90},"bgs":{"name":"Darkness","pan":0,"pitch":100,"volume":90},"disableDashing":false,"displayName":"","encounterList":[],"encounterStep":30,"height":13,"note":"","parallaxLoopX":true,"parallaxLoopY":true,"parallaxName":"DarkSpace3","parallaxShow":true,"parallaxSx":1,"parallaxSy":1,"scrollType":0,"specifyBattleback":false,"tilesetId":44,"width":23,
"data":[5888,5892,5916,5916,5916,5916,5916,5916,5916,5916,5916,5916,5916,5916,5916,5916,5916,5916,5916,5916,5916,5896,5888,5888,5912,6274,6274,6274,6274,6286,1544,1544,1544,1544,1544,1544,1544,1544,1544,6283,6274,6274,6274,6274,5904,5888,5888,5912,6272,6272,6272,6276,1561,1544,1544,1544,1544,1544,1544,1544,1544,1544,1561,6273,6272,6272,6272,5904,5888,5888,5912,6272,6272,6272,6276,1544,1544,1544,1544,1544,1544,1544,1544,1544,1544,1544,6273,6272,6272,6272,5904,5888,5888,5912,6280,6280,6280,6280,6287,1544,1544,1544,1544,1544,1544,1544,1544,1544,6287,6280,6280,6280,6280,5904,5888,5888,5912,1553,1553,1553,1553,1553,1553,1553,1553,1553,1553,1553,1553,1553,1553,1553,1553,1553,1553,1553,5904,5888,5888,5912,1553,1553,1553,1553,1553,1553,1553,1553,1553,1553,1553,1553,1553,1553,1553,1553,1553,1553,1553,5904,5888,5888,5912,1553,1553,1553,1553,1553,1553,1553,1553,1553,1553,1553,1553,1553,1553,1553,1553,1553,1553,1553,5904,5888,5888,5912,1553,1553,1553,1553,1553,1553,1553,1553,1553,1553,1553,1553,1553,1553,1553,1553,1553,1553,1553,5904,5888,5888,5912,1580,1581,1581,1581,1581,1581,1581,1581,1581,1581,1581,1581,1581,1581,1581,1581,1581,1581,1582,5904,5888,5888,5912,1553,1553,1553,1553,1553,1553,1553,1553,1553,1553,1553,1553,1553,1553,1553,1553,1553,1553,1553,5904,5888,5888,5912,1553,1553,1553,1553,1553,1553,1553,1553,1553,1553,1553,1553,1553,1553,1553,1553,1553,1553,1553,5904,5888,5888,5890,5908,5908,5908,5908,5908,5908,5908,5924,1553,1553,1553,5922,5908,5908,5908,5908,5908,5908,5908,5889,5888,0,0,0,0,0,0,0,0,0,0,0,0,0,0,0,0,0,0,0,0,0,0,0,0,0,0,0,0,0,0,0,0,0,0,0,0,0,0,0,0,0,0,0,0,0,0,0,0,0,0,0,0,0,0,0,0,0,0,0,0,0,0,0,0,0,0,0,0,0,0,0,0,0,0,0,0,0,0,0,0,0,0,0,0,0,0,0,0,0,0,0,0,0,0,0,0,0,0,0,0,0,0,0,0,0,0,0,0,0,0,0,0,0,0,0,0,0,0,0,0,0,0,0,0,0,0,0,0,0,0,0,0,0,0,0,0,0,0,0,0,0,0,0,0,0,0,0,0,0,0,0,0,0,0,0,0,0,0,0,0,0,0,0,0,0,0,0,0,0,0,0,0,0,0,0,0,0,0,0,0,0,0,0,0,0,0,0,0,0,0,0,0,0,0,0,0,0,0,0,0,0,0,0,0,0,0,0,0,0,3522,3509,3533,0,0,0,0,0,0,0,0,0,0,0,0,0,0,0,0,0,0,0,0,3528,3526,0,0,0,0,0,0,0,0,0,0,0,0,0,0,0,0,0,0,0,0,0,0,0,0,0,0,0,0,0,0,0,0,0,0,0,0,0,0,0,0,0,0,0,0,0,0,0,0,0,0,0,0,0,0,0,0,0,0,0,0,0,0,0,0,0,0,0,0,0,0,0,0,0,0,0,0,0,0,0,0,0,0,0,0,0,0,0,0,0,0,0,0,0,0,0,0,0,0,0,0,0,0,0,0,0,0,0,0,0,0,0,0,0,0,0,0,0,0,0,0,0,0,0,0,0,0,0,0,0,0,0,0,0,0,0,0,0,0,0,0,0,0,0,0,0,0,0,0,0,0,0,0,0,0,0,0,0,0,0,0,0,0,0,0,0,0,0,0,0,0,0,0,0,0,0,0,0,0,0,0,0,0,0,0,0,0,0,0,0,0,0,0,0,0,0,0,0,0,0,0,0,0,0,0,0,0,0,0,0,0,0,0,0,0,0,0,0,0,0,0,0,0,0,0,0,0,0,0,0,0,0,0,0,0,0,0,0,0,0,0,0,0,0,0,0,0,0,0,0,0,0,0,0,0,0,0,0,0,0,0,0,0,0,0,0,0,0,0,0,0,0,0,0,0,0,0,0,0,0,0,0,0,0,0,0,0,0,0,0,0,0,0,0,0,0,0,0,0,0,0,0,0,0,0,0,0,0,0,0,0,0,0,0,0,0,0,0,0,0,0,0,0,0,0,0,0,0,0,0,0,0,0,0,0,0,0,0,0,0,0,0,0,0,0,0,0,0,0,0,0,0,0,0,0,0,0,0,0,0,0,0,0,0,0,0,0,0,0,0,0,0,0,0,0,0,0,0,0,0,0,0,0,0,0,0,0,0,0,0,0,0,0,0,0,96,97,97,97,97,97,97,97,98,0,0,0,0,0,0,0,0,0,628,600,0,0,0,0,0,0,0,0,0,0,0,0,0,0,613,649,650,0,0,0,0,623,728,729,0,0,0,0,0,0,0,0,0,0,0,0,0,621,622,623,0,0,0,0,631,736,737,0,0,1016,1017,1017,1017,1017,1017,1017,1017,1018,0,0,629,630,631,0,0,0,0,639,744,745,0,0,0,0,0,0,0,0,0,0,0,0,0,637,638,639,0,0,0,0,0,0,0,0,0,0,0,0,0,0,0,0,0,0,0,0,0,580,0,0,0,0,0,696,697,698,0,0,0,0,0,0,0,0,0,0,0,0,0,0,588,589,0,0,0,0,704,705,706,0,0,0,0,0,0,0,0,0,0,0,0,0,0,596,0,0,0,0,0,0,0,0,0,0,0,0,0,0,0,0,0,0,0,0,0,0,0,0,0,0,0,0,0,0,0,0,0,0,0,0,0,0,0,0,0,0,0,0,0,0,0,0,0,0,0,0,0,0,0,0,0,0,0,0,0,0,0,0,0,0,0,0,0,0,0,0,0,0,0,0,0,0,0,0,0,0,0,0,0,0,0,0,0,0,0,0,0,0,0,0,0,0,0,0,0,0,0,0,0,0,0,0,0,0,0,0,0,0,0,0,0,0,0,0,0,0,0,0,0,1,0,0,0,0,0,0,0,0,0,0,0,0,0,0,0,0,0,0,0,0,0,0,0,0,0,0,0,0,0,0,0,0,0,0,0,0,0,0,0,0,0,0,0,0,0,0,0,0,0,0,0,0,0,0,0,0,0,0,0,0,0,0,0,0,0,0,0,0,0,0,0,0,0,0,0,0,0,0,0,0,0,0,0,0,0,0,5,0,0,0,0,0,0,0,0,0,0,0,0,0,0,0,0,0,0,0,0,0,0,5,0,0,0,0,0,0,0,0,0,0,0,0,0,0,0,0,0,0,0,0,0,0,5,0,0,0,0,0,0,0,0,0,0,0,0,0,0,0,0,0,0,0,0,0,0,5,0,0,0,0,0,0,0,0,0,0,0,0,0,0,0,0,0,0,0,0,0,0,5,0,0,0,0,0,0,0,0,0,0,0,0,0,0,0,0,0,0,0,0,0,0,5,0,0,0,0,0,0,0,0,0,0,0,0,0,0,0,0,0,0,0,0,0,0,5,0,0,0,0,0,0,0,0,0,0,0,0,0,0,0,0,0,0,0,0,0,0,0,0,0,0,0,0,0,0,0,0,0,0,0,0,0,0,0,0,0,0,0,0,0,0,0,0,0,0,0,0,0,0,0,0,0,0,0,0,0,0,0,0,0,0,0,0,0,0,0,0,0,0,0,0,0,0,0,0,0,0,0,0,0,0,0,0,0,0,0,0,0,0,0,0,0,0,0,0,0,0,0,0,0,0,0,0,0,0,0,0,0,0,0,0,0,0,0,0,0,0,0,0,0,0,0,0,0,0,0,0,0,0,0,0,0,0,0,0,0,0,0,0,0,0,0,0,0,0,0,0,0,0,0,0,0,0,0,0,0,0,0,0,0,0,0,0,0,0,0,0,0,0,0,0,0,0,0,0,0,0,0,0,0,0,0,0,0,0,0,0,0,0,0,0,0,0,0,0,0,0,0,0,0,0,0,0,0,0,0,0,0,0,0,0,0,0,0,0,0,0,0,0,0,0,0,0,0,0,0,0,0,0,0,0,0,0,0,0,0,0,0,0,0,0,0,0,0,0,0,0,0,0,0,0,0,0,0,0,0,0,0,0,0,0,0,0,0,0,0,0,0,0,0,0,0,0,0,0,0,0,0,0,0,0,0,0,0,0,0,0,0,0,0,0,0,0,0,0,0,0,0,0,0,0,0,0,0,0,0,0,0,0,0,0,0,0,0,0,0,0,0,0,0,0,0,0,0,0,0,0,0,0,0,0,0,0,0,0,0,0],
"events":[
null,
{"id":1,"name":"EV001","note":"","pages":[{"conditions":{"actorId":1,"actorValid":false,"itemId":1,"itemValid":false,"selfSwitchCh":"A","selfSwitchValid":false,"switch1Id":1,"switch1Valid":false,"switch2Id":1,"switch2Valid":false,"variableId":1,"variableValid":false,"variableValue":0},"directionFix":false,"image":{"tileId":0,"characterName":"!Other2","direction":2,"pattern":1,"characterIndex":6},"list":[{"code":0,"indent":0,"parameters":[]}],"moveFrequency":5,"moveRoute":{"list":[{"code":0,"parameters":[]}],"repeat":true,"skippable":false,"wait":false},"moveSpeed":3,"moveType":0,"priorityType":1,"stepAnime":true,"through":false,"trigger":0,"walkAnime":false}],"x":19,"y":6},
{"id":2,"name":"EV002","note":"","pages":[{"conditions":{"actorId":1,"actorValid":false,"itemId":1,"itemValid":false,"selfSwitchCh":"A","selfSwitchValid":false,"switch1Id":1,"switch1Valid":false,"switch2Id":1,"switch2Valid":false,"variableId":1,"variableValid":false,"variableValue":0},"directionFix":false,"image":{"tileId":0,"characterName":"!Other2","direction":2,"pattern":1,"characterIndex":6},"list":[{"code":0,"indent":0,"parameters":[]}],"moveFrequency":5,"moveRoute":{"list":[{"code":0,"parameters":[]}],"repeat":true,"skippable":false,"wait":false},"moveSpeed":3,"moveType":0,"priorityType":1,"stepAnime":true,"through":false,"trigger":0,"walkAnime":false}],"x":4,"y":3},
{"id":3,"name":"EV003","note":"","pages":[{"conditions":{"actorId":1,"actorValid":false,"itemId":1,"itemValid":false,"selfSwitchCh":"A","selfSwitchValid":false,"switch1Id":1,"switch1Valid":false,"switch2Id":1,"switch2Valid":false,"variableId":1,"variableValid":false,"variableValue":0},"directionFix":false,"image":{"tileId":0,"characterName":"!Other2","direction":2,"pattern":1,"characterIndex":6},"list":[{"code":0,"indent":0,"parameters":[]}],"moveFrequency":5,"moveRoute":{"list":[{"code":0,"parameters":[]}],"repeat":true,"skippable":false,"wait":false},"moveSpeed":3,"moveType":0,"priorityType":1,"stepAnime":true,"through":false,"trigger":0,"walkAnime":false}],"x":18,"y":2},
{"id":4,"name":"Afelson","note":"","pages":[{"conditions":{"actorId":1,"actorValid":false,"itemId":1,"itemValid":false,"selfSwitchCh":"A","selfSwitchValid":false,"switch1Id":1,"switch1Valid":false,"switch2Id":1,"switch2Valid":false,"variableId":1,"variableValid":false,"variableValue":0},"directionFix":false,"image":{"tileId":0,"characterName":"Vilões","direction":8,"pattern":1,"characterIndex":0},"list":[{"code":0,"indent":0,"parameters":[]}],"moveFrequency":3,"moveRoute":{"list":[{"code":0,"parameters":[]}],"repeat":true,"skippable":false,"wait":false},"moveSpeed":3,"moveType":0,"priorityType":1,"stepAnime":false,"through":false,"trigger":0,"walkAnime":true}],"x":11,"y":5},
{"id":5,"name":"EV005","note":"","pages":[{"conditions":{"actorId":1,"actorValid":false,"itemId":1,"itemValid":false,"selfSwitchCh":"A","selfSwitchValid":false,"switch1Id":1,"switch1Valid":false,"switch2Id":1,"switch2Valid":false,"variableId":1,"variableValid":false,"variableValue":0},"directionFix":false,"image":{"characterIndex":0,"characterName":"","direction":2,"pattern":0,"tileId":0},"list":[{"code":205,"indent":0,"parameters":[-1,{"list":[{"code":4,"indent":null},{"code":4,"indent":null},{"code":4,"indent":null},{"code":4,"indent":null},{"code":4,"indent":null},{"code":0}],"repeat":false,"skippable":false,"wait":true}]},{"code":505,"indent":0,"parameters":[{"code":4,"indent":null}]},{"code":505,"indent":0,"parameters":[{"code":4,"indent":null}]},{"code":505,"indent":0,"parameters":[{"code":4,"indent":null}]},{"code":505,"indent":0,"parameters":[{"code":4,"indent":null}]},{"code":505,"indent":0,"parameters":[{"code":4,"indent":null}]},{"code":217,"indent":0,"parameters":[]},{"code":230,"indent":0,"parameters":[60]},{"code":101,"indent":0,"parameters":["Afelson_Faces",1,0,2]},{"code":401,"indent":0,"parameters":["Contemplem\\| o \\c[18] Domínio da Frequência\\c[0]."]},{"code":205,"indent":0,"parameters":[4,{"list":[{"code":16,"indent":null},{"code":0}],"repeat":false,"skippable":false,"wait":true}]},{"code":505,"indent":0,"parameters":[{"code":16,"indent":null}]},{"code":230,"indent":0,"parameters":[60]},{"code":101,"indent":0,"parameters":["Afelson_Faces",1,0,2]},{"code":401,"indent":0,"parameters":["\\c[18]Contemplem\\c[0]\\| o Domínio da Frequência."]},{"code":101,"indent":0,"parameters":["Magali_Faces",1,0,2]},{"code":401,"indent":0,"parameters":["Boa.\\. Barbie\\., fecha o portal enquanto o Exemplo segura o Dorf."]},{"code":101,"indent":0,"parameters":["Exemplo_Faces",6,0,2]},{"code":401,"indent":0,"parameters":["Ei!"]},{"code":101,"indent":0,"parameters":["Afelson_Faces",3,0,2]},{"code":401,"indent":0,"parameters":["Hahaha!\\| Vocês querem me pegar?\\| Veremos se vocês aprenderam alguma coisa."]},{"code":101,"indent":0,"parameters":["Afelson_Faces",1,0,2]},{"code":401,"indent":0,"parameters":["Para me enfrentar\\., vocês terão que passar para o \\fb Domínio da Frequência!"]},{"code":205,"indent":0,"parameters":[4,{"list":[{"code":19,"indent":null},{"code":15,"parameters":[15],"indent":null},{"code":37,"indent":null},{"code":14,"parameters":[0,-2],"indent":null},{"code":44,"parameters":[{"name":"Jump1","volume":90,"pitch":100,"pan":0}],"indent":null},{"code":0}],"repeat":false,"skippable":false,"wait":true}]},{"code":505,"indent":0,"parameters":[{"code":19,"indent":null}]},{"code":505,"indent":0,"parameters":[{"code":15,"parameters":[15],"indent":null}]},{"code":505,"indent":0,"parameters":[{"code":37,"indent":null}]},{"code":505,"indent":0,"parameters":[{"code":14,"parameters":[0,-2],"indent":null}]},{"code":505,"indent":0,"parameters":[{"code":44,"parameters":[{"name":"Jump1","volume":90,"pitch":100,"pan":0}],"indent":null}]},{"code":230,"indent":0,"parameters":[10]},{"code":121,"indent":0,"parameters":[457,457,0]},{"code":250,"indent":0,"parameters":[{"name":"Flash2","volume":90,"pitch":50,"pan":0}]},{"code":224,"indent":0,"parameters":[[255,255,255,170],300,true]},{"code":101,"indent":0,"parameters":["Barbosa_Faces",1,0,2]},{"code":401,"indent":0,"parameters":["Hum\\., otário.\\| Agora é só a gente fe\\.ee\\|eechar o portal e deixar ele perdido lá dentro."]},{"code":205,"indent":0,"parameters":[-1,{"list":[{"code":4,"indent":null},{"code":4,"indent":null},{"code":4,"indent":null},{"code":37,"indent":null},{"code":14,"parameters":[0,-2],"indent":null},{"code":44,"parameters":[{"name":"Jump1","volume":90,"pitch":100,"pan":0}],"indent":0},{"code":38,"indent":null},{"code":0}],"repeat":false,"skippable":false,"wait":true}]},{"code":505,"indent":0,"parameters":[{"code":4,"indent":null}]},{"code":505,"indent":0,"parameters":[{"code":4,"indent":null}]},{"code":505,"indent":0,"parameters":[{"code":4,"indent":null}]},{"code":505,"indent":0,"parameters":[{"code":37,"indent":null}]},{"code":505,"indent":0,"parameters":[{"code":14,"parameters":[0,-2],"indent":null}]},{"code":505,"indent":0,"parameters":[{"code":44,"parameters":[{"name":"Jump1","volume":90,"pitch":100,"pan":0}],"indent":0}]},{"code":505,"indent":0,"parameters":[{"code":38,"indent":null}]},{"code":211,"indent":0,"parameters":[0]},{"code":101,"indent":0,"parameters":["Barbosa_Faces",5,0,2]},{"code":401,"indent":0,"parameters":["Porra!\\. Quem foi que apertou o botão pra frente?!?"]},{"code":101,"indent":0,"parameters":["Chanel",0,0,2]},{"code":401,"indent":0,"parameters":["Hehehe\\., pois é\\|, quem será que fez isso."]},{"code":250,"indent":0,"parameters":[{"name":"Flash2","volume":90,"pitch":50,"pan":0}]},{"code":223,"indent":0,"parameters":[[255,255,255,0],30,false]},{"code":211,"indent":0,"parameters":[1]},{"code":201,"indent":0,"parameters":[0,202,3,4,0,1]},{"code":0,"indent":0,"parameters":[]}],"moveFrequency":3,"moveRoute":{"list":[{"code":0,"parameters":[]}],"repeat":true,"skippable":false,"wait":false},"moveSpeed":3,"moveType":0,"priorityType":0,"stepAnime":false,"through":false,"trigger":3,"walkAnime":true}],"x":0,"y":0}
]
}