[
null,
{"id":1,"expanded":true,"name":"Fundão - Pântano","order":7,"parentId":6,"scrollX":1129,"scrollY":1458.5},
{"id":2,"expanded":false,"name":"CT","order":8,"parentId":6,"scrollX":1129,"scrollY":1916.5},
{"id":3,"expanded":false,"name":"Introdução","order":1,"parentId":0,"scrollX":1129,"scrollY":498.5},
{"id":4,"expanded":false,"name":"Estrada","order":23,"parentId":6,"scrollX":1131,"scrollY":738.5},
{"id":5,"expanded":true,"name":"Burguesão","order":24,"parentId":4,"scrollX":1131,"scrollY":498.5},
{"id":6,"expanded":false,"name":"Fundão","order":6,"parentId":0,"scrollX":1129,"scrollY":1218.5},
{"id":7,"expanded":false,"name":"Hospital - Entrada","order":27,"parentId":6,"scrollX":1129,"scrollY":978.5},
{"id":8,"expanded":true,"name":"Hospital Universitário","order":28,"parentId":7,"scrollX":1129,"scrollY":820.5},
{"id":9,"expanded":false,"name":"Hospital - Secret","order":29,"parentId":7,"scrollX":1137,"scrollY":461.5},
{"id":10,"expanded":true,"name":"Hospital2","order":31,"parentId":7,"scrollX":1129,"scrollY":3858.5},
{"id":11,"expanded":false,"name":"Hospital - Quarto","order":32,"parentId":7,"scrollX":1137,"scrollY":461.5},
{"id":12,"expanded":false,"name":"Hospital - Secret2","order":30,"parentId":9,"scrollX":1139,"scrollY":461.5},
{"id":13,"expanded":false,"name":"Hospital - Fuga","order":33,"parentId":7,"scrollX":1129,"scrollY":1066.5},
{"id":14,"expanded":false,"name":"Hospital - Fim","order":34,"parentId":7,"scrollX":1137,"scrollY":461.5},
{"id":15,"expanded":false,"name":"GE Estrada","order":37,"parentId":6,"scrollX":1131,"scrollY":2934.5},
{"id":16,"expanded":false,"name":"GE Clareira","order":38,"parentId":15,"scrollX":1129,"scrollY":462.5},
{"id":17,"expanded":false,"name":"GE","order":39,"parentId":15,"scrollX":724,"scrollY":638.5},
{"id":18,"expanded":true,"name":"GE - Hall","order":41,"parentId":15,"scrollX":1129,"scrollY":498.5},
{"id":19,"expanded":false,"name":"GE - Hall - Portal","order":40,"parentId":17,"scrollX":1129,"scrollY":498.5},
{"id":20,"expanded":false,"name":"Botafogo","order":42,"parentId":0,"scrollX":1129,"scrollY":1078.5},
{"id":21,"expanded":false,"name":"Tijuca","order":70,"parentId":0,"scrollX":1131,"scrollY":1296.5},
{"id":22,"expanded":false,"name":"Nova América","order":103,"parentId":0,"scrollX":1131,"scrollY":738.5},
{"id":23,"expanded":false,"name":"Sonhos","order":148,"parentId":0,"scrollX":1129,"scrollY":1458.5},
{"id":24,"expanded":false,"name":"Regata","order":89,"parentId":25,"scrollX":3661,"scrollY":453.5},
{"id":25,"expanded":false,"name":"Macaé","order":82,"parentId":0,"scrollX":1131,"scrollY":1698.5},
{"id":26,"expanded":false,"name":"Nova Iguaçu","order":90,"parentId":0,"scrollX":1131,"scrollY":1698.5},
{"id":27,"expanded":true,"name":"Mundo","order":213,"parentId":0,"scrollX":1554,"scrollY":453.5},
{"id":28,"expanded":false,"name":"Borda do Mato","order":113,"parentId":54,"scrollX":1129,"scrollY":1341.5},
{"id":29,"expanded":true,"name":"Ritual","order":58,"parentId":104,"scrollX":1129,"scrollY":461.5},
{"id":30,"expanded":false,"name":"Sonhos2","order":149,"parentId":23,"scrollX":1132,"scrollY":1535.5},
{"id":31,"expanded":false,"name":"Horto","order":130,"parentId":0,"scrollX":1131,"scrollY":978.5},
{"id":32,"expanded":false,"name":"Item Shop","order":43,"parentId":20,"scrollX":1133.5,"scrollY":461.5},
{"id":33,"expanded":true,"name":"Weapon/Armor Shop","order":44,"parentId":20,"scrollX":1133.5,"scrollY":461.5},
{"id":34,"expanded":false,"name":"Hotel","order":46,"parentId":20,"scrollX":1125.5,"scrollY":498.5},
{"id":35,"expanded":false,"name":"Hotel 2","order":47,"parentId":34,"scrollX":1137,"scrollY":461.5},
{"id":36,"expanded":false,"name":"Restaurante","order":45,"parentId":20,"scrollX":1133.5,"scrollY":461.5},
{"id":37,"expanded":false,"name":"Bukowski","order":48,"parentId":20,"scrollX":1131,"scrollY":538.5},
{"id":38,"expanded":false,"name":"Pré Inferno","order":50,"parentId":20,"scrollX":644.5,"scrollY":408.5},
{"id":39,"expanded":false,"name":"Inferno","order":59,"parentId":0,"scrollX":1129,"scrollY":498.5},
{"id":40,"expanded":false,"name":"Inferno - Comércio","order":60,"parentId":39,"scrollX":1131,"scrollY":461.5},
{"id":41,"expanded":false,"name":"Inferno - Administração","order":62,"parentId":39,"scrollX":1131,"scrollY":640.5},
{"id":42,"expanded":true,"name":"Inferno - Carry","order":63,"parentId":39,"scrollX":1131,"scrollY":498.5},
{"id":43,"expanded":false,"name":"Inferno - Secret","order":64,"parentId":42,"scrollX":1139,"scrollY":461.5},
{"id":44,"expanded":false,"name":"Inferno - Detenção","order":66,"parentId":39,"scrollX":1131,"scrollY":640.5},
{"id":45,"expanded":false,"name":"Inferno - Cela","order":69,"parentId":39,"scrollX":1139,"scrollY":461.5},
{"id":46,"expanded":true,"name":"Monastério dos Macacos","order":131,"parentId":31,"scrollX":1131,"scrollY":538.5},
{"id":47,"expanded":true,"name":"Tribunal","order":110,"parentId":48,"scrollX":1139,"scrollY":461.5},
{"id":48,"expanded":false,"name":"Maracanã","order":108,"parentId":0,"scrollX":1131,"scrollY":978.5},
{"id":49,"expanded":false,"name":"Cela","order":109,"parentId":48,"scrollX":1139,"scrollY":461.5},
{"id":50,"expanded":false,"name":"Nova América - 1","order":104,"parentId":22,"scrollX":1137,"scrollY":461.5},
{"id":51,"expanded":false,"name":"Nova América - 2","order":106,"parentId":22,"scrollX":1139,"scrollY":461.5},
{"id":52,"expanded":false,"name":"Nova América Secret","order":105,"parentId":50,"scrollX":832,"scrollY":640},
{"id":53,"expanded":false,"name":"Amiga dos Heróis","order":25,"parentId":4,"scrollX":1139,"scrollY":461.5},
{"id":54,"expanded":false,"name":"Cambodja","order":112,"parentId":0,"scrollX":1131,"scrollY":624.5},
{"id":55,"expanded":false,"name":"Árvore","order":120,"parentId":54,"scrollX":1129,"scrollY":624.5},
{"id":56,"expanded":false,"name":"Secret1","order":121,"parentId":55,"scrollX":1139,"scrollY":461.5},
{"id":57,"expanded":false,"name":"Secret2","order":122,"parentId":55,"scrollX":1137,"scrollY":461.5},
{"id":58,"expanded":false,"name":"Tenda - Hotel","order":114,"parentId":28,"scrollX":1137,"scrollY":461.5},
{"id":59,"expanded":false,"name":"Tenda - Loja","order":115,"parentId":28,"scrollX":1133.5,"scrollY":461.5},
{"id":60,"expanded":false,"name":"Tenda - Loja","order":116,"parentId":28,"scrollX":1139,"scrollY":461.5},
{"id":61,"expanded":false,"name":"Tenda","order":117,"parentId":28,"scrollX":1137,"scrollY":461.5},
{"id":62,"expanded":false,"name":"Floresta Negra","order":123,"parentId":54,"scrollX":2229,"scrollY":624.5},
{"id":63,"expanded":false,"name":"Espírito","order":67,"parentId":44,"scrollX":1139,"scrollY":461.5},
{"id":64,"expanded":false,"name":"Caverna","order":124,"parentId":62,"scrollX":1129,"scrollY":624.5},
{"id":65,"expanded":false,"name":"Caverna - Secret","order":125,"parentId":64,"scrollX":1139,"scrollY":461.5},
{"id":66,"expanded":false,"name":"Azimba","order":127,"parentId":62,"scrollX":1129,"scrollY":498.5},
{"id":67,"expanded":false,"name":"Zebra Zero","order":128,"parentId":62,"scrollX":1129,"scrollY":484.5},
{"id":68,"expanded":false,"name":"Chocolate","order":61,"parentId":40,"scrollX":816,"scrollY":1760},
{"id":69,"expanded":false,"name":"Farol","order":180,"parentId":0,"scrollX":1129,"scrollY":2418.5},
{"id":70,"expanded":false,"name":"Aranha","order":181,"parentId":69,"scrollX":1129,"scrollY":978.5},
{"id":71,"expanded":false,"name":"Farol - Secret","order":183,"parentId":69,"scrollX":1129,"scrollY":738.5},
{"id":72,"expanded":false,"name":"Caverna - Secret2","order":126,"parentId":64,"scrollX":1129,"scrollY":882.5},
{"id":73,"expanded":false,"name":"Locked - Chaplin","order":182,"parentId":70,"scrollX":1129,"scrollY":618.5},
{"id":74,"expanded":false,"name":"Apto","order":80,"parentId":21,"scrollX":1137,"scrollY":461.5},
{"id":75,"expanded":false,"name":"Loja - Magos","order":71,"parentId":21,"scrollX":1137,"scrollY":461.5},
{"id":76,"expanded":false,"name":"Hospital","order":72,"parentId":21,"scrollX":1137,"scrollY":461.5},
{"id":77,"expanded":false,"name":"Tijuca - Secret","order":73,"parentId":76,"scrollX":1129,"scrollY":538.5},
{"id":78,"expanded":false,"name":"Prefeitura - Tijuca","order":74,"parentId":21,"scrollX":1129,"scrollY":498.5},
{"id":79,"expanded":false,"name":"Xerém","order":75,"parentId":21,"scrollX":1129,"scrollY":941.5},
{"id":80,"expanded":false,"name":"Cabana","order":76,"parentId":79,"scrollX":1137,"scrollY":461.5},
{"id":81,"expanded":false,"name":"Engenho","order":52,"parentId":20,"scrollX":1129,"scrollY":461.5},
{"id":82,"expanded":false,"name":"Prefeitura - Botafogo","order":51,"parentId":20,"scrollX":832,"scrollY":640},
{"id":83,"expanded":false,"name":"Teatro","order":77,"parentId":21,"scrollX":816,"scrollY":800},
{"id":84,"expanded":false,"name":"Teatro2","order":78,"parentId":83,"scrollX":1131,"scrollY":498.5},
{"id":85,"expanded":false,"name":"Teatro - Secret","order":79,"parentId":83,"scrollX":1137,"scrollY":461.5},
{"id":86,"expanded":false,"name":"Niterói","order":133,"parentId":0,"scrollX":1139,"scrollY":461.5},
{"id":87,"expanded":false,"name":"GPOC Antes","order":118,"parentId":28,"scrollX":1137,"scrollY":461.5},
{"id":88,"expanded":false,"name":"GPOC","order":119,"parentId":87,"scrollX":1135,"scrollY":461.5},
{"id":89,"expanded":false,"name":"Porcos","order":129,"parentId":54,"scrollX":1131,"scrollY":881.5},
{"id":90,"expanded":false,"name":"Casa Mimico","order":91,"parentId":26,"scrollX":1139,"scrollY":461.5},
{"id":91,"expanded":false,"name":"Prefeitura","order":92,"parentId":26,"scrollX":1137,"scrollY":461.5},
{"id":92,"expanded":false,"name":"Loja","order":93,"parentId":26,"scrollX":1139,"scrollY":461.5},
{"id":93,"expanded":true,"name":"Fábrica","order":96,"parentId":26,"scrollX":1129,"scrollY":498.5},
{"id":94,"expanded":true,"name":"Fábrica1","order":97,"parentId":93,"scrollX":1133.5,"scrollY":461.5},
{"id":95,"expanded":false,"name":"Subsolo","order":94,"parentId":26,"scrollX":1137,"scrollY":461.5},
{"id":96,"expanded":false,"name":"Fábrica2","order":98,"parentId":93,"scrollX":1129,"scrollY":738.5},
{"id":97,"expanded":false,"name":"Secret","order":99,"parentId":96,"scrollX":1139,"scrollY":461.5},
{"id":98,"expanded":false,"name":"Fábrica 3","order":100,"parentId":93,"scrollX":1137,"scrollY":461.5},
{"id":99,"expanded":false,"name":"Fábrica4","order":101,"parentId":93,"scrollX":1129,"scrollY":738.5},
{"id":100,"expanded":true,"name":"Nova Iguaçu - Pós Vulcão","order":102,"parentId":26,"scrollX":1129,"scrollY":1178.5},
{"id":101,"expanded":false,"name":"Subsolo Pós Vulcão","order":95,"parentId":95,"scrollX":1139,"scrollY":461.5},
{"id":102,"expanded":false,"name":"Chaplin","order":53,"parentId":20,"scrollX":1131,"scrollY":638.5},
{"id":103,"expanded":false,"name":"Treino","order":49,"parentId":37,"scrollX":644.5,"scrollY":408.5},
{"id":104,"expanded":false,"name":"Taxistas","order":54,"parentId":20,"scrollX":1139,"scrollY":461.5},
{"id":105,"expanded":false,"name":"Magali - Cela","order":55,"parentId":104,"scrollX":1137,"scrollY":461.5},
{"id":106,"expanded":false,"name":"Base Taxistas","order":56,"parentId":104,"scrollX":1129,"scrollY":461.5},
{"id":107,"expanded":false,"name":"Base Taxistas Locked Room","order":57,"parentId":104,"scrollX":1137,"scrollY":461.5},
{"id":108,"expanded":false,"name":"Barra","order":135,"parentId":0,"scrollX":1131,"scrollY":1574.5},
{"id":109,"expanded":false,"name":"Hotel","order":136,"parentId":108,"scrollX":1139,"scrollY":461.5},
{"id":110,"expanded":false,"name":"Svenson's Inc","order":137,"parentId":108,"scrollX":1139,"scrollY":461.5},
{"id":111,"expanded":false,"name":"Igreja","order":138,"parentId":108,"scrollX":1131,"scrollY":738.5},
{"id":112,"expanded":false,"name":"Clérigos Odeiam Bon Jovi","order":139,"parentId":111,"scrollX":1139,"scrollY":461.5},
{"id":113,"expanded":false,"name":"Barra - Secret","order":140,"parentId":112,"scrollX":1131,"scrollY":978.5},
{"id":114,"expanded":false,"name":"Prefeitura - Barra","order":145,"parentId":108,"scrollX":1139,"scrollY":461.5},
{"id":115,"expanded":false,"name":"Colina","order":146,"parentId":108,"scrollX":1131,"scrollY":461.5},
{"id":116,"expanded":false,"name":"Caverna - Barra","order":147,"parentId":115,"scrollX":1139,"scrollY":461.5},
{"id":117,"expanded":false,"name":"Maracanã2","order":111,"parentId":48,"scrollX":1129,"scrollY":578.5},
{"id":118,"expanded":false,"name":"Hotel - Macaé","order":83,"parentId":25,"scrollX":1139,"scrollY":461.5},
{"id":119,"expanded":false,"name":"Bar","order":84,"parentId":25,"scrollX":1131,"scrollY":461.5},
{"id":120,"expanded":false,"name":"Estábulo","order":85,"parentId":25,"scrollX":1137,"scrollY":461.5},
{"id":121,"expanded":false,"name":"Arena","order":86,"parentId":25,"scrollX":1139,"scrollY":461.5},
{"id":122,"expanded":false,"name":"Arena2","order":87,"parentId":121,"scrollX":1131,"scrollY":978.5},
{"id":123,"expanded":false,"name":"Anfitrião","order":88,"parentId":25,"scrollX":1139,"scrollY":461.5},
{"id":124,"expanded":false,"name":"Sonhos3","order":150,"parentId":23,"scrollX":1129,"scrollY":2034.5},
{"id":125,"expanded":false,"name":"Sonhos4","order":151,"parentId":23,"scrollX":1001.7777777777778,"scrollY":1029.7777777777778},
{"id":126,"expanded":false,"name":"Sonhos5","order":152,"parentId":23,"scrollX":1128.5,"scrollY":461},
{"id":127,"expanded":false,"name":"Mariposa","order":68,"parentId":44,"scrollX":832,"scrollY":640},
{"id":128,"expanded":false,"name":"Caverna","order":200,"parentId":0,"scrollX":1131,"scrollY":978.5},
{"id":129,"expanded":false,"name":"Caverna2","order":201,"parentId":128,"scrollX":1137,"scrollY":461.5},
{"id":130,"expanded":false,"name":"Japão","order":153,"parentId":0,"scrollX":1131,"scrollY":1098.5},
{"id":131,"expanded":false,"name":"Loja Manaus","order":154,"parentId":130,"scrollX":1139,"scrollY":461.5},
{"id":132,"expanded":false,"name":"Bar","order":155,"parentId":130,"scrollX":1129,"scrollY":461.5},
{"id":133,"expanded":false,"name":"Novo Bar","order":156,"parentId":132,"scrollX":1129,"scrollY":461.5},
{"id":134,"expanded":false,"name":"Casa Japão","order":157,"parentId":130,"scrollX":1137,"scrollY":461.5},
{"id":135,"expanded":false,"name":"Japão - Secret","order":158,"parentId":134,"scrollX":1129,"scrollY":1458.5},
{"id":136,"expanded":false,"name":"Hotel","order":159,"parentId":130,"scrollX":1139,"scrollY":461.5},
{"id":137,"expanded":false,"name":"Túneis","order":160,"parentId":136,"scrollX":1131,"scrollY":978.5},
{"id":138,"expanded":false,"name":"Zebra Sêis","order":161,"parentId":136,"scrollX":1131,"scrollY":738.5},
{"id":139,"expanded":false,"name":"Escola","order":162,"parentId":130,"scrollX":1137,"scrollY":461.5},
{"id":140,"expanded":false,"name":"Abu Egíndia","order":163,"parentId":0,"scrollX":1131,"scrollY":461.5},
{"id":141,"expanded":false,"name":"Nova América - 3","order":107,"parentId":22,"scrollX":1139,"scrollY":461.5},
{"id":142,"expanded":false,"name":"Estaleiro","order":164,"parentId":140,"scrollX":1129,"scrollY":738.5},
{"id":143,"expanded":false,"name":"Estaleiro 2","order":165,"parentId":140,"scrollX":1129,"scrollY":461.5},
{"id":144,"expanded":false,"name":"Estaleiro 3","order":166,"parentId":140,"scrollX":1139,"scrollY":461.5},
{"id":145,"expanded":false,"name":"Romênia","order":167,"parentId":0,"scrollX":1131,"scrollY":978.5},
{"id":146,"expanded":false,"name":"Castelo - Entrada","order":168,"parentId":145,"scrollX":1129,"scrollY":738.5},
{"id":147,"expanded":true,"name":"Castelo","order":169,"parentId":145,"scrollX":1131,"scrollY":581.5},
{"id":148,"expanded":false,"name":"Cima-Direita","order":170,"parentId":147,"scrollX":1139,"scrollY":461.5},
{"id":149,"expanded":false,"name":"Baixo-Direita","order":171,"parentId":147,"scrollX":1131,"scrollY":498.5},
{"id":150,"expanded":false,"name":"Baixo-Esquerda","order":176,"parentId":147,"scrollX":1131,"scrollY":498.5},
{"id":151,"expanded":false,"name":"Porão","order":177,"parentId":150,"scrollX":1137,"scrollY":461.5},
{"id":152,"expanded":true,"name":"Porta1","order":172,"parentId":149,"scrollX":1137,"scrollY":461.5},
{"id":153,"expanded":false,"name":"Porta2","order":173,"parentId":149,"scrollX":1137,"scrollY":461.5},
{"id":154,"expanded":false,"name":"Porta3","order":174,"parentId":149,"scrollX":1139,"scrollY":461.5},
{"id":155,"expanded":false,"name":"Porta4","order":175,"parentId":149,"scrollX":1139,"scrollY":461.5},
{"id":156,"expanded":false,"name":"Cima Esquerda","order":178,"parentId":147,"scrollX":1139,"scrollY":461.5},
{"id":157,"expanded":false,"name":"Topo","order":179,"parentId":147,"scrollX":1129,"scrollY":498.5},
{"id":158,"expanded":false,"name":"FENECA","order":184,"parentId":0,"scrollX":1131,"scrollY":461.5},
{"id":159,"expanded":false,"name":"FENECA - Secret","order":185,"parentId":158,"scrollX":1131,"scrollY":834.5},
{"id":160,"expanded":false,"name":"Casa","order":186,"parentId":158,"scrollX":1137,"scrollY":461.5},
{"id":161,"expanded":false,"name":"Padrinhos - Luta","order":141,"parentId":111,"scrollX":1139,"scrollY":461.5},
{"id":162,"expanded":false,"name":"Padrinhos - Gravata","order":142,"parentId":161,"scrollX":1139,"scrollY":461.5},
{"id":163,"expanded":false,"name":"Padrinhos - Dinheiro","order":143,"parentId":162,"scrollX":1127,"scrollY":640.5},
{"id":164,"expanded":true,"name":"Padrinhos - Batalha","order":144,"parentId":162,"scrollX":1135,"scrollY":461.5},
{"id":165,"expanded":false,"name":"Corredor","order":35,"parentId":7,"scrollX":1139,"scrollY":461.5},
{"id":166,"expanded":false,"name":"Clarissa","order":36,"parentId":165,"scrollX":1139,"scrollY":461.5},
{"id":167,"expanded":false,"name":"Barco","order":187,"parentId":0,"scrollX":1129,"scrollY":678.5},
{"id":168,"expanded":false,"name":"Barco1","order":188,"parentId":167,"scrollX":1139,"scrollY":461.5},
{"id":169,"expanded":false,"name":"Barco2","order":189,"parentId":167,"scrollX":1129,"scrollY":498.5},
{"id":170,"expanded":false,"name":"Barco3","order":190,"parentId":167,"scrollX":1131,"scrollY":498.5},
{"id":171,"expanded":false,"name":"CAENG","order":26,"parentId":4,"scrollX":1139,"scrollY":461.5},
{"id":172,"expanded":false,"name":"Sair","order":81,"parentId":21,"scrollX":1137,"scrollY":461.5},
{"id":173,"expanded":true,"name":"Iglu","order":192,"parentId":174,"scrollX":1137,"scrollY":461.5},
{"id":174,"expanded":false,"name":"Pólo Norte","order":191,"parentId":0,"scrollX":1317,"scrollY":1386.5},
{"id":175,"expanded":false,"name":"Iglu Interior","order":193,"parentId":173,"scrollX":832,"scrollY":640},
{"id":176,"expanded":false,"name":"Fortaleza","order":194,"parentId":174,"scrollX":1137,"scrollY":461.5},
{"id":177,"expanded":false,"name":"Gelo - Secret","order":195,"parentId":176,"scrollX":1131,"scrollY":814.5},
{"id":178,"expanded":false,"name":"Gelo2","order":196,"parentId":176,"scrollX":1129,"scrollY":738.5},
{"id":179,"expanded":false,"name":"Carry Two","order":197,"parentId":176,"scrollX":1139,"scrollY":461.5},
{"id":180,"expanded":false,"name":"Trevor","order":198,"parentId":0,"scrollX":1137,"scrollY":461.5},
{"id":181,"expanded":false,"name":"Taverna","order":199,"parentId":180,"scrollX":1139,"scrollY":461.5},
{"id":182,"expanded":false,"name":"Corredor","order":9,"parentId":2,"scrollX":1137,"scrollY":453.5},
{"id":183,"expanded":false,"name":"Bloco A","order":10,"parentId":182,"scrollX":1129,"scrollY":461.5},
{"id":184,"expanded":false,"name":"Bloco B","order":11,"parentId":182,"scrollX":1129,"scrollY":498.5},
{"id":185,"expanded":false,"name":"Bloco C","order":13,"parentId":182,"scrollX":1137,"scrollY":461.5},
{"id":186,"expanded":false,"name":"BlocoB1","order":12,"parentId":184,"scrollX":1137,"scrollY":461.5},
{"id":187,"expanded":false,"name":"Bloco D","order":14,"parentId":182,"scrollX":1129,"scrollY":461.5},
{"id":188,"expanded":false,"name":"Bloco E","order":15,"parentId":182,"scrollX":1129,"scrollY":461.5},
{"id":189,"expanded":false,"name":"Bloco F","order":16,"parentId":182,"scrollX":1129,"scrollY":461.5},
{"id":190,"expanded":false,"name":"Bloco G","order":17,"parentId":182,"scrollX":1129,"scrollY":738.5},
{"id":191,"expanded":false,"name":"Bloco H","order":18,"parentId":2,"scrollX":1129,"scrollY":738.5},
{"id":192,"expanded":false,"name":"H221B","order":19,"parentId":191,"scrollX":1137,"scrollY":461.5},
{"id":193,"expanded":true,"name":"Queda","order":20,"parentId":191,"scrollX":1137,"scrollY":461.5},
{"id":194,"expanded":false,"name":"Triple Treat","order":21,"parentId":191,"scrollX":1129,"scrollY":461.5},
{"id":195,"expanded":false,"name":"Sala Trono","order":22,"parentId":191,"scrollX":1129,"scrollY":461.5},
{"id":196,"expanded":false,"name":"LEAD","order":203,"parentId":0,"scrollX":1129,"scrollY":461.5},
{"id":197,"expanded":false,"name":"LEAD 2","order":204,"parentId":196,"scrollX":1137,"scrollY":461.5},
{"id":198,"expanded":false,"name":"LEAD 3","order":205,"parentId":196,"scrollX":1129,"scrollY":461.5},
{"id":199,"expanded":false,"name":"Banheiro","order":206,"parentId":198,"scrollX":1139,"scrollY":461.5},
{"id":200,"expanded":false,"name":"LEAD Passadiço","order":207,"parentId":196,"scrollX":1137,"scrollY":461.5},
{"id":201,"expanded":false,"name":"Portal","order":208,"parentId":196,"scrollX":1139,"scrollY":461.5},
{"id":202,"expanded":false,"name":"Domínio da Frequência","order":209,"parentId":196,"scrollX":1495,"scrollY":453.5},
{"id":203,"expanded":false,"name":"Ponte","order":210,"parentId":202,"scrollX":1131,"scrollY":461.5},
{"id":204,"expanded":false,"name":"Afelson","order":211,"parentId":202,"scrollX":1129,"scrollY":738.5},
{"id":205,"expanded":false,"name":"Início","order":2,"parentId":3,"scrollX":1129,"scrollY":461.5},
{"id":206,"expanded":false,"name":"GE","order":3,"parentId":3,"scrollX":1139,"scrollY":461.5},
{"id":207,"expanded":false,"name":"Tubulação","order":4,"parentId":3,"scrollX":1131,"scrollY":461.5},
{"id":208,"expanded":false,"name":"Laboratório","order":5,"parentId":3,"scrollX":1133.5,"scrollY":461.5},
{"id":209,"expanded":false,"name":"Niterói - Secret","order":134,"parentId":86,"scrollX":1129,"scrollY":834.5},
{"id":210,"expanded":false,"name":"Horto - Secret","order":132,"parentId":46,"scrollX":1139,"scrollY":461.5},
{"id":211,"expanded":false,"name":"Caverna Link","order":212,"parentId":0,"scrollX":1139,"scrollY":461.5},
{"id":212,"expanded":false,"name":"Inferno - Chaplin","order":65,"parentId":42,"scrollX":1129,"scrollY":462.5},
{"id":213,"expanded":false,"name":"Camisa Robin","order":202,"parentId":129,"scrollX":1137,"scrollY":461.5}
]